G04 #@! TF.FileFunction,Legend,Top*
%FSLAX46Y46*%
G04 Gerber Fmt 4.6, Leading zero omitted, Abs format (unit mm)*
G04 Created by KiCad (PCBNEW (2014-12-04 BZR 5312)-product) date 4/15/2015 5:42:24 PM*
%MOMM*%
G01*
G04 APERTURE LIST*
%ADD10C,0.100000*%
%ADD11C,0.125000*%
%ADD12C,0.250000*%
%ADD13C,0.150000*%
G04 APERTURE END LIST*
D10*
D11*
X123623838Y-105753590D02*
X123909552Y-105753590D01*
X123766695Y-106253590D02*
X123766695Y-105753590D01*
X124076219Y-106253590D02*
X124076219Y-105753590D01*
X124195266Y-105753590D01*
X124266695Y-105777400D01*
X124314314Y-105825019D01*
X124338123Y-105872638D01*
X124361933Y-105967876D01*
X124361933Y-106039305D01*
X124338123Y-106134543D01*
X124314314Y-106182162D01*
X124266695Y-106229781D01*
X124195266Y-106253590D01*
X124076219Y-106253590D01*
X124671457Y-105753590D02*
X124766695Y-105753590D01*
X124814314Y-105777400D01*
X124861933Y-105825019D01*
X124885742Y-105920257D01*
X124885742Y-106086924D01*
X124861933Y-106182162D01*
X124814314Y-106229781D01*
X124766695Y-106253590D01*
X124671457Y-106253590D01*
X124623838Y-106229781D01*
X124576219Y-106182162D01*
X124552409Y-106086924D01*
X124552409Y-105920257D01*
X124576219Y-105825019D01*
X124623838Y-105777400D01*
X124671457Y-105753590D01*
X123665096Y-104153390D02*
X123950810Y-104153390D01*
X123807953Y-104653390D02*
X123807953Y-104153390D01*
X124117477Y-104653390D02*
X124117477Y-104153390D01*
X124236524Y-104153390D01*
X124307953Y-104177200D01*
X124355572Y-104224819D01*
X124379381Y-104272438D01*
X124403191Y-104367676D01*
X124403191Y-104439105D01*
X124379381Y-104534343D01*
X124355572Y-104581962D01*
X124307953Y-104629581D01*
X124236524Y-104653390D01*
X124117477Y-104653390D01*
X124617477Y-104653390D02*
X124617477Y-104153390D01*
X123586534Y-101765790D02*
X123872248Y-101765790D01*
X123729391Y-102265790D02*
X123729391Y-101765790D01*
X124038915Y-102265790D02*
X124038915Y-101765790D01*
X124205581Y-102122933D01*
X124372248Y-101765790D01*
X124372248Y-102265790D01*
X124586534Y-102241981D02*
X124657963Y-102265790D01*
X124777010Y-102265790D01*
X124824629Y-102241981D01*
X124848439Y-102218171D01*
X124872248Y-102170552D01*
X124872248Y-102122933D01*
X124848439Y-102075314D01*
X124824629Y-102051505D01*
X124777010Y-102027695D01*
X124681772Y-102003886D01*
X124634153Y-101980076D01*
X124610344Y-101956267D01*
X124586534Y-101908648D01*
X124586534Y-101861029D01*
X124610344Y-101813410D01*
X124634153Y-101789600D01*
X124681772Y-101765790D01*
X124800820Y-101765790D01*
X124872248Y-101789600D01*
X123635743Y-99708390D02*
X123921457Y-99708390D01*
X123778600Y-100208390D02*
X123778600Y-99708390D01*
X124373838Y-100160771D02*
X124350028Y-100184581D01*
X124278600Y-100208390D01*
X124230981Y-100208390D01*
X124159552Y-100184581D01*
X124111933Y-100136962D01*
X124088124Y-100089343D01*
X124064314Y-99994105D01*
X124064314Y-99922676D01*
X124088124Y-99827438D01*
X124111933Y-99779819D01*
X124159552Y-99732200D01*
X124230981Y-99708390D01*
X124278600Y-99708390D01*
X124350028Y-99732200D01*
X124373838Y-99756010D01*
X124588124Y-100208390D02*
X124588124Y-99708390D01*
X124873838Y-100208390D02*
X124659552Y-99922676D01*
X124873838Y-99708390D02*
X124588124Y-99994105D01*
X123941267Y-96474590D02*
X123774600Y-96236495D01*
X123655553Y-96474590D02*
X123655553Y-95974590D01*
X123846029Y-95974590D01*
X123893648Y-95998400D01*
X123917457Y-96022210D01*
X123941267Y-96069829D01*
X123941267Y-96141257D01*
X123917457Y-96188876D01*
X123893648Y-96212686D01*
X123846029Y-96236495D01*
X123655553Y-96236495D01*
X124107934Y-95974590D02*
X124441267Y-96474590D01*
X124441267Y-95974590D02*
X124107934Y-96474590D01*
X123592848Y-93485390D02*
X123878562Y-93485390D01*
X123735705Y-93985390D02*
X123735705Y-93485390D01*
X123997610Y-93485390D02*
X124330943Y-93985390D01*
X124330943Y-93485390D02*
X123997610Y-93985390D01*
X123897647Y-91375600D02*
X123850028Y-91351790D01*
X123778600Y-91351790D01*
X123707171Y-91375600D01*
X123659552Y-91423219D01*
X123635743Y-91470838D01*
X123611933Y-91566076D01*
X123611933Y-91637505D01*
X123635743Y-91732743D01*
X123659552Y-91780362D01*
X123707171Y-91827981D01*
X123778600Y-91851790D01*
X123826219Y-91851790D01*
X123897647Y-91827981D01*
X123921457Y-91804171D01*
X123921457Y-91637505D01*
X123826219Y-91637505D01*
X124135743Y-91851790D02*
X124135743Y-91351790D01*
X124421457Y-91851790D01*
X124421457Y-91351790D01*
X124659553Y-91851790D02*
X124659553Y-91351790D01*
X124778600Y-91351790D01*
X124850029Y-91375600D01*
X124897648Y-91423219D01*
X124921457Y-91470838D01*
X124945267Y-91566076D01*
X124945267Y-91637505D01*
X124921457Y-91732743D01*
X124897648Y-91780362D01*
X124850029Y-91827981D01*
X124778600Y-91851790D01*
X124659553Y-91851790D01*
X159202781Y-89165657D02*
X159226590Y-89094228D01*
X159226590Y-88975181D01*
X159202781Y-88927562D01*
X159178971Y-88903752D01*
X159131352Y-88879943D01*
X159083733Y-88879943D01*
X159036114Y-88903752D01*
X159012305Y-88927562D01*
X158988495Y-88975181D01*
X158964686Y-89070419D01*
X158940876Y-89118038D01*
X158917067Y-89141847D01*
X158869448Y-89165657D01*
X158821829Y-89165657D01*
X158774210Y-89141847D01*
X158750400Y-89118038D01*
X158726590Y-89070419D01*
X158726590Y-88951371D01*
X158750400Y-88879943D01*
X158726590Y-88570419D02*
X158726590Y-88475181D01*
X158750400Y-88427562D01*
X158798019Y-88379943D01*
X158893257Y-88356134D01*
X159059924Y-88356134D01*
X159155162Y-88379943D01*
X159202781Y-88427562D01*
X159226590Y-88475181D01*
X159226590Y-88570419D01*
X159202781Y-88618038D01*
X159155162Y-88665657D01*
X159059924Y-88689467D01*
X158893257Y-88689467D01*
X158798019Y-88665657D01*
X158750400Y-88618038D01*
X158726590Y-88570419D01*
X159226590Y-88141847D02*
X158726590Y-88141847D01*
X158726590Y-87951371D01*
X158750400Y-87903752D01*
X158774210Y-87879943D01*
X158821829Y-87856133D01*
X158893257Y-87856133D01*
X158940876Y-87879943D01*
X158964686Y-87903752D01*
X158988495Y-87951371D01*
X158988495Y-88141847D01*
X158774210Y-87665657D02*
X158750400Y-87641847D01*
X158726590Y-87594228D01*
X158726590Y-87475181D01*
X158750400Y-87427562D01*
X158774210Y-87403752D01*
X158821829Y-87379943D01*
X158869448Y-87379943D01*
X158940876Y-87403752D01*
X159226590Y-87689466D01*
X159226590Y-87379943D01*
X158948781Y-99986057D02*
X158972590Y-99914628D01*
X158972590Y-99795581D01*
X158948781Y-99747962D01*
X158924971Y-99724152D01*
X158877352Y-99700343D01*
X158829733Y-99700343D01*
X158782114Y-99724152D01*
X158758305Y-99747962D01*
X158734495Y-99795581D01*
X158710686Y-99890819D01*
X158686876Y-99938438D01*
X158663067Y-99962247D01*
X158615448Y-99986057D01*
X158567829Y-99986057D01*
X158520210Y-99962247D01*
X158496400Y-99938438D01*
X158472590Y-99890819D01*
X158472590Y-99771771D01*
X158496400Y-99700343D01*
X158472590Y-99390819D02*
X158472590Y-99295581D01*
X158496400Y-99247962D01*
X158544019Y-99200343D01*
X158639257Y-99176534D01*
X158805924Y-99176534D01*
X158901162Y-99200343D01*
X158948781Y-99247962D01*
X158972590Y-99295581D01*
X158972590Y-99390819D01*
X158948781Y-99438438D01*
X158901162Y-99486057D01*
X158805924Y-99509867D01*
X158639257Y-99509867D01*
X158544019Y-99486057D01*
X158496400Y-99438438D01*
X158472590Y-99390819D01*
X158972590Y-98962247D02*
X158472590Y-98962247D01*
X158472590Y-98771771D01*
X158496400Y-98724152D01*
X158520210Y-98700343D01*
X158567829Y-98676533D01*
X158639257Y-98676533D01*
X158686876Y-98700343D01*
X158710686Y-98724152D01*
X158734495Y-98771771D01*
X158734495Y-98962247D01*
X158472590Y-98367009D02*
X158472590Y-98319390D01*
X158496400Y-98271771D01*
X158520210Y-98247962D01*
X158567829Y-98224152D01*
X158663067Y-98200343D01*
X158782114Y-98200343D01*
X158877352Y-98224152D01*
X158924971Y-98247962D01*
X158948781Y-98271771D01*
X158972590Y-98319390D01*
X158972590Y-98367009D01*
X158948781Y-98414628D01*
X158924971Y-98438438D01*
X158877352Y-98462247D01*
X158782114Y-98486057D01*
X158663067Y-98486057D01*
X158567829Y-98462247D01*
X158520210Y-98438438D01*
X158496400Y-98414628D01*
X158472590Y-98367009D01*
D12*
X126940781Y-116141181D02*
X126464590Y-116474515D01*
X126940781Y-116712610D02*
X125940781Y-116712610D01*
X125940781Y-116331657D01*
X125988400Y-116236419D01*
X126036019Y-116188800D01*
X126131257Y-116141181D01*
X126274114Y-116141181D01*
X126369352Y-116188800D01*
X126416971Y-116236419D01*
X126464590Y-116331657D01*
X126464590Y-116712610D01*
X126416971Y-115712610D02*
X126416971Y-115379276D01*
X126940781Y-115236419D02*
X126940781Y-115712610D01*
X125940781Y-115712610D01*
X125940781Y-115236419D01*
X126893162Y-114855467D02*
X126940781Y-114712610D01*
X126940781Y-114474514D01*
X126893162Y-114379276D01*
X126845543Y-114331657D01*
X126750305Y-114284038D01*
X126655067Y-114284038D01*
X126559829Y-114331657D01*
X126512210Y-114379276D01*
X126464590Y-114474514D01*
X126416971Y-114664991D01*
X126369352Y-114760229D01*
X126321733Y-114807848D01*
X126226495Y-114855467D01*
X126131257Y-114855467D01*
X126036019Y-114807848D01*
X125988400Y-114760229D01*
X125940781Y-114664991D01*
X125940781Y-114426895D01*
X125988400Y-114284038D01*
X126416971Y-113855467D02*
X126416971Y-113522133D01*
X126940781Y-113379276D02*
X126940781Y-113855467D01*
X125940781Y-113855467D01*
X125940781Y-113379276D01*
X125940781Y-113093562D02*
X125940781Y-112522133D01*
X126940781Y-112807848D02*
X125940781Y-112807848D01*
X141474496Y-80483000D02*
X141379258Y-80435381D01*
X141236401Y-80435381D01*
X141093543Y-80483000D01*
X140998305Y-80578238D01*
X140950686Y-80673476D01*
X140903067Y-80863952D01*
X140903067Y-81006810D01*
X140950686Y-81197286D01*
X140998305Y-81292524D01*
X141093543Y-81387762D01*
X141236401Y-81435381D01*
X141331639Y-81435381D01*
X141474496Y-81387762D01*
X141522115Y-81340143D01*
X141522115Y-81006810D01*
X141331639Y-81006810D01*
X141950686Y-81435381D02*
X141950686Y-80435381D01*
X142522115Y-81435381D01*
X142522115Y-80435381D01*
X142998305Y-81435381D02*
X142998305Y-80435381D01*
X143236400Y-80435381D01*
X143379258Y-80483000D01*
X143474496Y-80578238D01*
X143522115Y-80673476D01*
X143569734Y-80863952D01*
X143569734Y-81006810D01*
X143522115Y-81197286D01*
X143474496Y-81292524D01*
X143379258Y-81387762D01*
X143236400Y-81435381D01*
X142998305Y-81435381D01*
X148829505Y-80962371D02*
X148972362Y-81009990D01*
X149019981Y-81057610D01*
X149067600Y-81152848D01*
X149067600Y-81295705D01*
X149019981Y-81390943D01*
X148972362Y-81438562D01*
X148877124Y-81486181D01*
X148496171Y-81486181D01*
X148496171Y-80486181D01*
X148829505Y-80486181D01*
X148924743Y-80533800D01*
X148972362Y-80581419D01*
X149019981Y-80676657D01*
X149019981Y-80771895D01*
X148972362Y-80867133D01*
X148924743Y-80914752D01*
X148829505Y-80962371D01*
X148496171Y-80962371D01*
X149448552Y-81200467D02*
X149924743Y-81200467D01*
X149353314Y-81486181D02*
X149686647Y-80486181D01*
X150019981Y-81486181D01*
X150210457Y-80486181D02*
X150781886Y-80486181D01*
X150496171Y-81486181D02*
X150496171Y-80486181D01*
X150972362Y-80486181D02*
X151543791Y-80486181D01*
X151258076Y-81486181D02*
X151258076Y-80486181D01*
X151877124Y-81105229D02*
X152639029Y-81105229D01*
X152258077Y-81486181D02*
X152258077Y-80724276D01*
D13*
X126500000Y-98390000D02*
X125800000Y-98390000D01*
X125800000Y-97190000D02*
X126500000Y-97190000D01*
X129150000Y-87400000D02*
X129850000Y-87400000D01*
X129850000Y-88600000D02*
X129150000Y-88600000D01*
X126600000Y-100150000D02*
X126600000Y-100850000D01*
X125400000Y-100850000D02*
X125400000Y-100150000D01*
X130335000Y-90990000D02*
X130335000Y-90490000D01*
X129385000Y-90490000D02*
X129385000Y-90990000D01*
X132750000Y-89975000D02*
X133250000Y-89975000D01*
X133250000Y-89025000D02*
X132750000Y-89025000D01*
X132370000Y-102340000D02*
X132370000Y-103040000D01*
X131170000Y-103040000D02*
X131170000Y-102340000D01*
X133070000Y-100465000D02*
X133570000Y-100465000D01*
X133570000Y-99515000D02*
X133070000Y-99515000D01*
X138755000Y-87260000D02*
X138755000Y-87760000D01*
X139705000Y-87760000D02*
X139705000Y-87260000D01*
X129150000Y-102080000D02*
X129150000Y-102780000D01*
X127950000Y-102780000D02*
X127950000Y-102080000D01*
X137935000Y-106140000D02*
X137935000Y-105640000D01*
X136985000Y-105640000D02*
X136985000Y-106140000D01*
X153720000Y-99385000D02*
X153220000Y-99385000D01*
X153220000Y-100335000D02*
X153720000Y-100335000D01*
X135975000Y-102000000D02*
X135975000Y-101500000D01*
X135025000Y-101500000D02*
X135025000Y-102000000D01*
X139665000Y-103390000D02*
X139665000Y-102890000D01*
X138715000Y-102890000D02*
X138715000Y-103390000D01*
X140115000Y-87250000D02*
X140115000Y-87750000D01*
X141065000Y-87750000D02*
X141065000Y-87250000D01*
X132755000Y-106070000D02*
X132755000Y-105570000D01*
X131805000Y-105570000D02*
X131805000Y-106070000D01*
X132090000Y-92535000D02*
X132590000Y-92535000D01*
X132590000Y-91585000D02*
X132090000Y-91585000D01*
X131700000Y-94265000D02*
X132200000Y-94265000D01*
X132200000Y-93315000D02*
X131700000Y-93315000D01*
X133040000Y-97985000D02*
X133540000Y-97985000D01*
X133540000Y-97035000D02*
X133040000Y-97035000D01*
X138393400Y-103229400D02*
X138393400Y-102729400D01*
X137443400Y-102729400D02*
X137443400Y-103229400D01*
X150045000Y-97770000D02*
X150045000Y-98270000D01*
X150995000Y-98270000D02*
X150995000Y-97770000D01*
X133250000Y-87975000D02*
X133750000Y-87975000D01*
X133750000Y-87025000D02*
X133250000Y-87025000D01*
X144450000Y-84485000D02*
X144950000Y-84485000D01*
X144950000Y-83535000D02*
X144450000Y-83535000D01*
X156280000Y-87945000D02*
X155780000Y-87945000D01*
X155780000Y-88895000D02*
X156280000Y-88895000D01*
X141715000Y-84700000D02*
X141715000Y-85200000D01*
X142665000Y-85200000D02*
X142665000Y-84700000D01*
X136464400Y-84038000D02*
X135964400Y-84038000D01*
X135964400Y-84988000D02*
X136464400Y-84988000D01*
X143320000Y-113815000D02*
X142820000Y-113815000D01*
X142820000Y-114765000D02*
X143320000Y-114765000D01*
X143860000Y-113415000D02*
X144360000Y-113415000D01*
X144360000Y-112465000D02*
X143860000Y-112465000D01*
X145355000Y-110420000D02*
X145355000Y-110920000D01*
X146305000Y-110920000D02*
X146305000Y-110420000D01*
X143830000Y-110990000D02*
X143830000Y-110290000D01*
X145030000Y-110290000D02*
X145030000Y-110990000D01*
X147010000Y-113275000D02*
X147510000Y-113275000D01*
X147510000Y-112325000D02*
X147010000Y-112325000D01*
X148320000Y-102825000D02*
X147820000Y-102825000D01*
X147820000Y-103775000D02*
X148320000Y-103775000D01*
X126100000Y-106650000D02*
X126100000Y-107350000D01*
X124900000Y-107350000D02*
X124900000Y-106650000D01*
X136275000Y-85750000D02*
X136275000Y-86250000D01*
X137225000Y-86250000D02*
X137225000Y-85750000D01*
X120923600Y-105976000D02*
X120923600Y-90736000D01*
X120923600Y-90736000D02*
X123463600Y-90736000D01*
X123463600Y-90736000D02*
X123463600Y-105976000D01*
X120643600Y-108796000D02*
X120643600Y-107246000D01*
X120923600Y-105976000D02*
X123463600Y-105976000D01*
X123743600Y-107246000D02*
X123743600Y-108796000D01*
X123743600Y-108796000D02*
X120643600Y-108796000D01*
X154650240Y-112299160D02*
X154650240Y-112250900D01*
X153949200Y-109500180D02*
X154650240Y-109500180D01*
X154650240Y-109500180D02*
X154650240Y-109749100D01*
X154650240Y-112299160D02*
X154650240Y-112499820D01*
X154650240Y-112499820D02*
X153949200Y-112499820D01*
X154650240Y-108299160D02*
X154650240Y-108250900D01*
X153949200Y-105500180D02*
X154650240Y-105500180D01*
X154650240Y-105500180D02*
X154650240Y-105749100D01*
X154650240Y-108299160D02*
X154650240Y-108499820D01*
X154650240Y-108499820D02*
X153949200Y-108499820D01*
X154650240Y-104299160D02*
X154650240Y-104250900D01*
X153949200Y-101500180D02*
X154650240Y-101500180D01*
X154650240Y-101500180D02*
X154650240Y-101749100D01*
X154650240Y-104299160D02*
X154650240Y-104499820D01*
X154650240Y-104499820D02*
X153949200Y-104499820D01*
X151000000Y-112005000D02*
X151500000Y-112005000D01*
X151500000Y-110955000D02*
X151000000Y-110955000D01*
X150980000Y-107965000D02*
X151480000Y-107965000D01*
X151480000Y-106915000D02*
X150980000Y-106915000D01*
X151000000Y-110575000D02*
X151500000Y-110575000D01*
X151500000Y-109525000D02*
X151000000Y-109525000D01*
X151080000Y-103875000D02*
X151580000Y-103875000D01*
X151580000Y-102825000D02*
X151080000Y-102825000D01*
X150980000Y-106575000D02*
X151480000Y-106575000D01*
X151480000Y-105525000D02*
X150980000Y-105525000D01*
X151080000Y-102575000D02*
X151580000Y-102575000D01*
X151580000Y-101525000D02*
X151080000Y-101525000D01*
X155975000Y-110750000D02*
X155975000Y-111250000D01*
X157025000Y-111250000D02*
X157025000Y-110750000D01*
X155975000Y-106750000D02*
X155975000Y-107250000D01*
X157025000Y-107250000D02*
X157025000Y-106750000D01*
X157025000Y-103250000D02*
X157025000Y-102750000D01*
X155975000Y-102750000D02*
X155975000Y-103250000D01*
X141122800Y-110540200D02*
X141622800Y-110540200D01*
X141622800Y-109490200D02*
X141122800Y-109490200D01*
X139585000Y-109570000D02*
X139585000Y-109070000D01*
X138535000Y-109070000D02*
X138535000Y-109570000D01*
X153510000Y-85915000D02*
X153010000Y-85915000D01*
X153010000Y-86965000D02*
X153510000Y-86965000D01*
X151350000Y-86875000D02*
X150850000Y-86875000D01*
X150850000Y-87925000D02*
X151350000Y-87925000D01*
X151250000Y-82975000D02*
X150750000Y-82975000D01*
X150750000Y-84025000D02*
X151250000Y-84025000D01*
X151250000Y-84475000D02*
X150750000Y-84475000D01*
X150750000Y-85525000D02*
X151250000Y-85525000D01*
X133850000Y-85515000D02*
X133350000Y-85515000D01*
X133350000Y-86565000D02*
X133850000Y-86565000D01*
X150860000Y-88215000D02*
X150360000Y-88215000D01*
X150360000Y-89265000D02*
X150860000Y-89265000D01*
X153710000Y-99015000D02*
X154210000Y-99015000D01*
X154210000Y-97965000D02*
X153710000Y-97965000D01*
X149225000Y-94500000D02*
X149225000Y-94000000D01*
X148175000Y-94000000D02*
X148175000Y-94500000D01*
X127250000Y-108525000D02*
X127750000Y-108525000D01*
X127750000Y-107475000D02*
X127250000Y-107475000D01*
X127250000Y-106525000D02*
X127750000Y-106525000D01*
X127750000Y-105475000D02*
X127250000Y-105475000D01*
X139505000Y-114410000D02*
X139505000Y-113910000D01*
X138455000Y-113910000D02*
X138455000Y-114410000D01*
X140665600Y-114070800D02*
X141165600Y-114070800D01*
X141165600Y-113020800D02*
X140665600Y-113020800D01*
X135250000Y-115330000D02*
G75*
G03X135250000Y-115330000I-4000000J0D01*
G01*
X154645000Y-91015000D02*
X154500000Y-91015000D01*
X154645000Y-95165000D02*
X154500000Y-95165000D01*
X149495000Y-95165000D02*
X149640000Y-95165000D01*
X149495000Y-91015000D02*
X149640000Y-91015000D01*
X154645000Y-91015000D02*
X154645000Y-95165000D01*
X149495000Y-91015000D02*
X149495000Y-95165000D01*
X154500000Y-91015000D02*
X154500000Y-89615000D01*
X156703949Y-115000000D02*
X153111846Y-118592102D01*
X153111846Y-118592102D02*
X154907898Y-120388154D01*
X154907898Y-120388154D02*
X158500000Y-116796051D01*
X160692031Y-115000000D02*
X159596016Y-116096016D01*
X158500000Y-116796051D02*
X156703949Y-115000000D01*
X157403984Y-113903984D02*
X158500000Y-112807969D01*
X158500000Y-112807969D02*
X160692031Y-115000000D01*
X155000000Y-83296051D02*
X158592102Y-86888154D01*
X158592102Y-86888154D02*
X160388154Y-85092102D01*
X160388154Y-85092102D02*
X156796051Y-81500000D01*
X155000000Y-79307969D02*
X156096016Y-80403984D01*
X156796051Y-81500000D02*
X155000000Y-83296051D01*
X153903984Y-82596016D02*
X152807969Y-81500000D01*
X152807969Y-81500000D02*
X155000000Y-79307969D01*
X123296051Y-85000000D02*
X126888154Y-81407898D01*
X126888154Y-81407898D02*
X125092102Y-79611846D01*
X125092102Y-79611846D02*
X121500000Y-83203949D01*
X119307969Y-85000000D02*
X120403984Y-83903984D01*
X121500000Y-83203949D02*
X123296051Y-85000000D01*
X122596016Y-86096016D02*
X121500000Y-87192031D01*
X121500000Y-87192031D02*
X119307969Y-85000000D01*
X125000000Y-116703949D02*
X121407898Y-113111846D01*
X121407898Y-113111846D02*
X119611846Y-114907898D01*
X119611846Y-114907898D02*
X123203949Y-118500000D01*
X125000000Y-120692031D02*
X123903984Y-119596016D01*
X123203949Y-118500000D02*
X125000000Y-116703949D01*
X126096016Y-117403984D02*
X127192031Y-118500000D01*
X127192031Y-118500000D02*
X125000000Y-120692031D01*
X144700000Y-117100000D02*
X144700000Y-113900000D01*
X148300000Y-113900000D02*
X148300000Y-117100000D01*
X144700000Y-117100000D02*
X148300000Y-117100000D01*
X144700000Y-113900000D02*
X148200000Y-113900000D01*
X148200000Y-113900000D02*
X148300000Y-113900000D01*
X145741421Y-114800000D02*
G75*
G03X145741421Y-114800000I-141421J0D01*
G01*
X147870000Y-103810000D02*
X143870000Y-103810000D01*
X143870000Y-103810000D02*
X143870000Y-107810000D01*
X143870000Y-107810000D02*
X147870000Y-107810000D01*
X147870000Y-107810000D02*
X147870000Y-103810000D01*
X144000000Y-80500000D02*
X144000000Y-82500000D01*
X144000000Y-82500000D02*
X148000000Y-82500000D01*
X148000000Y-82500000D02*
X148000000Y-80500000D01*
X148000000Y-80500000D02*
X144000000Y-80500000D01*
X159100000Y-109650000D02*
X159100000Y-110350000D01*
X157900000Y-110350000D02*
X157900000Y-109650000D01*
X159100000Y-105650000D02*
X159100000Y-106350000D01*
X157900000Y-106350000D02*
X157900000Y-105650000D01*
X159100000Y-101650000D02*
X159100000Y-102350000D01*
X157900000Y-102350000D02*
X157900000Y-101650000D01*
X145200000Y-89800000D02*
X145200000Y-100100000D01*
X145200000Y-100100000D02*
X134800000Y-100100000D01*
X134800000Y-100100000D02*
X134800000Y-89800000D01*
X134800000Y-89800000D02*
X145200000Y-89800000D01*
X145100000Y-99600000D02*
G75*
G03X145100000Y-99600000I-400000J0D01*
G01*
X160200000Y-93760000D02*
X160200000Y-89510000D01*
X160200000Y-89510000D02*
X154950000Y-89510000D01*
X154950000Y-89510000D02*
X154950000Y-98010000D01*
X154950000Y-98010000D02*
X160200000Y-98010000D01*
X160200000Y-98010000D02*
X160200000Y-93760000D01*
D11*
X125947867Y-99017771D02*
X125924057Y-99041581D01*
X125852629Y-99065390D01*
X125805010Y-99065390D01*
X125733581Y-99041581D01*
X125685962Y-98993962D01*
X125662153Y-98946343D01*
X125638343Y-98851105D01*
X125638343Y-98779676D01*
X125662153Y-98684438D01*
X125685962Y-98636819D01*
X125733581Y-98589200D01*
X125805010Y-98565390D01*
X125852629Y-98565390D01*
X125924057Y-98589200D01*
X125947867Y-98613010D01*
X126424057Y-99065390D02*
X126138343Y-99065390D01*
X126281200Y-99065390D02*
X126281200Y-98565390D01*
X126233581Y-98636819D01*
X126185962Y-98684438D01*
X126138343Y-98708248D01*
X128919667Y-87206771D02*
X128895857Y-87230581D01*
X128824429Y-87254390D01*
X128776810Y-87254390D01*
X128705381Y-87230581D01*
X128657762Y-87182962D01*
X128633953Y-87135343D01*
X128610143Y-87040105D01*
X128610143Y-86968676D01*
X128633953Y-86873438D01*
X128657762Y-86825819D01*
X128705381Y-86778200D01*
X128776810Y-86754390D01*
X128824429Y-86754390D01*
X128895857Y-86778200D01*
X128919667Y-86802010D01*
X129110143Y-86802010D02*
X129133953Y-86778200D01*
X129181572Y-86754390D01*
X129300619Y-86754390D01*
X129348238Y-86778200D01*
X129372048Y-86802010D01*
X129395857Y-86849629D01*
X129395857Y-86897248D01*
X129372048Y-86968676D01*
X129086334Y-87254390D01*
X129395857Y-87254390D01*
X124754067Y-100922771D02*
X124730257Y-100946581D01*
X124658829Y-100970390D01*
X124611210Y-100970390D01*
X124539781Y-100946581D01*
X124492162Y-100898962D01*
X124468353Y-100851343D01*
X124444543Y-100756105D01*
X124444543Y-100684676D01*
X124468353Y-100589438D01*
X124492162Y-100541819D01*
X124539781Y-100494200D01*
X124611210Y-100470390D01*
X124658829Y-100470390D01*
X124730257Y-100494200D01*
X124754067Y-100518010D01*
X124920734Y-100470390D02*
X125230257Y-100470390D01*
X125063591Y-100660867D01*
X125135019Y-100660867D01*
X125182638Y-100684676D01*
X125206448Y-100708486D01*
X125230257Y-100756105D01*
X125230257Y-100875152D01*
X125206448Y-100922771D01*
X125182638Y-100946581D01*
X125135019Y-100970390D01*
X124992162Y-100970390D01*
X124944543Y-100946581D01*
X124920734Y-100922771D01*
X128792667Y-91067571D02*
X128768857Y-91091381D01*
X128697429Y-91115190D01*
X128649810Y-91115190D01*
X128578381Y-91091381D01*
X128530762Y-91043762D01*
X128506953Y-90996143D01*
X128483143Y-90900905D01*
X128483143Y-90829476D01*
X128506953Y-90734238D01*
X128530762Y-90686619D01*
X128578381Y-90639000D01*
X128649810Y-90615190D01*
X128697429Y-90615190D01*
X128768857Y-90639000D01*
X128792667Y-90662810D01*
X129221238Y-90781857D02*
X129221238Y-91115190D01*
X129102191Y-90591381D02*
X128983143Y-90948524D01*
X129292667Y-90948524D01*
X133085267Y-90610371D02*
X133061457Y-90634181D01*
X132990029Y-90657990D01*
X132942410Y-90657990D01*
X132870981Y-90634181D01*
X132823362Y-90586562D01*
X132799553Y-90538943D01*
X132775743Y-90443705D01*
X132775743Y-90372276D01*
X132799553Y-90277038D01*
X132823362Y-90229419D01*
X132870981Y-90181800D01*
X132942410Y-90157990D01*
X132990029Y-90157990D01*
X133061457Y-90181800D01*
X133085267Y-90205610D01*
X133537648Y-90157990D02*
X133299553Y-90157990D01*
X133275743Y-90396086D01*
X133299553Y-90372276D01*
X133347172Y-90348467D01*
X133466219Y-90348467D01*
X133513838Y-90372276D01*
X133537648Y-90396086D01*
X133561457Y-90443705D01*
X133561457Y-90562752D01*
X133537648Y-90610371D01*
X133513838Y-90634181D01*
X133466219Y-90657990D01*
X133347172Y-90657990D01*
X133299553Y-90634181D01*
X133275743Y-90610371D01*
X131686667Y-104868571D02*
X131662857Y-104892381D01*
X131591429Y-104916190D01*
X131543810Y-104916190D01*
X131472381Y-104892381D01*
X131424762Y-104844762D01*
X131400953Y-104797143D01*
X131377143Y-104701905D01*
X131377143Y-104630476D01*
X131400953Y-104535238D01*
X131424762Y-104487619D01*
X131472381Y-104440000D01*
X131543810Y-104416190D01*
X131591429Y-104416190D01*
X131662857Y-104440000D01*
X131686667Y-104463810D01*
X132115238Y-104416190D02*
X132020000Y-104416190D01*
X131972381Y-104440000D01*
X131948572Y-104463810D01*
X131900953Y-104535238D01*
X131877143Y-104630476D01*
X131877143Y-104820952D01*
X131900953Y-104868571D01*
X131924762Y-104892381D01*
X131972381Y-104916190D01*
X132067619Y-104916190D01*
X132115238Y-104892381D01*
X132139048Y-104868571D01*
X132162857Y-104820952D01*
X132162857Y-104701905D01*
X132139048Y-104654286D01*
X132115238Y-104630476D01*
X132067619Y-104606667D01*
X131972381Y-104606667D01*
X131924762Y-104630476D01*
X131900953Y-104654286D01*
X131877143Y-104701905D01*
X132736667Y-101168571D02*
X132712857Y-101192381D01*
X132641429Y-101216190D01*
X132593810Y-101216190D01*
X132522381Y-101192381D01*
X132474762Y-101144762D01*
X132450953Y-101097143D01*
X132427143Y-101001905D01*
X132427143Y-100930476D01*
X132450953Y-100835238D01*
X132474762Y-100787619D01*
X132522381Y-100740000D01*
X132593810Y-100716190D01*
X132641429Y-100716190D01*
X132712857Y-100740000D01*
X132736667Y-100763810D01*
X132903334Y-100716190D02*
X133236667Y-100716190D01*
X133022381Y-101216190D01*
X139146667Y-86188571D02*
X139122857Y-86212381D01*
X139051429Y-86236190D01*
X139003810Y-86236190D01*
X138932381Y-86212381D01*
X138884762Y-86164762D01*
X138860953Y-86117143D01*
X138837143Y-86021905D01*
X138837143Y-85950476D01*
X138860953Y-85855238D01*
X138884762Y-85807619D01*
X138932381Y-85760000D01*
X139003810Y-85736190D01*
X139051429Y-85736190D01*
X139122857Y-85760000D01*
X139146667Y-85783810D01*
X139432381Y-85950476D02*
X139384762Y-85926667D01*
X139360953Y-85902857D01*
X139337143Y-85855238D01*
X139337143Y-85831429D01*
X139360953Y-85783810D01*
X139384762Y-85760000D01*
X139432381Y-85736190D01*
X139527619Y-85736190D01*
X139575238Y-85760000D01*
X139599048Y-85783810D01*
X139622857Y-85831429D01*
X139622857Y-85855238D01*
X139599048Y-85902857D01*
X139575238Y-85926667D01*
X139527619Y-85950476D01*
X139432381Y-85950476D01*
X139384762Y-85974286D01*
X139360953Y-85998095D01*
X139337143Y-86045714D01*
X139337143Y-86140952D01*
X139360953Y-86188571D01*
X139384762Y-86212381D01*
X139432381Y-86236190D01*
X139527619Y-86236190D01*
X139575238Y-86212381D01*
X139599048Y-86188571D01*
X139622857Y-86140952D01*
X139622857Y-86045714D01*
X139599048Y-85998095D01*
X139575238Y-85974286D01*
X139527619Y-85950476D01*
X128614867Y-104250171D02*
X128591057Y-104273981D01*
X128519629Y-104297790D01*
X128472010Y-104297790D01*
X128400581Y-104273981D01*
X128352962Y-104226362D01*
X128329153Y-104178743D01*
X128305343Y-104083505D01*
X128305343Y-104012076D01*
X128329153Y-103916838D01*
X128352962Y-103869219D01*
X128400581Y-103821600D01*
X128472010Y-103797790D01*
X128519629Y-103797790D01*
X128591057Y-103821600D01*
X128614867Y-103845410D01*
X128852962Y-104297790D02*
X128948200Y-104297790D01*
X128995819Y-104273981D01*
X129019629Y-104250171D01*
X129067248Y-104178743D01*
X129091057Y-104083505D01*
X129091057Y-103893029D01*
X129067248Y-103845410D01*
X129043438Y-103821600D01*
X128995819Y-103797790D01*
X128900581Y-103797790D01*
X128852962Y-103821600D01*
X128829153Y-103845410D01*
X128805343Y-103893029D01*
X128805343Y-104012076D01*
X128829153Y-104059695D01*
X128852962Y-104083505D01*
X128900581Y-104107314D01*
X128995819Y-104107314D01*
X129043438Y-104083505D01*
X129067248Y-104059695D01*
X129091057Y-104012076D01*
X137114372Y-107501371D02*
X137090562Y-107525181D01*
X137019134Y-107548990D01*
X136971515Y-107548990D01*
X136900086Y-107525181D01*
X136852467Y-107477562D01*
X136828658Y-107429943D01*
X136804848Y-107334705D01*
X136804848Y-107263276D01*
X136828658Y-107168038D01*
X136852467Y-107120419D01*
X136900086Y-107072800D01*
X136971515Y-107048990D01*
X137019134Y-107048990D01*
X137090562Y-107072800D01*
X137114372Y-107096610D01*
X137590562Y-107548990D02*
X137304848Y-107548990D01*
X137447705Y-107548990D02*
X137447705Y-107048990D01*
X137400086Y-107120419D01*
X137352467Y-107168038D01*
X137304848Y-107191848D01*
X137900086Y-107048990D02*
X137947705Y-107048990D01*
X137995324Y-107072800D01*
X138019133Y-107096610D01*
X138042943Y-107144229D01*
X138066752Y-107239467D01*
X138066752Y-107358514D01*
X138042943Y-107453752D01*
X138019133Y-107501371D01*
X137995324Y-107525181D01*
X137947705Y-107548990D01*
X137900086Y-107548990D01*
X137852467Y-107525181D01*
X137828657Y-107501371D01*
X137804848Y-107453752D01*
X137781038Y-107358514D01*
X137781038Y-107239467D01*
X137804848Y-107144229D01*
X137828657Y-107096610D01*
X137852467Y-107072800D01*
X137900086Y-107048990D01*
X154945172Y-100109971D02*
X154921362Y-100133781D01*
X154849934Y-100157590D01*
X154802315Y-100157590D01*
X154730886Y-100133781D01*
X154683267Y-100086162D01*
X154659458Y-100038543D01*
X154635648Y-99943305D01*
X154635648Y-99871876D01*
X154659458Y-99776638D01*
X154683267Y-99729019D01*
X154730886Y-99681400D01*
X154802315Y-99657590D01*
X154849934Y-99657590D01*
X154921362Y-99681400D01*
X154945172Y-99705210D01*
X155421362Y-100157590D02*
X155135648Y-100157590D01*
X155278505Y-100157590D02*
X155278505Y-99657590D01*
X155230886Y-99729019D01*
X155183267Y-99776638D01*
X155135648Y-99800448D01*
X155897552Y-100157590D02*
X155611838Y-100157590D01*
X155754695Y-100157590D02*
X155754695Y-99657590D01*
X155707076Y-99729019D01*
X155659457Y-99776638D01*
X155611838Y-99800448D01*
X135178572Y-103428571D02*
X135154762Y-103452381D01*
X135083334Y-103476190D01*
X135035715Y-103476190D01*
X134964286Y-103452381D01*
X134916667Y-103404762D01*
X134892858Y-103357143D01*
X134869048Y-103261905D01*
X134869048Y-103190476D01*
X134892858Y-103095238D01*
X134916667Y-103047619D01*
X134964286Y-103000000D01*
X135035715Y-102976190D01*
X135083334Y-102976190D01*
X135154762Y-103000000D01*
X135178572Y-103023810D01*
X135654762Y-103476190D02*
X135369048Y-103476190D01*
X135511905Y-103476190D02*
X135511905Y-102976190D01*
X135464286Y-103047619D01*
X135416667Y-103095238D01*
X135369048Y-103119048D01*
X135845238Y-103023810D02*
X135869048Y-103000000D01*
X135916667Y-102976190D01*
X136035714Y-102976190D01*
X136083333Y-103000000D01*
X136107143Y-103023810D01*
X136130952Y-103071429D01*
X136130952Y-103119048D01*
X136107143Y-103190476D01*
X135821429Y-103476190D01*
X136130952Y-103476190D01*
X140035372Y-102726171D02*
X140011562Y-102749981D01*
X139940134Y-102773790D01*
X139892515Y-102773790D01*
X139821086Y-102749981D01*
X139773467Y-102702362D01*
X139749658Y-102654743D01*
X139725848Y-102559505D01*
X139725848Y-102488076D01*
X139749658Y-102392838D01*
X139773467Y-102345219D01*
X139821086Y-102297600D01*
X139892515Y-102273790D01*
X139940134Y-102273790D01*
X140011562Y-102297600D01*
X140035372Y-102321410D01*
X140511562Y-102773790D02*
X140225848Y-102773790D01*
X140368705Y-102773790D02*
X140368705Y-102273790D01*
X140321086Y-102345219D01*
X140273467Y-102392838D01*
X140225848Y-102416648D01*
X140678229Y-102273790D02*
X140987752Y-102273790D01*
X140821086Y-102464267D01*
X140892514Y-102464267D01*
X140940133Y-102488076D01*
X140963943Y-102511886D01*
X140987752Y-102559505D01*
X140987752Y-102678552D01*
X140963943Y-102726171D01*
X140940133Y-102749981D01*
X140892514Y-102773790D01*
X140749657Y-102773790D01*
X140702038Y-102749981D01*
X140678229Y-102726171D01*
X140289372Y-86190771D02*
X140265562Y-86214581D01*
X140194134Y-86238390D01*
X140146515Y-86238390D01*
X140075086Y-86214581D01*
X140027467Y-86166962D01*
X140003658Y-86119343D01*
X139979848Y-86024105D01*
X139979848Y-85952676D01*
X140003658Y-85857438D01*
X140027467Y-85809819D01*
X140075086Y-85762200D01*
X140146515Y-85738390D01*
X140194134Y-85738390D01*
X140265562Y-85762200D01*
X140289372Y-85786010D01*
X140765562Y-86238390D02*
X140479848Y-86238390D01*
X140622705Y-86238390D02*
X140622705Y-85738390D01*
X140575086Y-85809819D01*
X140527467Y-85857438D01*
X140479848Y-85881248D01*
X141194133Y-85905057D02*
X141194133Y-86238390D01*
X141075086Y-85714581D02*
X140956038Y-86071724D01*
X141265562Y-86071724D01*
X130789772Y-106790171D02*
X130765962Y-106813981D01*
X130694534Y-106837790D01*
X130646915Y-106837790D01*
X130575486Y-106813981D01*
X130527867Y-106766362D01*
X130504058Y-106718743D01*
X130480248Y-106623505D01*
X130480248Y-106552076D01*
X130504058Y-106456838D01*
X130527867Y-106409219D01*
X130575486Y-106361600D01*
X130646915Y-106337790D01*
X130694534Y-106337790D01*
X130765962Y-106361600D01*
X130789772Y-106385410D01*
X131265962Y-106837790D02*
X130980248Y-106837790D01*
X131123105Y-106837790D02*
X131123105Y-106337790D01*
X131075486Y-106409219D01*
X131027867Y-106456838D01*
X130980248Y-106480648D01*
X131718343Y-106337790D02*
X131480248Y-106337790D01*
X131456438Y-106575886D01*
X131480248Y-106552076D01*
X131527867Y-106528267D01*
X131646914Y-106528267D01*
X131694533Y-106552076D01*
X131718343Y-106575886D01*
X131742152Y-106623505D01*
X131742152Y-106742552D01*
X131718343Y-106790171D01*
X131694533Y-106813981D01*
X131646914Y-106837790D01*
X131527867Y-106837790D01*
X131480248Y-106813981D01*
X131456438Y-106790171D01*
X132694772Y-93124971D02*
X132670962Y-93148781D01*
X132599534Y-93172590D01*
X132551915Y-93172590D01*
X132480486Y-93148781D01*
X132432867Y-93101162D01*
X132409058Y-93053543D01*
X132385248Y-92958305D01*
X132385248Y-92886876D01*
X132409058Y-92791638D01*
X132432867Y-92744019D01*
X132480486Y-92696400D01*
X132551915Y-92672590D01*
X132599534Y-92672590D01*
X132670962Y-92696400D01*
X132694772Y-92720210D01*
X133170962Y-93172590D02*
X132885248Y-93172590D01*
X133028105Y-93172590D02*
X133028105Y-92672590D01*
X132980486Y-92744019D01*
X132932867Y-92791638D01*
X132885248Y-92815448D01*
X133599533Y-92672590D02*
X133504295Y-92672590D01*
X133456676Y-92696400D01*
X133432867Y-92720210D01*
X133385248Y-92791638D01*
X133361438Y-92886876D01*
X133361438Y-93077352D01*
X133385248Y-93124971D01*
X133409057Y-93148781D01*
X133456676Y-93172590D01*
X133551914Y-93172590D01*
X133599533Y-93148781D01*
X133623343Y-93124971D01*
X133647152Y-93077352D01*
X133647152Y-92958305D01*
X133623343Y-92910686D01*
X133599533Y-92886876D01*
X133551914Y-92863067D01*
X133456676Y-92863067D01*
X133409057Y-92886876D01*
X133385248Y-92910686D01*
X133361438Y-92958305D01*
X132745572Y-94902971D02*
X132721762Y-94926781D01*
X132650334Y-94950590D01*
X132602715Y-94950590D01*
X132531286Y-94926781D01*
X132483667Y-94879162D01*
X132459858Y-94831543D01*
X132436048Y-94736305D01*
X132436048Y-94664876D01*
X132459858Y-94569638D01*
X132483667Y-94522019D01*
X132531286Y-94474400D01*
X132602715Y-94450590D01*
X132650334Y-94450590D01*
X132721762Y-94474400D01*
X132745572Y-94498210D01*
X133221762Y-94950590D02*
X132936048Y-94950590D01*
X133078905Y-94950590D02*
X133078905Y-94450590D01*
X133031286Y-94522019D01*
X132983667Y-94569638D01*
X132936048Y-94593448D01*
X133388429Y-94450590D02*
X133721762Y-94450590D01*
X133507476Y-94950590D01*
X131918572Y-98578571D02*
X131894762Y-98602381D01*
X131823334Y-98626190D01*
X131775715Y-98626190D01*
X131704286Y-98602381D01*
X131656667Y-98554762D01*
X131632858Y-98507143D01*
X131609048Y-98411905D01*
X131609048Y-98340476D01*
X131632858Y-98245238D01*
X131656667Y-98197619D01*
X131704286Y-98150000D01*
X131775715Y-98126190D01*
X131823334Y-98126190D01*
X131894762Y-98150000D01*
X131918572Y-98173810D01*
X132394762Y-98626190D02*
X132109048Y-98626190D01*
X132251905Y-98626190D02*
X132251905Y-98126190D01*
X132204286Y-98197619D01*
X132156667Y-98245238D01*
X132109048Y-98269048D01*
X132680476Y-98340476D02*
X132632857Y-98316667D01*
X132609048Y-98292857D01*
X132585238Y-98245238D01*
X132585238Y-98221429D01*
X132609048Y-98173810D01*
X132632857Y-98150000D01*
X132680476Y-98126190D01*
X132775714Y-98126190D01*
X132823333Y-98150000D01*
X132847143Y-98173810D01*
X132870952Y-98221429D01*
X132870952Y-98245238D01*
X132847143Y-98292857D01*
X132823333Y-98316667D01*
X132775714Y-98340476D01*
X132680476Y-98340476D01*
X132632857Y-98364286D01*
X132609048Y-98388095D01*
X132585238Y-98435714D01*
X132585238Y-98530952D01*
X132609048Y-98578571D01*
X132632857Y-98602381D01*
X132680476Y-98626190D01*
X132775714Y-98626190D01*
X132823333Y-98602381D01*
X132847143Y-98578571D01*
X132870952Y-98530952D01*
X132870952Y-98435714D01*
X132847143Y-98388095D01*
X132823333Y-98364286D01*
X132775714Y-98340476D01*
X137723972Y-104529571D02*
X137700162Y-104553381D01*
X137628734Y-104577190D01*
X137581115Y-104577190D01*
X137509686Y-104553381D01*
X137462067Y-104505762D01*
X137438258Y-104458143D01*
X137414448Y-104362905D01*
X137414448Y-104291476D01*
X137438258Y-104196238D01*
X137462067Y-104148619D01*
X137509686Y-104101000D01*
X137581115Y-104077190D01*
X137628734Y-104077190D01*
X137700162Y-104101000D01*
X137723972Y-104124810D01*
X138200162Y-104577190D02*
X137914448Y-104577190D01*
X138057305Y-104577190D02*
X138057305Y-104077190D01*
X138009686Y-104148619D01*
X137962067Y-104196238D01*
X137914448Y-104220048D01*
X138438257Y-104577190D02*
X138533495Y-104577190D01*
X138581114Y-104553381D01*
X138604924Y-104529571D01*
X138652543Y-104458143D01*
X138676352Y-104362905D01*
X138676352Y-104172429D01*
X138652543Y-104124810D01*
X138628733Y-104101000D01*
X138581114Y-104077190D01*
X138485876Y-104077190D01*
X138438257Y-104101000D01*
X138414448Y-104124810D01*
X138390638Y-104172429D01*
X138390638Y-104291476D01*
X138414448Y-104339095D01*
X138438257Y-104362905D01*
X138485876Y-104386714D01*
X138581114Y-104386714D01*
X138628733Y-104362905D01*
X138652543Y-104339095D01*
X138676352Y-104291476D01*
X149730171Y-98703428D02*
X149753981Y-98727238D01*
X149777790Y-98798666D01*
X149777790Y-98846285D01*
X149753981Y-98917714D01*
X149706362Y-98965333D01*
X149658743Y-98989142D01*
X149563505Y-99012952D01*
X149492076Y-99012952D01*
X149396838Y-98989142D01*
X149349219Y-98965333D01*
X149301600Y-98917714D01*
X149277790Y-98846285D01*
X149277790Y-98798666D01*
X149301600Y-98727238D01*
X149325410Y-98703428D01*
X149325410Y-98512952D02*
X149301600Y-98489142D01*
X149277790Y-98441523D01*
X149277790Y-98322476D01*
X149301600Y-98274857D01*
X149325410Y-98251047D01*
X149373029Y-98227238D01*
X149420648Y-98227238D01*
X149492076Y-98251047D01*
X149777790Y-98536761D01*
X149777790Y-98227238D01*
X149277790Y-97917714D02*
X149277790Y-97870095D01*
X149301600Y-97822476D01*
X149325410Y-97798667D01*
X149373029Y-97774857D01*
X149468267Y-97751048D01*
X149587314Y-97751048D01*
X149682552Y-97774857D01*
X149730171Y-97798667D01*
X149753981Y-97822476D01*
X149777790Y-97870095D01*
X149777790Y-97917714D01*
X149753981Y-97965333D01*
X149730171Y-97989143D01*
X149682552Y-98012952D01*
X149587314Y-98036762D01*
X149468267Y-98036762D01*
X149373029Y-98012952D01*
X149325410Y-97989143D01*
X149301600Y-97965333D01*
X149277790Y-97917714D01*
X133178572Y-88678571D02*
X133154762Y-88702381D01*
X133083334Y-88726190D01*
X133035715Y-88726190D01*
X132964286Y-88702381D01*
X132916667Y-88654762D01*
X132892858Y-88607143D01*
X132869048Y-88511905D01*
X132869048Y-88440476D01*
X132892858Y-88345238D01*
X132916667Y-88297619D01*
X132964286Y-88250000D01*
X133035715Y-88226190D01*
X133083334Y-88226190D01*
X133154762Y-88250000D01*
X133178572Y-88273810D01*
X133369048Y-88273810D02*
X133392858Y-88250000D01*
X133440477Y-88226190D01*
X133559524Y-88226190D01*
X133607143Y-88250000D01*
X133630953Y-88273810D01*
X133654762Y-88321429D01*
X133654762Y-88369048D01*
X133630953Y-88440476D01*
X133345239Y-88726190D01*
X133654762Y-88726190D01*
X134130952Y-88726190D02*
X133845238Y-88726190D01*
X133988095Y-88726190D02*
X133988095Y-88226190D01*
X133940476Y-88297619D01*
X133892857Y-88345238D01*
X133845238Y-88369048D01*
X144429572Y-83371371D02*
X144405762Y-83395181D01*
X144334334Y-83418990D01*
X144286715Y-83418990D01*
X144215286Y-83395181D01*
X144167667Y-83347562D01*
X144143858Y-83299943D01*
X144120048Y-83204705D01*
X144120048Y-83133276D01*
X144143858Y-83038038D01*
X144167667Y-82990419D01*
X144215286Y-82942800D01*
X144286715Y-82918990D01*
X144334334Y-82918990D01*
X144405762Y-82942800D01*
X144429572Y-82966610D01*
X144620048Y-82966610D02*
X144643858Y-82942800D01*
X144691477Y-82918990D01*
X144810524Y-82918990D01*
X144858143Y-82942800D01*
X144881953Y-82966610D01*
X144905762Y-83014229D01*
X144905762Y-83061848D01*
X144881953Y-83133276D01*
X144596239Y-83418990D01*
X144905762Y-83418990D01*
X145096238Y-82966610D02*
X145120048Y-82942800D01*
X145167667Y-82918990D01*
X145286714Y-82918990D01*
X145334333Y-82942800D01*
X145358143Y-82966610D01*
X145381952Y-83014229D01*
X145381952Y-83061848D01*
X145358143Y-83133276D01*
X145072429Y-83418990D01*
X145381952Y-83418990D01*
X157434372Y-88603771D02*
X157410562Y-88627581D01*
X157339134Y-88651390D01*
X157291515Y-88651390D01*
X157220086Y-88627581D01*
X157172467Y-88579962D01*
X157148658Y-88532343D01*
X157124848Y-88437105D01*
X157124848Y-88365676D01*
X157148658Y-88270438D01*
X157172467Y-88222819D01*
X157220086Y-88175200D01*
X157291515Y-88151390D01*
X157339134Y-88151390D01*
X157410562Y-88175200D01*
X157434372Y-88199010D01*
X157624848Y-88199010D02*
X157648658Y-88175200D01*
X157696277Y-88151390D01*
X157815324Y-88151390D01*
X157862943Y-88175200D01*
X157886753Y-88199010D01*
X157910562Y-88246629D01*
X157910562Y-88294248D01*
X157886753Y-88365676D01*
X157601039Y-88651390D01*
X157910562Y-88651390D01*
X158077229Y-88151390D02*
X158386752Y-88151390D01*
X158220086Y-88341867D01*
X158291514Y-88341867D01*
X158339133Y-88365676D01*
X158362943Y-88389486D01*
X158386752Y-88437105D01*
X158386752Y-88556152D01*
X158362943Y-88603771D01*
X158339133Y-88627581D01*
X158291514Y-88651390D01*
X158148657Y-88651390D01*
X158101038Y-88627581D01*
X158077229Y-88603771D01*
X141762572Y-83828571D02*
X141738762Y-83852381D01*
X141667334Y-83876190D01*
X141619715Y-83876190D01*
X141548286Y-83852381D01*
X141500667Y-83804762D01*
X141476858Y-83757143D01*
X141453048Y-83661905D01*
X141453048Y-83590476D01*
X141476858Y-83495238D01*
X141500667Y-83447619D01*
X141548286Y-83400000D01*
X141619715Y-83376190D01*
X141667334Y-83376190D01*
X141738762Y-83400000D01*
X141762572Y-83423810D01*
X141953048Y-83423810D02*
X141976858Y-83400000D01*
X142024477Y-83376190D01*
X142143524Y-83376190D01*
X142191143Y-83400000D01*
X142214953Y-83423810D01*
X142238762Y-83471429D01*
X142238762Y-83519048D01*
X142214953Y-83590476D01*
X141929239Y-83876190D01*
X142238762Y-83876190D01*
X142667333Y-83542857D02*
X142667333Y-83876190D01*
X142548286Y-83352381D02*
X142429238Y-83709524D01*
X142738762Y-83709524D01*
X142549972Y-115400771D02*
X142526162Y-115424581D01*
X142454734Y-115448390D01*
X142407115Y-115448390D01*
X142335686Y-115424581D01*
X142288067Y-115376962D01*
X142264258Y-115329343D01*
X142240448Y-115234105D01*
X142240448Y-115162676D01*
X142264258Y-115067438D01*
X142288067Y-115019819D01*
X142335686Y-114972200D01*
X142407115Y-114948390D01*
X142454734Y-114948390D01*
X142526162Y-114972200D01*
X142549972Y-114996010D01*
X142716639Y-114948390D02*
X143026162Y-114948390D01*
X142859496Y-115138867D01*
X142930924Y-115138867D01*
X142978543Y-115162676D01*
X143002353Y-115186486D01*
X143026162Y-115234105D01*
X143026162Y-115353152D01*
X143002353Y-115400771D01*
X142978543Y-115424581D01*
X142930924Y-115448390D01*
X142788067Y-115448390D01*
X142740448Y-115424581D01*
X142716639Y-115400771D01*
X143192829Y-114948390D02*
X143526162Y-114948390D01*
X143311876Y-115448390D01*
X142803972Y-112352771D02*
X142780162Y-112376581D01*
X142708734Y-112400390D01*
X142661115Y-112400390D01*
X142589686Y-112376581D01*
X142542067Y-112328962D01*
X142518258Y-112281343D01*
X142494448Y-112186105D01*
X142494448Y-112114676D01*
X142518258Y-112019438D01*
X142542067Y-111971819D01*
X142589686Y-111924200D01*
X142661115Y-111900390D01*
X142708734Y-111900390D01*
X142780162Y-111924200D01*
X142803972Y-111948010D01*
X142970639Y-111900390D02*
X143280162Y-111900390D01*
X143113496Y-112090867D01*
X143184924Y-112090867D01*
X143232543Y-112114676D01*
X143256353Y-112138486D01*
X143280162Y-112186105D01*
X143280162Y-112305152D01*
X143256353Y-112352771D01*
X143232543Y-112376581D01*
X143184924Y-112400390D01*
X143042067Y-112400390D01*
X142994448Y-112376581D01*
X142970639Y-112352771D01*
X143565876Y-112114676D02*
X143518257Y-112090867D01*
X143494448Y-112067057D01*
X143470638Y-112019438D01*
X143470638Y-111995629D01*
X143494448Y-111948010D01*
X143518257Y-111924200D01*
X143565876Y-111900390D01*
X143661114Y-111900390D01*
X143708733Y-111924200D01*
X143732543Y-111948010D01*
X143756352Y-111995629D01*
X143756352Y-112019438D01*
X143732543Y-112067057D01*
X143708733Y-112090867D01*
X143661114Y-112114676D01*
X143565876Y-112114676D01*
X143518257Y-112138486D01*
X143494448Y-112162295D01*
X143470638Y-112209914D01*
X143470638Y-112305152D01*
X143494448Y-112352771D01*
X143518257Y-112376581D01*
X143565876Y-112400390D01*
X143661114Y-112400390D01*
X143708733Y-112376581D01*
X143732543Y-112352771D01*
X143756352Y-112305152D01*
X143756352Y-112209914D01*
X143732543Y-112162295D01*
X143708733Y-112138486D01*
X143661114Y-112114676D01*
X146988572Y-110408571D02*
X146964762Y-110432381D01*
X146893334Y-110456190D01*
X146845715Y-110456190D01*
X146774286Y-110432381D01*
X146726667Y-110384762D01*
X146702858Y-110337143D01*
X146679048Y-110241905D01*
X146679048Y-110170476D01*
X146702858Y-110075238D01*
X146726667Y-110027619D01*
X146774286Y-109980000D01*
X146845715Y-109956190D01*
X146893334Y-109956190D01*
X146964762Y-109980000D01*
X146988572Y-110003810D01*
X147155239Y-109956190D02*
X147464762Y-109956190D01*
X147298096Y-110146667D01*
X147369524Y-110146667D01*
X147417143Y-110170476D01*
X147440953Y-110194286D01*
X147464762Y-110241905D01*
X147464762Y-110360952D01*
X147440953Y-110408571D01*
X147417143Y-110432381D01*
X147369524Y-110456190D01*
X147226667Y-110456190D01*
X147179048Y-110432381D01*
X147155239Y-110408571D01*
X147702857Y-110456190D02*
X147798095Y-110456190D01*
X147845714Y-110432381D01*
X147869524Y-110408571D01*
X147917143Y-110337143D01*
X147940952Y-110241905D01*
X147940952Y-110051429D01*
X147917143Y-110003810D01*
X147893333Y-109980000D01*
X147845714Y-109956190D01*
X147750476Y-109956190D01*
X147702857Y-109980000D01*
X147679048Y-110003810D01*
X147655238Y-110051429D01*
X147655238Y-110170476D01*
X147679048Y-110218095D01*
X147702857Y-110241905D01*
X147750476Y-110265714D01*
X147845714Y-110265714D01*
X147893333Y-110241905D01*
X147917143Y-110218095D01*
X147940952Y-110170476D01*
X143811971Y-110616028D02*
X143835781Y-110639838D01*
X143859590Y-110711266D01*
X143859590Y-110758885D01*
X143835781Y-110830314D01*
X143788162Y-110877933D01*
X143740543Y-110901742D01*
X143645305Y-110925552D01*
X143573876Y-110925552D01*
X143478638Y-110901742D01*
X143431019Y-110877933D01*
X143383400Y-110830314D01*
X143359590Y-110758885D01*
X143359590Y-110711266D01*
X143383400Y-110639838D01*
X143407210Y-110616028D01*
X143526257Y-110187457D02*
X143859590Y-110187457D01*
X143335781Y-110306504D02*
X143692924Y-110425552D01*
X143692924Y-110116028D01*
X143359590Y-109830314D02*
X143359590Y-109782695D01*
X143383400Y-109735076D01*
X143407210Y-109711267D01*
X143454829Y-109687457D01*
X143550067Y-109663648D01*
X143669114Y-109663648D01*
X143764352Y-109687457D01*
X143811971Y-109711267D01*
X143835781Y-109735076D01*
X143859590Y-109782695D01*
X143859590Y-109830314D01*
X143835781Y-109877933D01*
X143811971Y-109901743D01*
X143764352Y-109925552D01*
X143669114Y-109949362D01*
X143550067Y-109949362D01*
X143454829Y-109925552D01*
X143407210Y-109901743D01*
X143383400Y-109877933D01*
X143359590Y-109830314D01*
X148595172Y-113419571D02*
X148571362Y-113443381D01*
X148499934Y-113467190D01*
X148452315Y-113467190D01*
X148380886Y-113443381D01*
X148333267Y-113395762D01*
X148309458Y-113348143D01*
X148285648Y-113252905D01*
X148285648Y-113181476D01*
X148309458Y-113086238D01*
X148333267Y-113038619D01*
X148380886Y-112991000D01*
X148452315Y-112967190D01*
X148499934Y-112967190D01*
X148571362Y-112991000D01*
X148595172Y-113014810D01*
X149023743Y-113133857D02*
X149023743Y-113467190D01*
X148904696Y-112943381D02*
X148785648Y-113300524D01*
X149095172Y-113300524D01*
X149547552Y-113467190D02*
X149261838Y-113467190D01*
X149404695Y-113467190D02*
X149404695Y-112967190D01*
X149357076Y-113038619D01*
X149309457Y-113086238D01*
X149261838Y-113110048D01*
X148696772Y-102624571D02*
X148672962Y-102648381D01*
X148601534Y-102672190D01*
X148553915Y-102672190D01*
X148482486Y-102648381D01*
X148434867Y-102600762D01*
X148411058Y-102553143D01*
X148387248Y-102457905D01*
X148387248Y-102386476D01*
X148411058Y-102291238D01*
X148434867Y-102243619D01*
X148482486Y-102196000D01*
X148553915Y-102172190D01*
X148601534Y-102172190D01*
X148672962Y-102196000D01*
X148696772Y-102219810D01*
X149125343Y-102338857D02*
X149125343Y-102672190D01*
X149006296Y-102148381D02*
X148887248Y-102505524D01*
X149196772Y-102505524D01*
X149363438Y-102219810D02*
X149387248Y-102196000D01*
X149434867Y-102172190D01*
X149553914Y-102172190D01*
X149601533Y-102196000D01*
X149625343Y-102219810D01*
X149649152Y-102267429D01*
X149649152Y-102315048D01*
X149625343Y-102386476D01*
X149339629Y-102672190D01*
X149649152Y-102672190D01*
X124950953Y-108844390D02*
X124950953Y-108344390D01*
X125070000Y-108344390D01*
X125141429Y-108368200D01*
X125189048Y-108415819D01*
X125212857Y-108463438D01*
X125236667Y-108558676D01*
X125236667Y-108630105D01*
X125212857Y-108725343D01*
X125189048Y-108772962D01*
X125141429Y-108820581D01*
X125070000Y-108844390D01*
X124950953Y-108844390D01*
X125712857Y-108844390D02*
X125427143Y-108844390D01*
X125570000Y-108844390D02*
X125570000Y-108344390D01*
X125522381Y-108415819D01*
X125474762Y-108463438D01*
X125427143Y-108487248D01*
X125686667Y-90216190D02*
X125448572Y-90216190D01*
X125448572Y-89716190D01*
X126115238Y-90216190D02*
X125829524Y-90216190D01*
X125972381Y-90216190D02*
X125972381Y-89716190D01*
X125924762Y-89787619D01*
X125877143Y-89835238D01*
X125829524Y-89859048D01*
X131126667Y-101336190D02*
X130888572Y-101336190D01*
X130888572Y-100836190D01*
X131245715Y-100836190D02*
X131555238Y-100836190D01*
X131388572Y-101026667D01*
X131460000Y-101026667D01*
X131507619Y-101050476D01*
X131531429Y-101074286D01*
X131555238Y-101121905D01*
X131555238Y-101240952D01*
X131531429Y-101288571D01*
X131507619Y-101312381D01*
X131460000Y-101336190D01*
X131317143Y-101336190D01*
X131269524Y-101312381D01*
X131245715Y-101288571D01*
X126303467Y-95890390D02*
X126065372Y-95890390D01*
X126065372Y-95390390D01*
X126684419Y-95557057D02*
X126684419Y-95890390D01*
X126565372Y-95366581D02*
X126446324Y-95723724D01*
X126755848Y-95723724D01*
X135276190Y-86083333D02*
X135276190Y-86321428D01*
X134776190Y-86321428D01*
X134776190Y-85678571D02*
X134776190Y-85916666D01*
X135014286Y-85940476D01*
X134990476Y-85916666D01*
X134966667Y-85869047D01*
X134966667Y-85750000D01*
X134990476Y-85702381D01*
X135014286Y-85678571D01*
X135061905Y-85654762D01*
X135180952Y-85654762D01*
X135228571Y-85678571D01*
X135252381Y-85702381D01*
X135276190Y-85750000D01*
X135276190Y-85869047D01*
X135252381Y-85916666D01*
X135228571Y-85940476D01*
X153102381Y-109333810D02*
X153054762Y-109310000D01*
X153007143Y-109262381D01*
X152935714Y-109190952D01*
X152888095Y-109167143D01*
X152840476Y-109167143D01*
X152864286Y-109286190D02*
X152816667Y-109262381D01*
X152769048Y-109214762D01*
X152745238Y-109119524D01*
X152745238Y-108952857D01*
X152769048Y-108857619D01*
X152816667Y-108810000D01*
X152864286Y-108786190D01*
X152959524Y-108786190D01*
X153007143Y-108810000D01*
X153054762Y-108857619D01*
X153078571Y-108952857D01*
X153078571Y-109119524D01*
X153054762Y-109214762D01*
X153007143Y-109262381D01*
X152959524Y-109286190D01*
X152864286Y-109286190D01*
X153554762Y-109286190D02*
X153269048Y-109286190D01*
X153411905Y-109286190D02*
X153411905Y-108786190D01*
X153364286Y-108857619D01*
X153316667Y-108905238D01*
X153269048Y-108929048D01*
X152962381Y-105293810D02*
X152914762Y-105270000D01*
X152867143Y-105222381D01*
X152795714Y-105150952D01*
X152748095Y-105127143D01*
X152700476Y-105127143D01*
X152724286Y-105246190D02*
X152676667Y-105222381D01*
X152629048Y-105174762D01*
X152605238Y-105079524D01*
X152605238Y-104912857D01*
X152629048Y-104817619D01*
X152676667Y-104770000D01*
X152724286Y-104746190D01*
X152819524Y-104746190D01*
X152867143Y-104770000D01*
X152914762Y-104817619D01*
X152938571Y-104912857D01*
X152938571Y-105079524D01*
X152914762Y-105174762D01*
X152867143Y-105222381D01*
X152819524Y-105246190D01*
X152724286Y-105246190D01*
X153129048Y-104793810D02*
X153152858Y-104770000D01*
X153200477Y-104746190D01*
X153319524Y-104746190D01*
X153367143Y-104770000D01*
X153390953Y-104793810D01*
X153414762Y-104841429D01*
X153414762Y-104889048D01*
X153390953Y-104960476D01*
X153105239Y-105246190D01*
X153414762Y-105246190D01*
X153161581Y-101322810D02*
X153113962Y-101299000D01*
X153066343Y-101251381D01*
X152994914Y-101179952D01*
X152947295Y-101156143D01*
X152899676Y-101156143D01*
X152923486Y-101275190D02*
X152875867Y-101251381D01*
X152828248Y-101203762D01*
X152804438Y-101108524D01*
X152804438Y-100941857D01*
X152828248Y-100846619D01*
X152875867Y-100799000D01*
X152923486Y-100775190D01*
X153018724Y-100775190D01*
X153066343Y-100799000D01*
X153113962Y-100846619D01*
X153137771Y-100941857D01*
X153137771Y-101108524D01*
X153113962Y-101203762D01*
X153066343Y-101251381D01*
X153018724Y-101275190D01*
X152923486Y-101275190D01*
X153304439Y-100775190D02*
X153613962Y-100775190D01*
X153447296Y-100965667D01*
X153518724Y-100965667D01*
X153566343Y-100989476D01*
X153590153Y-101013286D01*
X153613962Y-101060905D01*
X153613962Y-101179952D01*
X153590153Y-101227571D01*
X153566343Y-101251381D01*
X153518724Y-101275190D01*
X153375867Y-101275190D01*
X153328248Y-101251381D01*
X153304439Y-101227571D01*
X149666667Y-111706190D02*
X149500000Y-111468095D01*
X149380953Y-111706190D02*
X149380953Y-111206190D01*
X149571429Y-111206190D01*
X149619048Y-111230000D01*
X149642857Y-111253810D01*
X149666667Y-111301429D01*
X149666667Y-111372857D01*
X149642857Y-111420476D01*
X149619048Y-111444286D01*
X149571429Y-111468095D01*
X149380953Y-111468095D01*
X150142857Y-111706190D02*
X149857143Y-111706190D01*
X150000000Y-111706190D02*
X150000000Y-111206190D01*
X149952381Y-111277619D01*
X149904762Y-111325238D01*
X149857143Y-111349048D01*
X149646667Y-108166190D02*
X149480000Y-107928095D01*
X149360953Y-108166190D02*
X149360953Y-107666190D01*
X149551429Y-107666190D01*
X149599048Y-107690000D01*
X149622857Y-107713810D01*
X149646667Y-107761429D01*
X149646667Y-107832857D01*
X149622857Y-107880476D01*
X149599048Y-107904286D01*
X149551429Y-107928095D01*
X149360953Y-107928095D01*
X149837143Y-107713810D02*
X149860953Y-107690000D01*
X149908572Y-107666190D01*
X150027619Y-107666190D01*
X150075238Y-107690000D01*
X150099048Y-107713810D01*
X150122857Y-107761429D01*
X150122857Y-107809048D01*
X150099048Y-107880476D01*
X149813334Y-108166190D01*
X150122857Y-108166190D01*
X149666667Y-110276190D02*
X149500000Y-110038095D01*
X149380953Y-110276190D02*
X149380953Y-109776190D01*
X149571429Y-109776190D01*
X149619048Y-109800000D01*
X149642857Y-109823810D01*
X149666667Y-109871429D01*
X149666667Y-109942857D01*
X149642857Y-109990476D01*
X149619048Y-110014286D01*
X149571429Y-110038095D01*
X149380953Y-110038095D01*
X149833334Y-109776190D02*
X150142857Y-109776190D01*
X149976191Y-109966667D01*
X150047619Y-109966667D01*
X150095238Y-109990476D01*
X150119048Y-110014286D01*
X150142857Y-110061905D01*
X150142857Y-110180952D01*
X150119048Y-110228571D01*
X150095238Y-110252381D01*
X150047619Y-110276190D01*
X149904762Y-110276190D01*
X149857143Y-110252381D01*
X149833334Y-110228571D01*
X150077867Y-103662790D02*
X149911200Y-103424695D01*
X149792153Y-103662790D02*
X149792153Y-103162790D01*
X149982629Y-103162790D01*
X150030248Y-103186600D01*
X150054057Y-103210410D01*
X150077867Y-103258029D01*
X150077867Y-103329457D01*
X150054057Y-103377076D01*
X150030248Y-103400886D01*
X149982629Y-103424695D01*
X149792153Y-103424695D01*
X150506438Y-103329457D02*
X150506438Y-103662790D01*
X150387391Y-103138981D02*
X150268343Y-103496124D01*
X150577867Y-103496124D01*
X149646667Y-106776190D02*
X149480000Y-106538095D01*
X149360953Y-106776190D02*
X149360953Y-106276190D01*
X149551429Y-106276190D01*
X149599048Y-106300000D01*
X149622857Y-106323810D01*
X149646667Y-106371429D01*
X149646667Y-106442857D01*
X149622857Y-106490476D01*
X149599048Y-106514286D01*
X149551429Y-106538095D01*
X149360953Y-106538095D01*
X150099048Y-106276190D02*
X149860953Y-106276190D01*
X149837143Y-106514286D01*
X149860953Y-106490476D01*
X149908572Y-106466667D01*
X150027619Y-106466667D01*
X150075238Y-106490476D01*
X150099048Y-106514286D01*
X150122857Y-106561905D01*
X150122857Y-106680952D01*
X150099048Y-106728571D01*
X150075238Y-106752381D01*
X150027619Y-106776190D01*
X149908572Y-106776190D01*
X149860953Y-106752381D01*
X149837143Y-106728571D01*
X149950867Y-101884790D02*
X149784200Y-101646695D01*
X149665153Y-101884790D02*
X149665153Y-101384790D01*
X149855629Y-101384790D01*
X149903248Y-101408600D01*
X149927057Y-101432410D01*
X149950867Y-101480029D01*
X149950867Y-101551457D01*
X149927057Y-101599076D01*
X149903248Y-101622886D01*
X149855629Y-101646695D01*
X149665153Y-101646695D01*
X150379438Y-101384790D02*
X150284200Y-101384790D01*
X150236581Y-101408600D01*
X150212772Y-101432410D01*
X150165153Y-101503838D01*
X150141343Y-101599076D01*
X150141343Y-101789552D01*
X150165153Y-101837171D01*
X150188962Y-101860981D01*
X150236581Y-101884790D01*
X150331819Y-101884790D01*
X150379438Y-101860981D01*
X150403248Y-101837171D01*
X150427057Y-101789552D01*
X150427057Y-101670505D01*
X150403248Y-101622886D01*
X150379438Y-101599076D01*
X150331819Y-101575267D01*
X150236581Y-101575267D01*
X150188962Y-101599076D01*
X150165153Y-101622886D01*
X150141343Y-101670505D01*
X156416667Y-112726190D02*
X156250000Y-112488095D01*
X156130953Y-112726190D02*
X156130953Y-112226190D01*
X156321429Y-112226190D01*
X156369048Y-112250000D01*
X156392857Y-112273810D01*
X156416667Y-112321429D01*
X156416667Y-112392857D01*
X156392857Y-112440476D01*
X156369048Y-112464286D01*
X156321429Y-112488095D01*
X156130953Y-112488095D01*
X156583334Y-112226190D02*
X156916667Y-112226190D01*
X156702381Y-112726190D01*
X156416667Y-108726190D02*
X156250000Y-108488095D01*
X156130953Y-108726190D02*
X156130953Y-108226190D01*
X156321429Y-108226190D01*
X156369048Y-108250000D01*
X156392857Y-108273810D01*
X156416667Y-108321429D01*
X156416667Y-108392857D01*
X156392857Y-108440476D01*
X156369048Y-108464286D01*
X156321429Y-108488095D01*
X156130953Y-108488095D01*
X156702381Y-108440476D02*
X156654762Y-108416667D01*
X156630953Y-108392857D01*
X156607143Y-108345238D01*
X156607143Y-108321429D01*
X156630953Y-108273810D01*
X156654762Y-108250000D01*
X156702381Y-108226190D01*
X156797619Y-108226190D01*
X156845238Y-108250000D01*
X156869048Y-108273810D01*
X156892857Y-108321429D01*
X156892857Y-108345238D01*
X156869048Y-108392857D01*
X156845238Y-108416667D01*
X156797619Y-108440476D01*
X156702381Y-108440476D01*
X156654762Y-108464286D01*
X156630953Y-108488095D01*
X156607143Y-108535714D01*
X156607143Y-108630952D01*
X156630953Y-108678571D01*
X156654762Y-108702381D01*
X156702381Y-108726190D01*
X156797619Y-108726190D01*
X156845238Y-108702381D01*
X156869048Y-108678571D01*
X156892857Y-108630952D01*
X156892857Y-108535714D01*
X156869048Y-108488095D01*
X156845238Y-108464286D01*
X156797619Y-108440476D01*
X156416667Y-104726190D02*
X156250000Y-104488095D01*
X156130953Y-104726190D02*
X156130953Y-104226190D01*
X156321429Y-104226190D01*
X156369048Y-104250000D01*
X156392857Y-104273810D01*
X156416667Y-104321429D01*
X156416667Y-104392857D01*
X156392857Y-104440476D01*
X156369048Y-104464286D01*
X156321429Y-104488095D01*
X156130953Y-104488095D01*
X156654762Y-104726190D02*
X156750000Y-104726190D01*
X156797619Y-104702381D01*
X156821429Y-104678571D01*
X156869048Y-104607143D01*
X156892857Y-104511905D01*
X156892857Y-104321429D01*
X156869048Y-104273810D01*
X156845238Y-104250000D01*
X156797619Y-104226190D01*
X156702381Y-104226190D01*
X156654762Y-104250000D01*
X156630953Y-104273810D01*
X156607143Y-104321429D01*
X156607143Y-104440476D01*
X156630953Y-104488095D01*
X156654762Y-104511905D01*
X156702381Y-104535714D01*
X156797619Y-104535714D01*
X156845238Y-104511905D01*
X156869048Y-104488095D01*
X156892857Y-104440476D01*
X141229172Y-109250790D02*
X141062505Y-109012695D01*
X140943458Y-109250790D02*
X140943458Y-108750790D01*
X141133934Y-108750790D01*
X141181553Y-108774600D01*
X141205362Y-108798410D01*
X141229172Y-108846029D01*
X141229172Y-108917457D01*
X141205362Y-108965076D01*
X141181553Y-108988886D01*
X141133934Y-109012695D01*
X140943458Y-109012695D01*
X141705362Y-109250790D02*
X141419648Y-109250790D01*
X141562505Y-109250790D02*
X141562505Y-108750790D01*
X141514886Y-108822219D01*
X141467267Y-108869838D01*
X141419648Y-108893648D01*
X142014886Y-108750790D02*
X142062505Y-108750790D01*
X142110124Y-108774600D01*
X142133933Y-108798410D01*
X142157743Y-108846029D01*
X142181552Y-108941267D01*
X142181552Y-109060314D01*
X142157743Y-109155552D01*
X142133933Y-109203171D01*
X142110124Y-109226981D01*
X142062505Y-109250790D01*
X142014886Y-109250790D01*
X141967267Y-109226981D01*
X141943457Y-109203171D01*
X141919648Y-109155552D01*
X141895838Y-109060314D01*
X141895838Y-108941267D01*
X141919648Y-108846029D01*
X141943457Y-108798410D01*
X141967267Y-108774600D01*
X142014886Y-108750790D01*
X139070172Y-108412590D02*
X138903505Y-108174495D01*
X138784458Y-108412590D02*
X138784458Y-107912590D01*
X138974934Y-107912590D01*
X139022553Y-107936400D01*
X139046362Y-107960210D01*
X139070172Y-108007829D01*
X139070172Y-108079257D01*
X139046362Y-108126876D01*
X139022553Y-108150686D01*
X138974934Y-108174495D01*
X138784458Y-108174495D01*
X139546362Y-108412590D02*
X139260648Y-108412590D01*
X139403505Y-108412590D02*
X139403505Y-107912590D01*
X139355886Y-107984019D01*
X139308267Y-108031638D01*
X139260648Y-108055448D01*
X140022552Y-108412590D02*
X139736838Y-108412590D01*
X139879695Y-108412590D02*
X139879695Y-107912590D01*
X139832076Y-107984019D01*
X139784457Y-108031638D01*
X139736838Y-108055448D01*
X154538772Y-86238390D02*
X154372105Y-86000295D01*
X154253058Y-86238390D02*
X154253058Y-85738390D01*
X154443534Y-85738390D01*
X154491153Y-85762200D01*
X154514962Y-85786010D01*
X154538772Y-85833629D01*
X154538772Y-85905057D01*
X154514962Y-85952676D01*
X154491153Y-85976486D01*
X154443534Y-86000295D01*
X154253058Y-86000295D01*
X155014962Y-86238390D02*
X154729248Y-86238390D01*
X154872105Y-86238390D02*
X154872105Y-85738390D01*
X154824486Y-85809819D01*
X154776867Y-85857438D01*
X154729248Y-85881248D01*
X155205438Y-85786010D02*
X155229248Y-85762200D01*
X155276867Y-85738390D01*
X155395914Y-85738390D01*
X155443533Y-85762200D01*
X155467343Y-85786010D01*
X155491152Y-85833629D01*
X155491152Y-85881248D01*
X155467343Y-85952676D01*
X155181629Y-86238390D01*
X155491152Y-86238390D01*
X150828572Y-86636190D02*
X150661905Y-86398095D01*
X150542858Y-86636190D02*
X150542858Y-86136190D01*
X150733334Y-86136190D01*
X150780953Y-86160000D01*
X150804762Y-86183810D01*
X150828572Y-86231429D01*
X150828572Y-86302857D01*
X150804762Y-86350476D01*
X150780953Y-86374286D01*
X150733334Y-86398095D01*
X150542858Y-86398095D01*
X151304762Y-86636190D02*
X151019048Y-86636190D01*
X151161905Y-86636190D02*
X151161905Y-86136190D01*
X151114286Y-86207619D01*
X151066667Y-86255238D01*
X151019048Y-86279048D01*
X151471429Y-86136190D02*
X151780952Y-86136190D01*
X151614286Y-86326667D01*
X151685714Y-86326667D01*
X151733333Y-86350476D01*
X151757143Y-86374286D01*
X151780952Y-86421905D01*
X151780952Y-86540952D01*
X151757143Y-86588571D01*
X151733333Y-86612381D01*
X151685714Y-86636190D01*
X151542857Y-86636190D01*
X151495238Y-86612381D01*
X151471429Y-86588571D01*
X152178572Y-83226190D02*
X152011905Y-82988095D01*
X151892858Y-83226190D02*
X151892858Y-82726190D01*
X152083334Y-82726190D01*
X152130953Y-82750000D01*
X152154762Y-82773810D01*
X152178572Y-82821429D01*
X152178572Y-82892857D01*
X152154762Y-82940476D01*
X152130953Y-82964286D01*
X152083334Y-82988095D01*
X151892858Y-82988095D01*
X152654762Y-83226190D02*
X152369048Y-83226190D01*
X152511905Y-83226190D02*
X152511905Y-82726190D01*
X152464286Y-82797619D01*
X152416667Y-82845238D01*
X152369048Y-82869048D01*
X153083333Y-82892857D02*
X153083333Y-83226190D01*
X152964286Y-82702381D02*
X152845238Y-83059524D01*
X153154762Y-83059524D01*
X152178572Y-84726190D02*
X152011905Y-84488095D01*
X151892858Y-84726190D02*
X151892858Y-84226190D01*
X152083334Y-84226190D01*
X152130953Y-84250000D01*
X152154762Y-84273810D01*
X152178572Y-84321429D01*
X152178572Y-84392857D01*
X152154762Y-84440476D01*
X152130953Y-84464286D01*
X152083334Y-84488095D01*
X151892858Y-84488095D01*
X152654762Y-84726190D02*
X152369048Y-84726190D01*
X152511905Y-84726190D02*
X152511905Y-84226190D01*
X152464286Y-84297619D01*
X152416667Y-84345238D01*
X152369048Y-84369048D01*
X153107143Y-84226190D02*
X152869048Y-84226190D01*
X152845238Y-84464286D01*
X152869048Y-84440476D01*
X152916667Y-84416667D01*
X153035714Y-84416667D01*
X153083333Y-84440476D01*
X153107143Y-84464286D01*
X153130952Y-84511905D01*
X153130952Y-84630952D01*
X153107143Y-84678571D01*
X153083333Y-84702381D01*
X153035714Y-84726190D01*
X152916667Y-84726190D01*
X152869048Y-84702381D01*
X152845238Y-84678571D01*
X133278572Y-85266190D02*
X133111905Y-85028095D01*
X132992858Y-85266190D02*
X132992858Y-84766190D01*
X133183334Y-84766190D01*
X133230953Y-84790000D01*
X133254762Y-84813810D01*
X133278572Y-84861429D01*
X133278572Y-84932857D01*
X133254762Y-84980476D01*
X133230953Y-85004286D01*
X133183334Y-85028095D01*
X132992858Y-85028095D01*
X133754762Y-85266190D02*
X133469048Y-85266190D01*
X133611905Y-85266190D02*
X133611905Y-84766190D01*
X133564286Y-84837619D01*
X133516667Y-84885238D01*
X133469048Y-84909048D01*
X134183333Y-84766190D02*
X134088095Y-84766190D01*
X134040476Y-84790000D01*
X134016667Y-84813810D01*
X133969048Y-84885238D01*
X133945238Y-84980476D01*
X133945238Y-85170952D01*
X133969048Y-85218571D01*
X133992857Y-85242381D01*
X134040476Y-85266190D01*
X134135714Y-85266190D01*
X134183333Y-85242381D01*
X134207143Y-85218571D01*
X134230952Y-85170952D01*
X134230952Y-85051905D01*
X134207143Y-85004286D01*
X134183333Y-84980476D01*
X134135714Y-84956667D01*
X134040476Y-84956667D01*
X133992857Y-84980476D01*
X133969048Y-85004286D01*
X133945238Y-85051905D01*
X148678572Y-88896190D02*
X148511905Y-88658095D01*
X148392858Y-88896190D02*
X148392858Y-88396190D01*
X148583334Y-88396190D01*
X148630953Y-88420000D01*
X148654762Y-88443810D01*
X148678572Y-88491429D01*
X148678572Y-88562857D01*
X148654762Y-88610476D01*
X148630953Y-88634286D01*
X148583334Y-88658095D01*
X148392858Y-88658095D01*
X149154762Y-88896190D02*
X148869048Y-88896190D01*
X149011905Y-88896190D02*
X149011905Y-88396190D01*
X148964286Y-88467619D01*
X148916667Y-88515238D01*
X148869048Y-88539048D01*
X149321429Y-88396190D02*
X149654762Y-88396190D01*
X149440476Y-88896190D01*
X155351572Y-98862190D02*
X155184905Y-98624095D01*
X155065858Y-98862190D02*
X155065858Y-98362190D01*
X155256334Y-98362190D01*
X155303953Y-98386000D01*
X155327762Y-98409810D01*
X155351572Y-98457429D01*
X155351572Y-98528857D01*
X155327762Y-98576476D01*
X155303953Y-98600286D01*
X155256334Y-98624095D01*
X155065858Y-98624095D01*
X155827762Y-98862190D02*
X155542048Y-98862190D01*
X155684905Y-98862190D02*
X155684905Y-98362190D01*
X155637286Y-98433619D01*
X155589667Y-98481238D01*
X155542048Y-98505048D01*
X156113476Y-98576476D02*
X156065857Y-98552667D01*
X156042048Y-98528857D01*
X156018238Y-98481238D01*
X156018238Y-98457429D01*
X156042048Y-98409810D01*
X156065857Y-98386000D01*
X156113476Y-98362190D01*
X156208714Y-98362190D01*
X156256333Y-98386000D01*
X156280143Y-98409810D01*
X156303952Y-98457429D01*
X156303952Y-98481238D01*
X156280143Y-98528857D01*
X156256333Y-98552667D01*
X156208714Y-98576476D01*
X156113476Y-98576476D01*
X156065857Y-98600286D01*
X156042048Y-98624095D01*
X156018238Y-98671714D01*
X156018238Y-98766952D01*
X156042048Y-98814571D01*
X156065857Y-98838381D01*
X156113476Y-98862190D01*
X156208714Y-98862190D01*
X156256333Y-98838381D01*
X156280143Y-98814571D01*
X156303952Y-98766952D01*
X156303952Y-98671714D01*
X156280143Y-98624095D01*
X156256333Y-98600286D01*
X156208714Y-98576476D01*
X148533190Y-92937628D02*
X148295095Y-93104295D01*
X148533190Y-93223342D02*
X148033190Y-93223342D01*
X148033190Y-93032866D01*
X148057000Y-92985247D01*
X148080810Y-92961438D01*
X148128429Y-92937628D01*
X148199857Y-92937628D01*
X148247476Y-92961438D01*
X148271286Y-92985247D01*
X148295095Y-93032866D01*
X148295095Y-93223342D01*
X148533190Y-92461438D02*
X148533190Y-92747152D01*
X148533190Y-92604295D02*
X148033190Y-92604295D01*
X148104619Y-92651914D01*
X148152238Y-92699533D01*
X148176048Y-92747152D01*
X148533190Y-92223343D02*
X148533190Y-92128105D01*
X148509381Y-92080486D01*
X148485571Y-92056676D01*
X148414143Y-92009057D01*
X148318905Y-91985248D01*
X148128429Y-91985248D01*
X148080810Y-92009057D01*
X148057000Y-92032867D01*
X148033190Y-92080486D01*
X148033190Y-92175724D01*
X148057000Y-92223343D01*
X148080810Y-92247152D01*
X148128429Y-92270962D01*
X148247476Y-92270962D01*
X148295095Y-92247152D01*
X148318905Y-92223343D01*
X148342714Y-92175724D01*
X148342714Y-92080486D01*
X148318905Y-92032867D01*
X148295095Y-92009057D01*
X148247476Y-91985248D01*
X128630772Y-108234790D02*
X128464105Y-107996695D01*
X128345058Y-108234790D02*
X128345058Y-107734790D01*
X128535534Y-107734790D01*
X128583153Y-107758600D01*
X128606962Y-107782410D01*
X128630772Y-107830029D01*
X128630772Y-107901457D01*
X128606962Y-107949076D01*
X128583153Y-107972886D01*
X128535534Y-107996695D01*
X128345058Y-107996695D01*
X128821248Y-107782410D02*
X128845058Y-107758600D01*
X128892677Y-107734790D01*
X129011724Y-107734790D01*
X129059343Y-107758600D01*
X129083153Y-107782410D01*
X129106962Y-107830029D01*
X129106962Y-107877648D01*
X129083153Y-107949076D01*
X128797439Y-108234790D01*
X129106962Y-108234790D01*
X129416486Y-107734790D02*
X129464105Y-107734790D01*
X129511724Y-107758600D01*
X129535533Y-107782410D01*
X129559343Y-107830029D01*
X129583152Y-107925267D01*
X129583152Y-108044314D01*
X129559343Y-108139552D01*
X129535533Y-108187171D01*
X129511724Y-108210981D01*
X129464105Y-108234790D01*
X129416486Y-108234790D01*
X129368867Y-108210981D01*
X129345057Y-108187171D01*
X129321248Y-108139552D01*
X129297438Y-108044314D01*
X129297438Y-107925267D01*
X129321248Y-107830029D01*
X129345057Y-107782410D01*
X129368867Y-107758600D01*
X129416486Y-107734790D01*
X128783172Y-106278990D02*
X128616505Y-106040895D01*
X128497458Y-106278990D02*
X128497458Y-105778990D01*
X128687934Y-105778990D01*
X128735553Y-105802800D01*
X128759362Y-105826610D01*
X128783172Y-105874229D01*
X128783172Y-105945657D01*
X128759362Y-105993276D01*
X128735553Y-106017086D01*
X128687934Y-106040895D01*
X128497458Y-106040895D01*
X128973648Y-105826610D02*
X128997458Y-105802800D01*
X129045077Y-105778990D01*
X129164124Y-105778990D01*
X129211743Y-105802800D01*
X129235553Y-105826610D01*
X129259362Y-105874229D01*
X129259362Y-105921848D01*
X129235553Y-105993276D01*
X128949839Y-106278990D01*
X129259362Y-106278990D01*
X129735552Y-106278990D02*
X129449838Y-106278990D01*
X129592695Y-106278990D02*
X129592695Y-105778990D01*
X129545076Y-105850419D01*
X129497457Y-105898038D01*
X129449838Y-105921848D01*
X137520772Y-113594190D02*
X137354105Y-113356095D01*
X137235058Y-113594190D02*
X137235058Y-113094190D01*
X137425534Y-113094190D01*
X137473153Y-113118000D01*
X137496962Y-113141810D01*
X137520772Y-113189429D01*
X137520772Y-113260857D01*
X137496962Y-113308476D01*
X137473153Y-113332286D01*
X137425534Y-113356095D01*
X137235058Y-113356095D01*
X137687439Y-113094190D02*
X137996962Y-113094190D01*
X137830296Y-113284667D01*
X137901724Y-113284667D01*
X137949343Y-113308476D01*
X137973153Y-113332286D01*
X137996962Y-113379905D01*
X137996962Y-113498952D01*
X137973153Y-113546571D01*
X137949343Y-113570381D01*
X137901724Y-113594190D01*
X137758867Y-113594190D01*
X137711248Y-113570381D01*
X137687439Y-113546571D01*
X138425533Y-113260857D02*
X138425533Y-113594190D01*
X138306486Y-113070381D02*
X138187438Y-113427524D01*
X138496962Y-113427524D01*
X140797372Y-112832190D02*
X140630705Y-112594095D01*
X140511658Y-112832190D02*
X140511658Y-112332190D01*
X140702134Y-112332190D01*
X140749753Y-112356000D01*
X140773562Y-112379810D01*
X140797372Y-112427429D01*
X140797372Y-112498857D01*
X140773562Y-112546476D01*
X140749753Y-112570286D01*
X140702134Y-112594095D01*
X140511658Y-112594095D01*
X140964039Y-112332190D02*
X141273562Y-112332190D01*
X141106896Y-112522667D01*
X141178324Y-112522667D01*
X141225943Y-112546476D01*
X141249753Y-112570286D01*
X141273562Y-112617905D01*
X141273562Y-112736952D01*
X141249753Y-112784571D01*
X141225943Y-112808381D01*
X141178324Y-112832190D01*
X141035467Y-112832190D01*
X140987848Y-112808381D01*
X140964039Y-112784571D01*
X141725943Y-112332190D02*
X141487848Y-112332190D01*
X141464038Y-112570286D01*
X141487848Y-112546476D01*
X141535467Y-112522667D01*
X141654514Y-112522667D01*
X141702133Y-112546476D01*
X141725943Y-112570286D01*
X141749752Y-112617905D01*
X141749752Y-112736952D01*
X141725943Y-112784571D01*
X141702133Y-112808381D01*
X141654514Y-112832190D01*
X141535467Y-112832190D01*
X141487848Y-112808381D01*
X141464038Y-112784571D01*
X151766190Y-93570952D02*
X152170952Y-93570952D01*
X152218571Y-93547143D01*
X152242381Y-93523333D01*
X152266190Y-93475714D01*
X152266190Y-93380476D01*
X152242381Y-93332857D01*
X152218571Y-93309048D01*
X152170952Y-93285238D01*
X151766190Y-93285238D01*
X151766190Y-93094761D02*
X151766190Y-92761428D01*
X152266190Y-92975714D01*
X146452848Y-85306590D02*
X146452848Y-85711352D01*
X146476657Y-85758971D01*
X146500467Y-85782781D01*
X146548086Y-85806590D01*
X146643324Y-85806590D01*
X146690943Y-85782781D01*
X146714752Y-85758971D01*
X146738562Y-85711352D01*
X146738562Y-85306590D01*
X147048086Y-85520876D02*
X147000467Y-85497067D01*
X146976658Y-85473257D01*
X146952848Y-85425638D01*
X146952848Y-85401829D01*
X146976658Y-85354210D01*
X147000467Y-85330400D01*
X147048086Y-85306590D01*
X147143324Y-85306590D01*
X147190943Y-85330400D01*
X147214753Y-85354210D01*
X147238562Y-85401829D01*
X147238562Y-85425638D01*
X147214753Y-85473257D01*
X147190943Y-85497067D01*
X147143324Y-85520876D01*
X147048086Y-85520876D01*
X147000467Y-85544686D01*
X146976658Y-85568495D01*
X146952848Y-85616114D01*
X146952848Y-85711352D01*
X146976658Y-85758971D01*
X147000467Y-85782781D01*
X147048086Y-85806590D01*
X147143324Y-85806590D01*
X147190943Y-85782781D01*
X147214753Y-85758971D01*
X147238562Y-85711352D01*
X147238562Y-85616114D01*
X147214753Y-85568495D01*
X147190943Y-85544686D01*
X147143324Y-85520876D01*
X156706044Y-119372803D02*
X156655536Y-119389638D01*
X156605029Y-119440146D01*
X156571357Y-119507490D01*
X156571357Y-119574833D01*
X156588193Y-119625340D01*
X156638700Y-119709520D01*
X156689208Y-119760028D01*
X156773388Y-119810535D01*
X156823895Y-119827371D01*
X156891239Y-119827371D01*
X156958582Y-119793699D01*
X156992254Y-119760027D01*
X157025925Y-119692685D01*
X157025925Y-119659012D01*
X156908075Y-119541161D01*
X156840731Y-119608505D01*
X157211120Y-119541161D02*
X156857567Y-119187607D01*
X157413150Y-119339130D01*
X157059597Y-118985577D01*
X157581510Y-119170771D02*
X157227956Y-118817218D01*
X157312135Y-118733039D01*
X157379479Y-118699367D01*
X157446823Y-118699367D01*
X157497330Y-118716203D01*
X157581510Y-118766711D01*
X157632018Y-118817218D01*
X157682525Y-118901398D01*
X157699361Y-118951905D01*
X157699361Y-119019249D01*
X157665689Y-119086592D01*
X157581510Y-119170771D01*
X158389631Y-118362650D02*
X158187601Y-118564680D01*
X158288616Y-118463665D02*
X157935062Y-118110112D01*
X157951899Y-118194291D01*
X157951899Y-118261635D01*
X157935063Y-118312143D01*
X158743184Y-117638708D02*
X158810528Y-117605036D01*
X158844200Y-117605037D01*
X158894707Y-117621872D01*
X158945215Y-117672379D01*
X158962050Y-117722887D01*
X158962051Y-117756559D01*
X158945215Y-117807066D01*
X158810528Y-117941753D01*
X158456974Y-117588200D01*
X158574825Y-117470349D01*
X158625333Y-117453514D01*
X158659005Y-117453514D01*
X158709513Y-117470350D01*
X158743184Y-117504022D01*
X158760021Y-117554529D01*
X158760020Y-117588200D01*
X158743184Y-117638708D01*
X158625334Y-117756559D01*
X159046230Y-117504021D02*
X159214588Y-117335662D01*
X159113573Y-117638708D02*
X158877871Y-117167303D01*
X159349275Y-117403006D01*
X159063065Y-116982109D02*
X159265096Y-116780079D01*
X159517634Y-117234647D02*
X159164081Y-116881094D01*
X159332439Y-116712735D02*
X159534469Y-116510705D01*
X159787008Y-116965273D02*
X159433454Y-116611720D01*
X156586731Y-80576223D02*
X156620403Y-80643567D01*
X156620402Y-80677239D01*
X156603567Y-80727746D01*
X156553060Y-80778254D01*
X156502552Y-80795089D01*
X156468880Y-80795090D01*
X156418373Y-80778254D01*
X156283686Y-80643567D01*
X156637239Y-80290013D01*
X156755090Y-80407864D01*
X156771925Y-80458372D01*
X156771925Y-80492044D01*
X156755089Y-80542552D01*
X156721417Y-80576223D01*
X156670910Y-80593060D01*
X156637239Y-80593059D01*
X156586731Y-80576223D01*
X156468880Y-80458373D01*
X156721418Y-80879269D02*
X156889777Y-81047627D01*
X156586731Y-80946612D02*
X157058136Y-80710910D01*
X156822433Y-81182314D01*
X157243330Y-80896104D02*
X157445360Y-81098135D01*
X156990792Y-81350673D02*
X157344345Y-80997119D01*
X157512704Y-81165478D02*
X157714734Y-81367508D01*
X157260166Y-81620047D02*
X157613719Y-81266493D01*
X158068288Y-81721062D02*
X158287153Y-81939928D01*
X158034615Y-81956764D01*
X158085122Y-82007272D01*
X158101959Y-82057779D01*
X158101959Y-82091451D01*
X158085122Y-82141959D01*
X158000943Y-82226138D01*
X157950436Y-82242974D01*
X157916764Y-82242974D01*
X157866257Y-82226138D01*
X157765241Y-82125122D01*
X157748405Y-82074615D01*
X157748406Y-82040943D01*
X158876408Y-82562855D02*
X158859573Y-82512347D01*
X158809065Y-82461840D01*
X158741721Y-82428168D01*
X158674378Y-82428168D01*
X158623871Y-82445004D01*
X158539691Y-82495511D01*
X158489183Y-82546019D01*
X158438676Y-82630199D01*
X158421840Y-82680706D01*
X158421840Y-82748050D01*
X158455512Y-82815393D01*
X158489184Y-82849065D01*
X158556526Y-82882736D01*
X158590199Y-82882736D01*
X158708050Y-82764886D01*
X158640706Y-82697542D01*
X158708050Y-83067931D02*
X159061604Y-82714378D01*
X158910081Y-83269961D01*
X159263634Y-82916408D01*
X159078440Y-83438321D02*
X159431993Y-83084767D01*
X159516172Y-83168946D01*
X159549844Y-83236290D01*
X159549844Y-83303634D01*
X159533008Y-83354141D01*
X159482500Y-83438321D01*
X159431993Y-83488829D01*
X159347813Y-83539336D01*
X159297306Y-83556172D01*
X159229962Y-83556172D01*
X159162619Y-83522500D01*
X159078440Y-83438321D01*
D10*
X120823822Y-83218869D02*
X120891166Y-83185197D01*
X120924838Y-83185198D01*
X120975345Y-83202033D01*
X121025853Y-83252540D01*
X121042688Y-83303048D01*
X121042689Y-83336720D01*
X121025853Y-83387227D01*
X120891166Y-83521914D01*
X120537612Y-83168361D01*
X120655463Y-83050510D01*
X120705971Y-83033675D01*
X120739643Y-83033675D01*
X120790151Y-83050511D01*
X120823822Y-83084183D01*
X120840659Y-83134690D01*
X120840658Y-83168361D01*
X120823822Y-83218869D01*
X120705972Y-83336720D01*
X121126868Y-83084182D02*
X121295226Y-82915823D01*
X121194211Y-83218869D02*
X120958509Y-82747464D01*
X121429913Y-82983167D01*
X121143703Y-82562270D02*
X121345734Y-82360240D01*
X121598272Y-82814808D02*
X121244718Y-82461255D01*
X121413077Y-82292896D02*
X121615107Y-82090866D01*
X121867646Y-82545434D02*
X121514092Y-82191881D01*
X122019169Y-81754149D02*
X122019169Y-81720477D01*
X122036004Y-81669969D01*
X122120183Y-81585790D01*
X122170691Y-81568955D01*
X122204363Y-81568955D01*
X122254871Y-81585791D01*
X122288542Y-81619462D01*
X122322214Y-81686805D01*
X122322214Y-82090866D01*
X122541080Y-81872000D01*
X122810454Y-80929192D02*
X122759946Y-80946027D01*
X122709439Y-80996535D01*
X122675767Y-81063879D01*
X122675767Y-81131222D01*
X122692603Y-81181729D01*
X122743110Y-81265909D01*
X122793618Y-81316417D01*
X122877798Y-81366924D01*
X122928305Y-81383760D01*
X122995649Y-81383760D01*
X123062992Y-81350088D01*
X123096664Y-81316416D01*
X123130335Y-81249074D01*
X123130335Y-81215401D01*
X123012485Y-81097550D01*
X122945141Y-81164894D01*
X123315530Y-81097550D02*
X122961977Y-80743996D01*
X123517560Y-80895519D01*
X123164007Y-80541966D01*
X123685920Y-80727160D02*
X123332366Y-80373607D01*
X123416545Y-80289428D01*
X123483889Y-80255756D01*
X123551233Y-80255756D01*
X123601740Y-80272592D01*
X123685920Y-80323100D01*
X123736428Y-80373607D01*
X123786935Y-80457787D01*
X123803771Y-80508294D01*
X123803771Y-80575638D01*
X123770099Y-80642981D01*
X123685920Y-80727160D01*
D11*
X120771997Y-116718444D02*
X120755162Y-116667936D01*
X120704654Y-116617429D01*
X120637310Y-116583757D01*
X120569967Y-116583757D01*
X120519460Y-116600593D01*
X120435280Y-116651100D01*
X120384772Y-116701608D01*
X120334265Y-116785788D01*
X120317429Y-116836295D01*
X120317429Y-116903639D01*
X120351101Y-116970982D01*
X120384773Y-117004654D01*
X120452115Y-117038325D01*
X120485788Y-117038325D01*
X120603639Y-116920475D01*
X120536295Y-116853131D01*
X120603639Y-117223520D02*
X120957193Y-116869967D01*
X120805670Y-117425550D01*
X121159223Y-117071997D01*
X120974029Y-117593910D02*
X121327582Y-117240356D01*
X121411761Y-117324535D01*
X121445433Y-117391879D01*
X121445433Y-117459223D01*
X121428597Y-117509730D01*
X121378089Y-117593910D01*
X121327582Y-117644418D01*
X121243402Y-117694925D01*
X121192895Y-117711761D01*
X121125551Y-117711761D01*
X121058208Y-117678089D01*
X120974029Y-117593910D01*
X121984180Y-118132657D02*
X121748478Y-118368359D01*
X122034688Y-117913791D02*
X121697970Y-118082150D01*
X121916837Y-118301017D01*
X122506092Y-118755584D02*
X122539764Y-118822928D01*
X122539763Y-118856600D01*
X122522928Y-118907107D01*
X122472421Y-118957615D01*
X122421913Y-118974450D01*
X122388241Y-118974451D01*
X122337734Y-118957615D01*
X122203047Y-118822928D01*
X122556600Y-118469374D01*
X122674451Y-118587225D01*
X122691286Y-118637733D01*
X122691286Y-118671405D01*
X122674450Y-118721913D01*
X122640778Y-118755584D01*
X122590271Y-118772421D01*
X122556600Y-118772420D01*
X122506092Y-118755584D01*
X122388241Y-118637734D01*
X122640779Y-119058630D02*
X122809138Y-119226988D01*
X122506092Y-119125973D02*
X122977497Y-118890271D01*
X122741794Y-119361675D01*
X123162691Y-119075465D02*
X123364721Y-119277496D01*
X122910153Y-119530034D02*
X123263706Y-119176481D01*
X123432065Y-119344839D02*
X123634095Y-119546869D01*
X123179527Y-119799408D02*
X123533080Y-119445854D01*
X148500753Y-115202390D02*
X148500753Y-115607152D01*
X148524562Y-115654771D01*
X148548372Y-115678581D01*
X148595991Y-115702390D01*
X148691229Y-115702390D01*
X148738848Y-115678581D01*
X148762657Y-115654771D01*
X148786467Y-115607152D01*
X148786467Y-115202390D01*
X149000753Y-115250010D02*
X149024563Y-115226200D01*
X149072182Y-115202390D01*
X149191229Y-115202390D01*
X149238848Y-115226200D01*
X149262658Y-115250010D01*
X149286467Y-115297629D01*
X149286467Y-115345248D01*
X149262658Y-115416676D01*
X148976944Y-115702390D01*
X149286467Y-115702390D01*
X149762657Y-115702390D02*
X149476943Y-115702390D01*
X149619800Y-115702390D02*
X149619800Y-115202390D01*
X149572181Y-115273819D01*
X149524562Y-115321438D01*
X149476943Y-115345248D01*
X145166668Y-117726190D02*
X144928573Y-117726190D01*
X144928573Y-117226190D01*
X145309525Y-117702381D02*
X145380954Y-117726190D01*
X145500001Y-117726190D01*
X145547620Y-117702381D01*
X145571430Y-117678571D01*
X145595239Y-117630952D01*
X145595239Y-117583333D01*
X145571430Y-117535714D01*
X145547620Y-117511905D01*
X145500001Y-117488095D01*
X145404763Y-117464286D01*
X145357144Y-117440476D01*
X145333335Y-117416667D01*
X145309525Y-117369048D01*
X145309525Y-117321429D01*
X145333335Y-117273810D01*
X145357144Y-117250000D01*
X145404763Y-117226190D01*
X145523811Y-117226190D01*
X145595239Y-117250000D01*
X145809525Y-117726190D02*
X145809525Y-117226190D01*
X145976191Y-117583333D01*
X146142858Y-117226190D01*
X146142858Y-117726190D01*
X146404763Y-117726190D02*
X146500001Y-117726190D01*
X146547620Y-117702381D01*
X146571430Y-117678571D01*
X146619049Y-117607143D01*
X146642858Y-117511905D01*
X146642858Y-117321429D01*
X146619049Y-117273810D01*
X146595239Y-117250000D01*
X146547620Y-117226190D01*
X146452382Y-117226190D01*
X146404763Y-117250000D01*
X146380954Y-117273810D01*
X146357144Y-117321429D01*
X146357144Y-117440476D01*
X146380954Y-117488095D01*
X146404763Y-117511905D01*
X146452382Y-117535714D01*
X146547620Y-117535714D01*
X146595239Y-117511905D01*
X146619049Y-117488095D01*
X146642858Y-117440476D01*
X146857144Y-117726190D02*
X146857144Y-117226190D01*
X146976191Y-117226190D01*
X147047620Y-117250000D01*
X147095239Y-117297619D01*
X147119048Y-117345238D01*
X147142858Y-117440476D01*
X147142858Y-117511905D01*
X147119048Y-117607143D01*
X147095239Y-117654762D01*
X147047620Y-117702381D01*
X146976191Y-117726190D01*
X146857144Y-117726190D01*
X147333334Y-117702381D02*
X147404763Y-117726190D01*
X147523810Y-117726190D01*
X147571429Y-117702381D01*
X147595239Y-117678571D01*
X147619048Y-117630952D01*
X147619048Y-117583333D01*
X147595239Y-117535714D01*
X147571429Y-117511905D01*
X147523810Y-117488095D01*
X147428572Y-117464286D01*
X147380953Y-117440476D01*
X147357144Y-117416667D01*
X147333334Y-117369048D01*
X147333334Y-117321429D01*
X147357144Y-117273810D01*
X147380953Y-117250000D01*
X147428572Y-117226190D01*
X147547620Y-117226190D01*
X147619048Y-117250000D01*
X148095238Y-117726190D02*
X147809524Y-117726190D01*
X147952381Y-117726190D02*
X147952381Y-117226190D01*
X147904762Y-117297619D01*
X147857143Y-117345238D01*
X147809524Y-117369048D01*
X146370953Y-107916190D02*
X146370953Y-108320952D01*
X146394762Y-108368571D01*
X146418572Y-108392381D01*
X146466191Y-108416190D01*
X146561429Y-108416190D01*
X146609048Y-108392381D01*
X146632857Y-108368571D01*
X146656667Y-108320952D01*
X146656667Y-107916190D01*
X146870953Y-107963810D02*
X146894763Y-107940000D01*
X146942382Y-107916190D01*
X147061429Y-107916190D01*
X147109048Y-107940000D01*
X147132858Y-107963810D01*
X147156667Y-108011429D01*
X147156667Y-108059048D01*
X147132858Y-108130476D01*
X146847144Y-108416190D01*
X147156667Y-108416190D01*
X147347143Y-107963810D02*
X147370953Y-107940000D01*
X147418572Y-107916190D01*
X147537619Y-107916190D01*
X147585238Y-107940000D01*
X147609048Y-107963810D01*
X147632857Y-108011429D01*
X147632857Y-108059048D01*
X147609048Y-108130476D01*
X147323334Y-108416190D01*
X147632857Y-108416190D01*
X134485239Y-106966190D02*
X134818572Y-107466190D01*
X134818572Y-106966190D02*
X134485239Y-107466190D01*
X135270952Y-107466190D02*
X134985238Y-107466190D01*
X135128095Y-107466190D02*
X135128095Y-106966190D01*
X135080476Y-107037619D01*
X135032857Y-107085238D01*
X134985238Y-107109048D01*
X159726190Y-110869047D02*
X159226190Y-110869047D01*
X159226190Y-110750000D01*
X159250000Y-110678571D01*
X159297619Y-110630952D01*
X159345238Y-110607143D01*
X159440476Y-110583333D01*
X159511905Y-110583333D01*
X159607143Y-110607143D01*
X159654762Y-110630952D01*
X159702381Y-110678571D01*
X159726190Y-110750000D01*
X159726190Y-110869047D01*
X159273810Y-110392857D02*
X159250000Y-110369047D01*
X159226190Y-110321428D01*
X159226190Y-110202381D01*
X159250000Y-110154762D01*
X159273810Y-110130952D01*
X159321429Y-110107143D01*
X159369048Y-110107143D01*
X159440476Y-110130952D01*
X159726190Y-110416666D01*
X159726190Y-110107143D01*
X159726190Y-106869047D02*
X159226190Y-106869047D01*
X159226190Y-106750000D01*
X159250000Y-106678571D01*
X159297619Y-106630952D01*
X159345238Y-106607143D01*
X159440476Y-106583333D01*
X159511905Y-106583333D01*
X159607143Y-106607143D01*
X159654762Y-106630952D01*
X159702381Y-106678571D01*
X159726190Y-106750000D01*
X159726190Y-106869047D01*
X159226190Y-106416666D02*
X159226190Y-106107143D01*
X159416667Y-106273809D01*
X159416667Y-106202381D01*
X159440476Y-106154762D01*
X159464286Y-106130952D01*
X159511905Y-106107143D01*
X159630952Y-106107143D01*
X159678571Y-106130952D01*
X159702381Y-106154762D01*
X159726190Y-106202381D01*
X159726190Y-106345238D01*
X159702381Y-106392857D01*
X159678571Y-106416666D01*
X159726190Y-102869047D02*
X159226190Y-102869047D01*
X159226190Y-102750000D01*
X159250000Y-102678571D01*
X159297619Y-102630952D01*
X159345238Y-102607143D01*
X159440476Y-102583333D01*
X159511905Y-102583333D01*
X159607143Y-102607143D01*
X159654762Y-102630952D01*
X159702381Y-102678571D01*
X159726190Y-102750000D01*
X159726190Y-102869047D01*
X159392857Y-102154762D02*
X159726190Y-102154762D01*
X159202381Y-102273809D02*
X159559524Y-102392857D01*
X159559524Y-102083333D01*
X145414790Y-96311252D02*
X145819552Y-96311252D01*
X145867171Y-96287443D01*
X145890981Y-96263633D01*
X145914790Y-96216014D01*
X145914790Y-96120776D01*
X145890981Y-96073157D01*
X145867171Y-96049348D01*
X145819552Y-96025538D01*
X145414790Y-96025538D01*
X145914790Y-95525538D02*
X145914790Y-95811252D01*
X145914790Y-95668395D02*
X145414790Y-95668395D01*
X145486219Y-95716014D01*
X145533838Y-95763633D01*
X145557648Y-95811252D01*
X145968771Y-99403618D02*
X145992581Y-99427428D01*
X146016390Y-99498856D01*
X146016390Y-99546475D01*
X145992581Y-99617904D01*
X145944962Y-99665523D01*
X145897343Y-99689332D01*
X145802105Y-99713142D01*
X145730676Y-99713142D01*
X145635438Y-99689332D01*
X145587819Y-99665523D01*
X145540200Y-99617904D01*
X145516390Y-99546475D01*
X145516390Y-99498856D01*
X145540200Y-99427428D01*
X145564010Y-99403618D01*
X145968771Y-98903618D02*
X145992581Y-98927428D01*
X146016390Y-98998856D01*
X146016390Y-99046475D01*
X145992581Y-99117904D01*
X145944962Y-99165523D01*
X145897343Y-99189332D01*
X145802105Y-99213142D01*
X145730676Y-99213142D01*
X145635438Y-99189332D01*
X145587819Y-99165523D01*
X145540200Y-99117904D01*
X145516390Y-99046475D01*
X145516390Y-98998856D01*
X145540200Y-98927428D01*
X145564010Y-98903618D01*
X145516390Y-98736951D02*
X145516390Y-98427428D01*
X145706867Y-98594094D01*
X145706867Y-98522666D01*
X145730676Y-98475047D01*
X145754486Y-98451237D01*
X145802105Y-98427428D01*
X145921152Y-98427428D01*
X145968771Y-98451237D01*
X145992581Y-98475047D01*
X146016390Y-98522666D01*
X146016390Y-98665523D01*
X145992581Y-98713142D01*
X145968771Y-98736951D01*
X145564010Y-98236952D02*
X145540200Y-98213142D01*
X145516390Y-98165523D01*
X145516390Y-98046476D01*
X145540200Y-97998857D01*
X145564010Y-97975047D01*
X145611629Y-97951238D01*
X145659248Y-97951238D01*
X145730676Y-97975047D01*
X146016390Y-98260761D01*
X146016390Y-97951238D01*
X145516390Y-97641714D02*
X145516390Y-97594095D01*
X145540200Y-97546476D01*
X145564010Y-97522667D01*
X145611629Y-97498857D01*
X145706867Y-97475048D01*
X145825914Y-97475048D01*
X145921152Y-97498857D01*
X145968771Y-97522667D01*
X145992581Y-97546476D01*
X146016390Y-97594095D01*
X146016390Y-97641714D01*
X145992581Y-97689333D01*
X145968771Y-97713143D01*
X145921152Y-97736952D01*
X145825914Y-97760762D01*
X145706867Y-97760762D01*
X145611629Y-97736952D01*
X145564010Y-97713143D01*
X145540200Y-97689333D01*
X145516390Y-97641714D01*
X145516390Y-97165524D02*
X145516390Y-97117905D01*
X145540200Y-97070286D01*
X145564010Y-97046477D01*
X145611629Y-97022667D01*
X145706867Y-96998858D01*
X145825914Y-96998858D01*
X145921152Y-97022667D01*
X145968771Y-97046477D01*
X145992581Y-97070286D01*
X146016390Y-97117905D01*
X146016390Y-97165524D01*
X145992581Y-97213143D01*
X145968771Y-97236953D01*
X145921152Y-97260762D01*
X145825914Y-97284572D01*
X145706867Y-97284572D01*
X145611629Y-97260762D01*
X145564010Y-97236953D01*
X145540200Y-97213143D01*
X145516390Y-97165524D01*
X158384534Y-94393381D02*
X158455963Y-94417190D01*
X158575010Y-94417190D01*
X158622629Y-94393381D01*
X158646439Y-94369571D01*
X158670248Y-94321952D01*
X158670248Y-94274333D01*
X158646439Y-94226714D01*
X158622629Y-94202905D01*
X158575010Y-94179095D01*
X158479772Y-94155286D01*
X158432153Y-94131476D01*
X158408344Y-94107667D01*
X158384534Y-94060048D01*
X158384534Y-94012429D01*
X158408344Y-93964810D01*
X158432153Y-93941000D01*
X158479772Y-93917190D01*
X158598820Y-93917190D01*
X158670248Y-93941000D01*
X158836915Y-93917190D02*
X158955962Y-94417190D01*
X159051200Y-94060048D01*
X159146438Y-94417190D01*
X159265486Y-93917190D01*
X159717867Y-94417190D02*
X159432153Y-94417190D01*
X159575010Y-94417190D02*
X159575010Y-93917190D01*
X159527391Y-93988619D01*
X159479772Y-94036238D01*
X159432153Y-94060048D01*
M02*
