EESchema Schematic File Version 2
LIBS:power
LIBS:device
LIBS:transistors
LIBS:conn
LIBS:linear
LIBS:regul
LIBS:74xx
LIBS:cmos4000
LIBS:adc-dac
LIBS:memory
LIBS:xilinx
LIBS:special
LIBS:microcontrollers
LIBS:dsp
LIBS:microchip
LIBS:analog_switches
LIBS:motorola
LIBS:texas
LIBS:intel
LIBS:audio
LIBS:interface
LIBS:digital-audio
LIBS:philips
LIBS:display
LIBS:cypress
LIBS:siliconi
LIBS:opto
LIBS:atmel
LIBS:contrib
LIBS:valves
LIBS:cc3200_quad
LIBS:dips-s
LIBS:cc3200_quad-cache
EELAYER 25 0
EELAYER END
$Descr A4 11693 8268
encoding utf-8
Sheet 4 6
Title ""
Date ""
Rev ""
Comp ""
Comment1 ""
Comment2 ""
Comment3 ""
Comment4 ""
$EndDescr
$Comp
L LSM9DS1 U21
U 1 1 55248AFD
P 5650 3100
F 0 "U21" H 6100 2450 60  0000 C CNN
F 1 "LSM9DS1" H 5050 2850 60  0000 C CNN
F 2 "cc3200_quad_footprints:LSM9DS1" H 5650 3100 60  0001 C CNN
F 3 "" H 5650 3100 60  0000 C CNN
	1    5650 3100
	1    0    0    -1  
$EndComp
$Comp
L GND #PWR093
U 1 1 55248B33
P 6350 3400
F 0 "#PWR093" H 6350 3400 30  0001 C CNN
F 1 "GND" H 6350 3330 30  0001 C CNN
F 2 "" H 6350 3400 60  0000 C CNN
F 3 "" H 6350 3400 60  0000 C CNN
	1    6350 3400
	1    0    0    -1  
$EndComp
Wire Wire Line
	5800 2400 5800 2250
Wire Wire Line
	5800 2250 6350 2250
Wire Wire Line
	6350 2250 6350 3400
Wire Wire Line
	5900 2400 5900 2250
Connection ~ 5900 2250
Wire Wire Line
	6000 2250 6000 2400
Connection ~ 6000 2250
Wire Wire Line
	6250 2950 6350 2950
Connection ~ 6350 2950
Wire Wire Line
	6250 3050 6350 3050
Connection ~ 6350 3050
Wire Wire Line
	6250 3150 6350 3150
Connection ~ 6350 3150
Wire Wire Line
	6250 3250 6350 3250
Connection ~ 6350 3250
$Comp
L C C40
U 1 1 55248D9F
P 5500 1900
F 0 "C40" H 5500 2000 40  0000 L CNN
F 1 "10uF" H 5506 1815 40  0000 L CNN
F 2 "Capacitors_SMD:C_0603" H 5538 1750 30  0001 C CNN
F 3 "" H 5500 1900 60  0000 C CNN
	1    5500 1900
	1    0    0    -1  
$EndComp
$Comp
L C C39
U 1 1 55248DCA
P 5300 1900
F 0 "C39" H 5300 2000 40  0000 L CNN
F 1 "0.1uF" H 5306 1815 40  0000 L CNN
F 2 "Capacitors_SMD:C_0402" H 5338 1750 30  0001 C CNN
F 3 "" H 5300 1900 60  0000 C CNN
	1    5300 1900
	1    0    0    -1  
$EndComp
$Comp
L GND #PWR094
U 1 1 55248E39
P 5300 2100
F 0 "#PWR094" H 5300 2100 30  0001 C CNN
F 1 "GND" H 5300 2030 30  0001 C CNN
F 2 "" H 5300 2100 60  0000 C CNN
F 3 "" H 5300 2100 60  0000 C CNN
	1    5300 2100
	1    0    0    -1  
$EndComp
$Comp
L GND #PWR095
U 1 1 55248E4E
P 5500 2100
F 0 "#PWR095" H 5500 2100 30  0001 C CNN
F 1 "GND" H 5500 2030 30  0001 C CNN
F 2 "" H 5500 2100 60  0000 C CNN
F 3 "" H 5500 2100 60  0000 C CNN
	1    5500 2100
	1    0    0    -1  
$EndComp
Wire Wire Line
	5600 2400 5600 2150
Wire Wire Line
	5600 2150 5700 2150
Wire Wire Line
	5700 2150 5700 1500
Wire Wire Line
	5300 1500 5300 1700
Wire Wire Line
	5500 2400 5600 2400
$Comp
L C C41
U 1 1 55248EDA
P 6100 1950
F 0 "C41" H 6100 2050 40  0000 L CNN
F 1 "10000pF" V 5950 1850 40  0000 L CNN
F 2 "Capacitors_SMD:C_0402" H 6138 1800 30  0001 C CNN
F 3 "" H 6100 1950 60  0000 C CNN
	1    6100 1950
	0    1    1    0   
$EndComp
$Comp
L GND #PWR096
U 1 1 55248F46
P 6350 2000
F 0 "#PWR096" H 6350 2000 30  0001 C CNN
F 1 "GND" H 6350 1930 30  0001 C CNN
F 2 "" H 6350 2000 60  0000 C CNN
F 3 "" H 6350 2000 60  0000 C CNN
	1    6350 2000
	1    0    0    -1  
$EndComp
Wire Wire Line
	5700 2400 5700 2200
Wire Wire Line
	5700 2200 5800 2200
Wire Wire Line
	5800 2200 5800 1950
Wire Wire Line
	5800 1950 5900 1950
Wire Wire Line
	6300 1950 6350 1950
Wire Wire Line
	6350 1950 6350 2000
$Comp
L C C38
U 1 1 552491A3
P 4950 2200
F 0 "C38" H 4950 2300 40  0000 L CNN
F 1 "0.1uF" H 4956 2115 40  0000 L CNN
F 2 "Capacitors_SMD:C_0402" H 4988 2050 30  0001 C CNN
F 3 "" H 4950 2200 60  0000 C CNN
	1    4950 2200
	0    1    1    0   
$EndComp
$Comp
L GND #PWR097
U 1 1 552491E8
P 4700 2250
F 0 "#PWR097" H 4700 2250 30  0001 C CNN
F 1 "GND" H 4700 2180 30  0001 C CNN
F 2 "" H 4700 2250 60  0000 C CNN
F 3 "" H 4700 2250 60  0000 C CNN
	1    4700 2250
	1    0    0    -1  
$EndComp
Wire Wire Line
	4700 2250 4700 2200
Wire Wire Line
	4700 2200 4750 2200
Wire Wire Line
	5150 2200 5400 2200
Wire Wire Line
	5400 2200 5400 2400
$Comp
L C C37
U 1 1 5524924C
P 4350 2500
F 0 "C37" H 4350 2600 40  0000 L CNN
F 1 "0.1uF" H 4356 2415 40  0000 L CNN
F 2 "Capacitors_SMD:C_0402" H 4388 2350 30  0001 C CNN
F 3 "" H 4350 2500 60  0000 C CNN
	1    4350 2500
	-1   0    0    1   
$EndComp
Wire Wire Line
	4350 2250 4350 2300
Wire Wire Line
	4350 2300 4500 2300
Wire Wire Line
	4500 2300 4500 3050
Wire Wire Line
	4500 2400 5300 2400
Wire Wire Line
	4500 3050 5050 3050
Connection ~ 4500 2400
$Comp
L GND #PWR098
U 1 1 5524934E
P 4350 2750
F 0 "#PWR098" H 4350 2750 30  0001 C CNN
F 1 "GND" H 4350 2680 30  0001 C CNN
F 2 "" H 4350 2750 60  0000 C CNN
F 3 "" H 4350 2750 60  0000 C CNN
	1    4350 2750
	1    0    0    -1  
$EndComp
Wire Wire Line
	4350 2750 4350 2700
Text HLabel 3450 2950 0    60   Input ~ 0
SCL_IN
Wire Wire Line
	3450 2950 5050 2950
$Comp
L GND #PWR099
U 1 1 5524D5D3
P 4950 4000
F 0 "#PWR099" H 4950 4000 30  0001 C CNN
F 1 "GND" H 4950 3930 30  0001 C CNN
F 2 "" H 4950 4000 60  0000 C CNN
F 3 "" H 4950 4000 60  0000 C CNN
	1    4950 4000
	1    0    0    -1  
$EndComp
Wire Wire Line
	5050 3250 4950 3250
Wire Wire Line
	4950 3250 4950 4000
Wire Wire Line
	5300 3900 5300 3950
Wire Wire Line
	5300 3950 4950 3950
Connection ~ 4950 3950
Text Notes 4050 4150 0    60   ~ 0
least significant bits are 0s
Text HLabel 3450 3150 0    60   Input ~ 0
SDA_IN
Wire Wire Line
	5050 3150 3450 3150
Wire Wire Line
	5250 4350 5250 4400
Wire Wire Line
	5250 4400 6000 4400
Wire Wire Line
	5400 4400 5400 3900
Wire Wire Line
	5500 4400 5500 3900
Connection ~ 5400 4400
Text Notes 5150 4500 0    60   ~ 0
select I2C
Wire Wire Line
	6000 4400 6000 3900
Connection ~ 5500 4400
NoConn ~ 5600 3900
NoConn ~ 5700 3900
NoConn ~ 5800 3900
NoConn ~ 5900 3900
$Comp
L +3.3V #PWR0100
U 1 1 5524E5B3
P 5500 1450
F 0 "#PWR0100" H 5500 1410 30  0001 C CNN
F 1 "+3.3V" H 5500 1560 30  0000 C CNN
F 2 "" H 5500 1450 60  0000 C CNN
F 3 "" H 5500 1450 60  0000 C CNN
	1    5500 1450
	1    0    0    -1  
$EndComp
Wire Wire Line
	5700 1500 5300 1500
Wire Wire Line
	5500 1450 5500 1700
Connection ~ 5500 1500
$Comp
L +3.3V #PWR0101
U 1 1 5524E95C
P 4350 2250
F 0 "#PWR0101" H 4350 2210 30  0001 C CNN
F 1 "+3.3V" H 4350 2360 30  0000 C CNN
F 2 "" H 4350 2250 60  0000 C CNN
F 3 "" H 4350 2250 60  0000 C CNN
	1    4350 2250
	1    0    0    -1  
$EndComp
$Comp
L +3.3V #PWR0102
U 1 1 5524EBDB
P 5250 4350
F 0 "#PWR0102" H 5250 4310 30  0001 C CNN
F 1 "+3.3V" H 5250 4460 30  0000 C CNN
F 2 "" H 5250 4350 60  0000 C CNN
F 3 "" H 5250 4350 60  0000 C CNN
	1    5250 4350
	1    0    0    -1  
$EndComp
$Comp
L +3.3V #PWR0103
U 1 1 5524F096
P 3750 2400
F 0 "#PWR0103" H 3750 2360 30  0001 C CNN
F 1 "+3.3V" H 3750 2510 30  0000 C CNN
F 2 "" H 3750 2400 60  0000 C CNN
F 3 "" H 3750 2400 60  0000 C CNN
	1    3750 2400
	1    0    0    -1  
$EndComp
$Comp
L +3.3V #PWR0104
U 1 1 5524F083
P 3950 2400
F 0 "#PWR0104" H 3950 2360 30  0001 C CNN
F 1 "+3.3V" H 3950 2510 30  0000 C CNN
F 2 "" H 3950 2400 60  0000 C CNN
F 3 "" H 3950 2400 60  0000 C CNN
	1    3950 2400
	1    0    0    -1  
$EndComp
Connection ~ 3750 3150
Connection ~ 3950 2950
Wire Wire Line
	3750 2900 3750 3150
Wire Wire Line
	3950 2950 3950 2900
$Comp
L R R34
U 1 1 5524D4B7
P 3750 2650
F 0 "R34" V 3830 2650 40  0000 C CNN
F 1 "3.3k" V 3757 2651 40  0000 C CNN
F 2 "Resistors_SMD:R_0402" V 3680 2650 30  0001 C CNN
F 3 "" H 3750 2650 30  0000 C CNN
	1    3750 2650
	1    0    0    -1  
$EndComp
$Comp
L R R35
U 1 1 5524D3DD
P 3950 2650
F 0 "R35" V 4030 2650 40  0000 C CNN
F 1 "3.3k" V 3957 2651 40  0000 C CNN
F 2 "Resistors_SMD:R_0402" V 3880 2650 30  0001 C CNN
F 3 "" H 3950 2650 30  0000 C CNN
	1    3950 2650
	1    0    0    -1  
$EndComp
Text Notes 3700 2200 0    60   ~ 0
optional
$EndSCHEMATC
