EESchema Schematic File Version 2
LIBS:power
LIBS:device
LIBS:transistors
LIBS:conn
LIBS:linear
LIBS:regul
LIBS:74xx
LIBS:cmos4000
LIBS:adc-dac
LIBS:memory
LIBS:xilinx
LIBS:special
LIBS:microcontrollers
LIBS:dsp
LIBS:microchip
LIBS:analog_switches
LIBS:motorola
LIBS:texas
LIBS:intel
LIBS:audio
LIBS:interface
LIBS:digital-audio
LIBS:philips
LIBS:display
LIBS:cypress
LIBS:siliconi
LIBS:opto
LIBS:atmel
LIBS:contrib
LIBS:valves
LIBS:cc3200_quad
LIBS:dips-s
LIBS:cc3200_quad-cache
EELAYER 25 0
EELAYER END
$Descr A4 11693 8268
encoding utf-8
Sheet 2 6
Title ""
Date ""
Rev ""
Comp ""
Comment1 ""
Comment2 ""
Comment3 ""
Comment4 ""
$EndDescr
$Comp
L MT9D111_FLEXI U18
U 1 1 55221B4A
P 9600 2600
F 0 "U18" H 9600 2400 60  0000 C CNN
F 1 "MT9D111_FLEXI" H 9650 2100 60  0000 C CNN
F 2 "cc3200_quad_footprints:WP3-S024VA1-R500" H 9600 2400 60  0001 C CNN
F 3 "" H 9600 2400 60  0000 C CNN
	1    9600 2600
	1    0    0    -1  
$EndComp
$Comp
L SN74LVC2T45DCTR U15
U 1 1 55221DF6
P 4150 2950
F 0 "U15" H 4150 3200 60  0000 C CNN
F 1 "SN74LVC2T45DCTR" H 4200 2700 60  0000 C CNN
F 2 "Housings_SSOP:MSOP-8_3x3mm_Pitch0.65mm" H 4150 2950 60  0001 C CNN
F 3 "" H 4150 2950 60  0000 C CNN
	1    4150 2950
	1    0    0    -1  
$EndComp
$Comp
L TPS79301DBVR U16
U 1 1 55221E49
P 5750 3900
F 0 "U16" H 5750 4100 60  0000 C CNN
F 1 "TPS79301DBVR" H 5800 3700 60  0000 C CNN
F 2 "Housings_SOT-23_SOT-143_TSOT-6:SOT-23-6" H 5750 3900 60  0001 C CNN
F 3 "" H 5750 3900 60  0000 C CNN
	1    5750 3900
	1    0    0    -1  
$EndComp
$Comp
L R R24
U 1 1 55222138
P 3950 2550
F 0 "R24" V 4030 2550 40  0000 C CNN
F 1 "10k" V 3957 2551 40  0000 C CNN
F 2 "Resistors_SMD:R_0402" V 3880 2550 30  0001 C CNN
F 3 "" H 3950 2550 30  0000 C CNN
	1    3950 2550
	0    1    1    0   
$EndComp
Wire Wire Line
	3700 2800 3700 2550
Wire Wire Line
	4200 2550 4600 2550
Wire Wire Line
	4600 2500 4600 2800
Connection ~ 4600 2550
Text HLabel 3250 2550 0    60   Input ~ 0
GPIO_11_IN
Text HLabel 3250 2650 0    60   Input ~ 0
GPIO_02_IN
Wire Wire Line
	3700 2900 3650 2900
Wire Wire Line
	3650 2900 3650 2550
Wire Wire Line
	3650 2550 3250 2550
Wire Wire Line
	3250 2650 3600 2650
Wire Wire Line
	3600 2650 3600 3000
Wire Wire Line
	3600 3000 3700 3000
$Comp
L R R22
U 1 1 55222638
P 3300 3000
F 0 "R22" V 3380 3000 40  0000 C CNN
F 1 "10k" V 3307 3001 40  0000 C CNN
F 2 "Resistors_SMD:R_0402" V 3230 3000 30  0001 C CNN
F 3 "" H 3300 3000 30  0000 C CNN
	1    3300 3000
	-1   0    0    1   
$EndComp
$Comp
L R R23
U 1 1 55222698
P 3450 3000
F 0 "R23" V 3530 3000 40  0000 C CNN
F 1 "10k" V 3457 3001 40  0000 C CNN
F 2 "Resistors_SMD:R_0402" V 3380 3000 30  0001 C CNN
F 3 "" H 3450 3000 30  0000 C CNN
	1    3450 3000
	-1   0    0    1   
$EndComp
$Comp
L GND #PWR060
U 1 1 552226B4
P 3300 3300
F 0 "#PWR060" H 3300 3300 30  0001 C CNN
F 1 "GND" H 3300 3230 30  0001 C CNN
F 2 "" H 3300 3300 60  0000 C CNN
F 3 "" H 3300 3300 60  0000 C CNN
	1    3300 3300
	1    0    0    -1  
$EndComp
$Comp
L GND #PWR061
U 1 1 552226CD
P 3450 3300
F 0 "#PWR061" H 3450 3300 30  0001 C CNN
F 1 "GND" H 3450 3230 30  0001 C CNN
F 2 "" H 3450 3300 60  0000 C CNN
F 3 "" H 3450 3300 60  0000 C CNN
	1    3450 3300
	1    0    0    -1  
$EndComp
$Comp
L GND #PWR062
U 1 1 552226DF
P 3700 3150
F 0 "#PWR062" H 3700 3150 30  0001 C CNN
F 1 "GND" H 3700 3080 30  0001 C CNN
F 2 "" H 3700 3150 60  0000 C CNN
F 3 "" H 3700 3150 60  0000 C CNN
	1    3700 3150
	1    0    0    -1  
$EndComp
Wire Wire Line
	3300 2750 3300 2650
Connection ~ 3300 2650
Wire Wire Line
	3450 2750 3450 2550
Connection ~ 3450 2550
Wire Wire Line
	3300 3250 3300 3300
Wire Wire Line
	3450 3250 3450 3300
Wire Wire Line
	3700 3100 3700 3150
$Comp
L VDD #PWR063
U 1 1 552229AC
P 4750 2850
F 0 "#PWR063" H 4750 2950 30  0001 C CNN
F 1 "VDD" H 4750 2960 30  0000 C CNN
F 2 "" H 4750 2850 60  0000 C CNN
F 3 "" H 4750 2850 60  0000 C CNN
	1    4750 2850
	1    0    0    -1  
$EndComp
Wire Wire Line
	4600 2900 4750 2900
Wire Wire Line
	4750 2900 4750 2850
Text Notes 3450 2350 0    60   ~ 0
this VCC only applies to within this hierarchical sheet. It should be at 3.3V
Text Notes 4750 2650 0    60   ~ 0
VDD is 2.8V as result of LDO
$Comp
L R R25
U 1 1 55222B49
P 4950 3000
F 0 "R25" V 5030 3000 40  0000 C CNN
F 1 "33" V 4957 3001 40  0000 C CNN
F 2 "Resistors_SMD:R_0402" V 4880 3000 30  0001 C CNN
F 3 "" H 4950 3000 30  0000 C CNN
	1    4950 3000
	0    1    1    0   
$EndComp
$Comp
L R R26
U 1 1 55222B80
P 4950 3150
F 0 "R26" V 5030 3150 40  0000 C CNN
F 1 "33" V 4957 3151 40  0000 C CNN
F 2 "Resistors_SMD:R_0402" V 4880 3150 30  0001 C CNN
F 3 "" H 4950 3150 30  0000 C CNN
	1    4950 3150
	0    1    1    0   
$EndComp
Wire Wire Line
	4600 3100 4650 3100
Wire Wire Line
	4650 3100 4650 3150
Wire Wire Line
	4650 3150 4700 3150
Wire Wire Line
	4600 3000 4700 3000
$Comp
L C C25
U 1 1 55222DCB
P 5100 4000
F 0 "C25" H 5100 4100 40  0000 L CNN
F 1 "2.2uF" H 5106 3915 40  0000 L CNN
F 2 "Capacitors_SMD:C_0402" H 5138 3850 30  0001 C CNN
F 3 "" H 5100 4000 60  0000 C CNN
	1    5100 4000
	1    0    0    -1  
$EndComp
$Comp
L C C27
U 1 1 55222E11
P 6250 4200
F 0 "C27" H 6250 4300 40  0000 L CNN
F 1 "0.1uF" H 6256 4115 40  0000 L CNN
F 2 "Capacitors_SMD:C_0402" H 6288 4050 30  0001 C CNN
F 3 "" H 6250 4200 60  0000 C CNN
	1    6250 4200
	1    0    0    -1  
$EndComp
$Comp
L C C29
U 1 1 55222E7B
P 6450 3850
F 0 "C29" H 6450 3950 40  0000 L CNN
F 1 "22pF" H 6456 3765 40  0000 L CNN
F 2 "Capacitors_SMD:C_0402" H 6488 3700 30  0001 C CNN
F 3 "" H 6450 3850 60  0000 C CNN
	1    6450 3850
	1    0    0    -1  
$EndComp
$Comp
L C C31
U 1 1 55222EC4
P 6950 3850
F 0 "C31" H 6950 3950 40  0000 L CNN
F 1 "2.2uF" H 6956 3765 40  0000 L CNN
F 2 "Capacitors_SMD:C_0402" H 6988 3700 30  0001 C CNN
F 3 "" H 6950 3850 60  0000 C CNN
	1    6950 3850
	1    0    0    -1  
$EndComp
$Comp
L R R27
U 1 1 55222EEE
P 6700 3900
F 0 "R27" V 6780 3900 40  0000 C CNN
F 1 "39k" V 6707 3901 40  0000 C CNN
F 2 "Resistors_SMD:R_0402" V 6630 3900 30  0001 C CNN
F 3 "" H 6700 3900 30  0000 C CNN
	1    6700 3900
	1    0    0    -1  
$EndComp
$Comp
L R R28
U 1 1 55222F40
P 6700 4400
F 0 "R28" V 6780 4400 40  0000 C CNN
F 1 "30.1k" V 6707 4401 40  0000 C CNN
F 2 "Resistors_SMD:R_0402" V 6630 4400 30  0001 C CNN
F 3 "" H 6700 4400 30  0000 C CNN
	1    6700 4400
	1    0    0    -1  
$EndComp
Wire Wire Line
	5100 3800 5350 3800
Wire Wire Line
	5200 4000 5350 4000
Wire Wire Line
	5200 3700 5200 4000
Connection ~ 5200 3800
Wire Wire Line
	5350 3900 5300 3900
Wire Wire Line
	5300 3900 5300 4200
$Comp
L GND #PWR064
U 1 1 5522301F
P 5100 4200
F 0 "#PWR064" H 5100 4200 30  0001 C CNN
F 1 "GND" H 5100 4130 30  0001 C CNN
F 2 "" H 5100 4200 60  0000 C CNN
F 3 "" H 5100 4200 60  0000 C CNN
	1    5100 4200
	1    0    0    -1  
$EndComp
$Comp
L GND #PWR065
U 1 1 5522303F
P 5300 4200
F 0 "#PWR065" H 5300 4200 30  0001 C CNN
F 1 "GND" H 5300 4130 30  0001 C CNN
F 2 "" H 5300 4200 60  0000 C CNN
F 3 "" H 5300 4200 60  0000 C CNN
	1    5300 4200
	1    0    0    -1  
$EndComp
Wire Wire Line
	6150 4000 6250 4000
$Comp
L GND #PWR066
U 1 1 552230A2
P 6250 4400
F 0 "#PWR066" H 6250 4400 30  0001 C CNN
F 1 "GND" H 6250 4330 30  0001 C CNN
F 2 "" H 6250 4400 60  0000 C CNN
F 3 "" H 6250 4400 60  0000 C CNN
	1    6250 4400
	1    0    0    -1  
$EndComp
$Comp
L GND #PWR067
U 1 1 552230BB
P 6700 4650
F 0 "#PWR067" H 6700 4650 30  0001 C CNN
F 1 "GND" H 6700 4580 30  0001 C CNN
F 2 "" H 6700 4650 60  0000 C CNN
F 3 "" H 6700 4650 60  0000 C CNN
	1    6700 4650
	1    0    0    -1  
$EndComp
$Comp
L GND #PWR068
U 1 1 552230D4
P 6950 4050
F 0 "#PWR068" H 6950 4050 30  0001 C CNN
F 1 "GND" H 6950 3980 30  0001 C CNN
F 2 "" H 6950 4050 60  0000 C CNN
F 3 "" H 6950 4050 60  0000 C CNN
	1    6950 4050
	1    0    0    -1  
$EndComp
Wire Wire Line
	6150 3800 6250 3800
Wire Wire Line
	6250 3800 6250 3650
Wire Wire Line
	6250 3650 6950 3650
Connection ~ 6700 3650
Connection ~ 6450 3650
Wire Wire Line
	6450 4050 6450 4150
Wire Wire Line
	6450 4150 6700 4150
Wire Wire Line
	6150 3900 6250 3900
Wire Wire Line
	6250 3900 6250 3950
Wire Wire Line
	6250 3950 6350 3950
Wire Wire Line
	6350 3950 6350 4050
Wire Wire Line
	6350 4050 6450 4050
Wire Wire Line
	6950 3650 6950 3550
$Comp
L VDD #PWR069
U 1 1 552239DE
P 6950 3550
F 0 "#PWR069" H 6950 3650 30  0001 C CNN
F 1 "VDD" H 6950 3660 30  0000 C CNN
F 2 "" H 6950 3550 60  0000 C CNN
F 3 "" H 6950 3550 60  0000 C CNN
	1    6950 3550
	1    0    0    -1  
$EndComp
$Comp
L TPS79301DBVR U17
U 1 1 55223F4C
P 5750 5250
F 0 "U17" H 5750 5450 60  0000 C CNN
F 1 "TPS79301DBVR" H 5800 5050 60  0000 C CNN
F 2 "Housings_SOT-23_SOT-143_TSOT-6:SOT-23-6" H 5750 5250 60  0001 C CNN
F 3 "" H 5750 5250 60  0000 C CNN
	1    5750 5250
	1    0    0    -1  
$EndComp
$Comp
L C C26
U 1 1 55223F52
P 5100 5350
F 0 "C26" H 5100 5450 40  0000 L CNN
F 1 "2.2uF" H 5106 5265 40  0000 L CNN
F 2 "Capacitors_SMD:C_0402" H 5138 5200 30  0001 C CNN
F 3 "" H 5100 5350 60  0000 C CNN
	1    5100 5350
	1    0    0    -1  
$EndComp
$Comp
L C C28
U 1 1 55223F58
P 6250 5550
F 0 "C28" H 6250 5650 40  0000 L CNN
F 1 "0.1uF" H 6256 5465 40  0000 L CNN
F 2 "Capacitors_SMD:C_0402" H 6288 5400 30  0001 C CNN
F 3 "" H 6250 5550 60  0000 C CNN
	1    6250 5550
	1    0    0    -1  
$EndComp
$Comp
L C C30
U 1 1 55223F5E
P 6450 5200
F 0 "C30" H 6450 5300 40  0000 L CNN
F 1 "22pF" H 6456 5115 40  0000 L CNN
F 2 "Capacitors_SMD:C_0402" H 6488 5050 30  0001 C CNN
F 3 "" H 6450 5200 60  0000 C CNN
	1    6450 5200
	1    0    0    -1  
$EndComp
$Comp
L C C32
U 1 1 55223F64
P 6950 5200
F 0 "C32" H 6950 5300 40  0000 L CNN
F 1 "2.2uF" H 6956 5115 40  0000 L CNN
F 2 "Capacitors_SMD:C_0402" H 6988 5050 30  0001 C CNN
F 3 "" H 6950 5200 60  0000 C CNN
	1    6950 5200
	1    0    0    -1  
$EndComp
$Comp
L R R29
U 1 1 55223F6A
P 6700 5250
F 0 "R29" V 6780 5250 40  0000 C CNN
F 1 "15k" V 6707 5251 40  0000 C CNN
F 2 "Resistors_SMD:R_0402" V 6630 5250 30  0001 C CNN
F 3 "" H 6700 5250 30  0000 C CNN
	1    6700 5250
	1    0    0    -1  
$EndComp
$Comp
L R R30
U 1 1 55223F70
P 6700 5750
F 0 "R30" V 6780 5750 40  0000 C CNN
F 1 "30.1k" V 6707 5751 40  0000 C CNN
F 2 "Resistors_SMD:R_0402" V 6630 5750 30  0001 C CNN
F 3 "" H 6700 5750 30  0000 C CNN
	1    6700 5750
	1    0    0    -1  
$EndComp
Wire Wire Line
	5100 5150 5350 5150
Wire Wire Line
	5200 5350 5350 5350
Wire Wire Line
	5200 5050 5200 5350
Connection ~ 5200 5150
Wire Wire Line
	5350 5250 5300 5250
Wire Wire Line
	5300 5250 5300 5550
$Comp
L GND #PWR070
U 1 1 55223F7C
P 5100 5550
F 0 "#PWR070" H 5100 5550 30  0001 C CNN
F 1 "GND" H 5100 5480 30  0001 C CNN
F 2 "" H 5100 5550 60  0000 C CNN
F 3 "" H 5100 5550 60  0000 C CNN
	1    5100 5550
	1    0    0    -1  
$EndComp
$Comp
L GND #PWR071
U 1 1 55223F82
P 5300 5550
F 0 "#PWR071" H 5300 5550 30  0001 C CNN
F 1 "GND" H 5300 5480 30  0001 C CNN
F 2 "" H 5300 5550 60  0000 C CNN
F 3 "" H 5300 5550 60  0000 C CNN
	1    5300 5550
	1    0    0    -1  
$EndComp
Wire Wire Line
	6150 5350 6250 5350
$Comp
L GND #PWR072
U 1 1 55223F89
P 6250 5750
F 0 "#PWR072" H 6250 5750 30  0001 C CNN
F 1 "GND" H 6250 5680 30  0001 C CNN
F 2 "" H 6250 5750 60  0000 C CNN
F 3 "" H 6250 5750 60  0000 C CNN
	1    6250 5750
	1    0    0    -1  
$EndComp
$Comp
L GND #PWR073
U 1 1 55223F8F
P 6700 6000
F 0 "#PWR073" H 6700 6000 30  0001 C CNN
F 1 "GND" H 6700 5930 30  0001 C CNN
F 2 "" H 6700 6000 60  0000 C CNN
F 3 "" H 6700 6000 60  0000 C CNN
	1    6700 6000
	1    0    0    -1  
$EndComp
$Comp
L GND #PWR074
U 1 1 55223F95
P 6950 5400
F 0 "#PWR074" H 6950 5400 30  0001 C CNN
F 1 "GND" H 6950 5330 30  0001 C CNN
F 2 "" H 6950 5400 60  0000 C CNN
F 3 "" H 6950 5400 60  0000 C CNN
	1    6950 5400
	1    0    0    -1  
$EndComp
Wire Wire Line
	6150 5150 6250 5150
Wire Wire Line
	6250 5150 6250 5000
Wire Wire Line
	6250 5000 6950 5000
Connection ~ 6700 5000
Connection ~ 6450 5000
Wire Wire Line
	6450 5400 6450 5500
Wire Wire Line
	6450 5500 6700 5500
Wire Wire Line
	6150 5250 6250 5250
Wire Wire Line
	6250 5250 6250 5300
Wire Wire Line
	6250 5300 6350 5300
Wire Wire Line
	6350 5300 6350 5400
Wire Wire Line
	6350 5400 6450 5400
Wire Wire Line
	6950 5000 6950 4900
$Comp
L +1.8V #PWR075
U 1 1 55224183
P 6950 4900
F 0 "#PWR075" H 6950 5040 20  0001 C CNN
F 1 "+1.8V" H 6950 5010 30  0000 C CNN
F 2 "" H 6950 4900 60  0000 C CNN
F 3 "" H 6950 4900 60  0000 C CNN
	1    6950 4900
	1    0    0    -1  
$EndComp
$Comp
L C C35
U 1 1 5522438C
P 8450 1300
F 0 "C35" H 8450 1400 40  0000 L CNN
F 1 "0.1uF" H 8456 1215 40  0000 L CNN
F 2 "Capacitors_SMD:C_0402" H 8488 1150 30  0001 C CNN
F 3 "" H 8450 1300 60  0000 C CNN
	1    8450 1300
	1    0    0    -1  
$EndComp
$Comp
L C C34
U 1 1 55224642
P 8200 1300
F 0 "C34" H 8200 1400 40  0000 L CNN
F 1 "0.1uF" H 8206 1215 40  0000 L CNN
F 2 "Capacitors_SMD:C_0402" H 8238 1150 30  0001 C CNN
F 3 "" H 8200 1300 60  0000 C CNN
	1    8200 1300
	1    0    0    -1  
$EndComp
$Comp
L C C33
U 1 1 55224677
P 7950 1300
F 0 "C33" H 7950 1400 40  0000 L CNN
F 1 "0.1uF" H 7956 1215 40  0000 L CNN
F 2 "Capacitors_SMD:C_0402" H 7988 1150 30  0001 C CNN
F 3 "" H 7950 1300 60  0000 C CNN
	1    7950 1300
	1    0    0    -1  
$EndComp
$Comp
L R R33
U 1 1 5522485D
P 8650 4000
F 0 "R33" V 8730 4000 40  0000 C CNN
F 1 "10k" V 8657 4001 40  0000 C CNN
F 2 "Resistors_SMD:R_0402" V 8580 4000 30  0001 C CNN
F 3 "" H 8650 4000 30  0000 C CNN
	1    8650 4000
	-1   0    0    1   
$EndComp
$Comp
L VDD #PWR076
U 1 1 55224CC6
P 8450 1050
F 0 "#PWR076" H 8450 1150 30  0001 C CNN
F 1 "VDD" H 8450 1160 30  0000 C CNN
F 2 "" H 8450 1050 60  0000 C CNN
F 3 "" H 8450 1050 60  0000 C CNN
	1    8450 1050
	1    0    0    -1  
$EndComp
$Comp
L GND #PWR077
U 1 1 55224CDA
P 8200 1500
F 0 "#PWR077" H 8200 1500 30  0001 C CNN
F 1 "GND" H 8200 1430 30  0001 C CNN
F 2 "" H 8200 1500 60  0000 C CNN
F 3 "" H 8200 1500 60  0000 C CNN
	1    8200 1500
	1    0    0    -1  
$EndComp
$Comp
L GND #PWR078
U 1 1 55224D05
P 8450 1500
F 0 "#PWR078" H 8450 1500 30  0001 C CNN
F 1 "GND" H 8450 1430 30  0001 C CNN
F 2 "" H 8450 1500 60  0000 C CNN
F 3 "" H 8450 1500 60  0000 C CNN
	1    8450 1500
	1    0    0    -1  
$EndComp
Wire Wire Line
	8450 1100 8450 1050
Wire Wire Line
	8200 1100 8200 1050
Wire Wire Line
	8200 1050 8750 1050
Wire Wire Line
	8750 1050 8750 1550
Wire Wire Line
	8750 1250 8900 1250
Connection ~ 8450 1050
Wire Wire Line
	8750 1550 8900 1550
Connection ~ 8750 1250
$Comp
L +1.8V #PWR079
U 1 1 55224F12
P 7950 1100
F 0 "#PWR079" H 7950 1240 20  0001 C CNN
F 1 "+1.8V" H 7950 1210 30  0000 C CNN
F 2 "" H 7950 1100 60  0000 C CNN
F 3 "" H 7950 1100 60  0000 C CNN
	1    7950 1100
	1    0    0    -1  
$EndComp
$Comp
L GND #PWR080
U 1 1 55224F26
P 7950 1500
F 0 "#PWR080" H 7950 1500 30  0001 C CNN
F 1 "GND" H 7950 1430 30  0001 C CNN
F 2 "" H 7950 1500 60  0000 C CNN
F 3 "" H 7950 1500 60  0000 C CNN
	1    7950 1500
	1    0    0    -1  
$EndComp
Wire Wire Line
	7950 1100 8100 1100
Wire Wire Line
	8100 1100 8100 1600
Wire Wire Line
	8100 1600 8650 1600
Wire Wire Line
	8650 1600 8650 1400
Wire Wire Line
	8650 1400 8900 1400
$Comp
L GND #PWR081
U 1 1 55225117
P 10400 2900
F 0 "#PWR081" H 10400 2900 30  0001 C CNN
F 1 "GND" H 10400 2830 30  0001 C CNN
F 2 "" H 10400 2900 60  0000 C CNN
F 3 "" H 10400 2900 60  0000 C CNN
	1    10400 2900
	1    0    0    -1  
$EndComp
Wire Wire Line
	10300 2850 10400 2850
Wire Wire Line
	10400 2350 10400 2900
Wire Wire Line
	10300 2700 10400 2700
Connection ~ 10400 2850
Wire Wire Line
	10300 2500 10400 2500
Connection ~ 10400 2700
Wire Wire Line
	10300 2350 10400 2350
Connection ~ 10400 2500
$Comp
L GND #PWR082
U 1 1 5522533E
P 8800 4050
F 0 "#PWR082" H 8800 4050 30  0001 C CNN
F 1 "GND" H 8800 3980 30  0001 C CNN
F 2 "" H 8800 4050 60  0000 C CNN
F 3 "" H 8800 4050 60  0000 C CNN
	1    8800 4050
	1    0    0    -1  
$EndComp
Wire Wire Line
	8900 3850 8800 3850
Wire Wire Line
	8800 3850 8800 4050
Wire Wire Line
	8900 3950 8800 3950
Connection ~ 8800 3950
$Comp
L GND #PWR083
U 1 1 55225435
P 8650 4300
F 0 "#PWR083" H 8650 4300 30  0001 C CNN
F 1 "GND" H 8650 4230 30  0001 C CNN
F 2 "" H 8650 4300 60  0000 C CNN
F 3 "" H 8650 4300 60  0000 C CNN
	1    8650 4300
	1    0    0    -1  
$EndComp
Wire Wire Line
	8650 4250 8650 4300
Wire Wire Line
	8650 3750 8900 3750
NoConn ~ 8900 3650
NoConn ~ 8900 3550
Wire Wire Line
	5200 3000 7650 3000
Wire Wire Line
	7650 3000 7650 2350
Wire Wire Line
	7650 2350 8900 2350
Wire Wire Line
	8900 1850 7500 1850
Wire Wire Line
	7500 1850 7500 3150
Wire Wire Line
	7500 3150 5200 3150
Text HLabel 6750 1650 0    60   Input ~ 0
SDA_IN
Text HLabel 6750 1800 0    60   Input ~ 0
SCL_IN
Text HLabel 8700 2250 0    60   Input ~ 0
PCLK_IN
Text HLabel 8700 2450 0    60   Input ~ 0
VSYNC_IN
Text HLabel 8700 2550 0    60   Input ~ 0
HSYNC_IN
Text HLabel 8700 2650 0    60   Input ~ 0
D0_IN
Text HLabel 8700 2750 0    60   Input ~ 0
D1_IN
Text HLabel 8700 2850 0    60   Input ~ 0
D2_IN
Text HLabel 8700 2950 0    60   Input ~ 0
D3_IN
Text HLabel 8700 3050 0    60   Input ~ 0
D4_IN
Text HLabel 8700 3150 0    60   Input ~ 0
D5_IN
Text HLabel 8700 3250 0    60   Input ~ 0
D6_IN
Text HLabel 8700 3350 0    60   Input ~ 0
D7_IN
Wire Wire Line
	8700 2250 8900 2250
Wire Wire Line
	8900 2450 8700 2450
Wire Wire Line
	8700 2550 8900 2550
Wire Wire Line
	8900 2650 8700 2650
Wire Wire Line
	8700 2750 8900 2750
Wire Wire Line
	8900 2850 8700 2850
Wire Wire Line
	8700 2950 8900 2950
Wire Wire Line
	8900 3050 8700 3050
Wire Wire Line
	8700 3150 8900 3150
Wire Wire Line
	8900 3250 8700 3250
Wire Wire Line
	8700 3350 8900 3350
$Comp
L +3.3V #PWR084
U 1 1 55257ED9
P 4600 2500
F 0 "#PWR084" H 4600 2460 30  0001 C CNN
F 1 "+3.3V" H 4600 2610 30  0000 C CNN
F 2 "" H 4600 2500 60  0000 C CNN
F 3 "" H 4600 2500 60  0000 C CNN
	1    4600 2500
	1    0    0    -1  
$EndComp
$Comp
L +3.3V #PWR085
U 1 1 55258141
P 5200 3700
F 0 "#PWR085" H 5200 3660 30  0001 C CNN
F 1 "+3.3V" H 5200 3810 30  0000 C CNN
F 2 "" H 5200 3700 60  0000 C CNN
F 3 "" H 5200 3700 60  0000 C CNN
	1    5200 3700
	1    0    0    -1  
$EndComp
$Comp
L +3.3V #PWR086
U 1 1 55258155
P 5200 5050
F 0 "#PWR086" H 5200 5010 30  0001 C CNN
F 1 "+3.3V" H 5200 5160 30  0000 C CNN
F 2 "" H 5200 5050 60  0000 C CNN
F 3 "" H 5200 5050 60  0000 C CNN
	1    5200 5050
	1    0    0    -1  
$EndComp
Text HLabel 8700 1700 0    60   Input ~ 0
RESET_IN
Wire Wire Line
	8700 1700 8900 1700
Wire Wire Line
	6750 1800 7100 1800
Wire Wire Line
	7100 1600 7100 2150
Wire Wire Line
	7100 2150 8900 2150
Wire Wire Line
	6750 1650 7200 1650
Wire Wire Line
	7200 1650 7200 2050
Wire Wire Line
	7200 2050 8900 2050
$Comp
L +3.3V #PWR087
U 1 1 55277E24
P 6900 1050
F 0 "#PWR087" H 6900 1010 30  0001 C CNN
F 1 "+3.3V" H 6900 1160 30  0000 C CNN
F 2 "" H 6900 1050 60  0000 C CNN
F 3 "" H 6900 1050 60  0000 C CNN
	1    6900 1050
	1    0    0    -1  
$EndComp
$Comp
L R R31
U 1 1 55277ECE
P 6900 1350
F 0 "R31" V 6980 1350 40  0000 C CNN
F 1 "1.5k" V 6907 1351 40  0000 C CNN
F 2 "Resistors_SMD:R_0402" V 6830 1350 30  0001 C CNN
F 3 "" H 6900 1350 30  0000 C CNN
	1    6900 1350
	1    0    0    -1  
$EndComp
$Comp
L R R32
U 1 1 55277F5F
P 7100 1350
F 0 "R32" V 7180 1350 40  0000 C CNN
F 1 "1.5k" V 7107 1351 40  0000 C CNN
F 2 "Resistors_SMD:R_0402" V 7030 1350 30  0001 C CNN
F 3 "" H 7100 1350 30  0000 C CNN
	1    7100 1350
	1    0    0    -1  
$EndComp
$Comp
L +3.3V #PWR088
U 1 1 55277F92
P 7100 1050
F 0 "#PWR088" H 7100 1010 30  0001 C CNN
F 1 "+3.3V" H 7100 1160 30  0000 C CNN
F 2 "" H 7100 1050 60  0000 C CNN
F 3 "" H 7100 1050 60  0000 C CNN
	1    7100 1050
	1    0    0    -1  
$EndComp
Wire Wire Line
	6900 1600 6900 1650
Connection ~ 6900 1650
Connection ~ 7100 1800
Wire Wire Line
	6900 1050 6900 1100
Wire Wire Line
	7100 1050 7100 1100
Text Notes 6850 900  0    60   ~ 0
optional
$EndSCHEMATC
