EESchema Schematic File Version 2
LIBS:power
LIBS:device
LIBS:transistors
LIBS:conn
LIBS:linear
LIBS:regul
LIBS:74xx
LIBS:cmos4000
LIBS:adc-dac
LIBS:memory
LIBS:xilinx
LIBS:special
LIBS:microcontrollers
LIBS:dsp
LIBS:microchip
LIBS:analog_switches
LIBS:motorola
LIBS:texas
LIBS:intel
LIBS:audio
LIBS:interface
LIBS:digital-audio
LIBS:philips
LIBS:display
LIBS:cypress
LIBS:siliconi
LIBS:opto
LIBS:atmel
LIBS:contrib
LIBS:valves
LIBS:cc3200_quad
LIBS:dips-s
LIBS:cc3200_quad-cache
EELAYER 25 0
EELAYER END
$Descr A4 11693 8268
encoding utf-8
Sheet 1 6
Title ""
Date ""
Rev ""
Comp ""
Comment1 ""
Comment2 ""
Comment3 ""
Comment4 ""
$EndDescr
$Comp
L CC3200 U1
U 1 1 552178F0
P 5600 3450
F 0 "U1" H 5600 3450 60  0000 C CNN
F 1 "CC3200" H 5600 3550 60  0000 C CNN
F 2 "cc3200_quad_footprints:cc3200" H 5600 3450 60  0001 C CNN
F 3 "" H 5600 3450 60  0000 C CNN
	1    5600 3450
	1    0    0    -1  
$EndComp
$Comp
L C C21
U 1 1 552179E1
P 6600 1450
F 0 "C21" H 6600 1550 40  0000 L CNN
F 1 "0.1uF" H 6606 1365 40  0000 L CNN
F 2 "Capacitors_SMD:C_0402" H 6638 1300 30  0001 C CNN
F 3 "" H 6600 1450 60  0000 C CNN
	1    6600 1450
	1    0    0    -1  
$EndComp
$Comp
L GND #PWR01
U 1 1 55217A3F
P 6600 1700
F 0 "#PWR01" H 6600 1700 30  0001 C CNN
F 1 "GND" H 6600 1630 30  0001 C CNN
F 2 "" H 6600 1700 60  0000 C CNN
F 3 "" H 6600 1700 60  0000 C CNN
	1    6600 1700
	1    0    0    -1  
$EndComp
$Comp
L R R16
U 1 1 55217A93
P 6600 1000
F 0 "R16" V 6680 1000 40  0000 C CNN
F 1 "100k" V 6607 1001 40  0000 C CNN
F 2 "Resistors_SMD:R_0402" V 6530 1000 30  0001 C CNN
F 3 "" H 6600 1000 30  0000 C CNN
	1    6600 1000
	1    0    0    -1  
$EndComp
$Comp
L +3.3V #PWR02
U 1 1 55217ADA
P 6600 750
F 0 "#PWR02" H 6600 710 30  0001 C CNN
F 1 "+3.3V" H 6600 860 30  0000 C CNN
F 2 "" H 6600 750 60  0000 C CNN
F 3 "" H 6600 750 60  0000 C CNN
	1    6600 750 
	1    0    0    -1  
$EndComp
$Comp
L C C20
U 1 1 55217C26
P 5850 1250
F 0 "C20" H 5850 1350 40  0000 L CNN
F 1 "0.1uF" H 5856 1165 40  0000 L CNN
F 2 "Capacitors_SMD:C_0402" H 5888 1100 30  0001 C CNN
F 3 "" H 5850 1250 60  0000 C CNN
	1    5850 1250
	1    0    0    -1  
$EndComp
$Comp
L C C19
U 1 1 55217C6E
P 5650 1250
F 0 "C19" H 5650 1350 40  0000 L CNN
F 1 "0.1uF" H 5656 1165 40  0000 L CNN
F 2 "Capacitors_SMD:C_0402" H 5688 1100 30  0001 C CNN
F 3 "" H 5650 1250 60  0000 C CNN
	1    5650 1250
	1    0    0    -1  
$EndComp
$Comp
L C C18
U 1 1 55217CC0
P 5450 1250
F 0 "C18" H 5450 1350 40  0000 L CNN
F 1 "4.7uF" H 5456 1165 40  0000 L CNN
F 2 "Capacitors_SMD:C_0402" H 5488 1100 30  0001 C CNN
F 3 "" H 5450 1250 60  0000 C CNN
	1    5450 1250
	1    0    0    -1  
$EndComp
$Comp
L C C17
U 1 1 55217CDE
P 5250 1250
F 0 "C17" H 5250 1350 40  0000 L CNN
F 1 "4.7uF" H 5256 1165 40  0000 L CNN
F 2 "Capacitors_SMD:C_0402" H 5288 1100 30  0001 C CNN
F 3 "" H 5250 1250 60  0000 C CNN
	1    5250 1250
	1    0    0    -1  
$EndComp
$Comp
L C C16
U 1 1 55217D24
P 5050 1250
F 0 "C16" H 5050 1350 40  0000 L CNN
F 1 "4.7uF" H 5056 1165 40  0000 L CNN
F 2 "Capacitors_SMD:C_0402" H 5088 1100 30  0001 C CNN
F 3 "" H 5050 1250 60  0000 C CNN
	1    5050 1250
	1    0    0    -1  
$EndComp
$Comp
L GND #PWR03
U 1 1 55217E02
P 5850 1450
F 0 "#PWR03" H 5850 1450 30  0001 C CNN
F 1 "GND" H 5850 1380 30  0001 C CNN
F 2 "" H 5850 1450 60  0000 C CNN
F 3 "" H 5850 1450 60  0000 C CNN
	1    5850 1450
	1    0    0    -1  
$EndComp
$Comp
L GND #PWR04
U 1 1 55217E3C
P 5650 1450
F 0 "#PWR04" H 5650 1450 30  0001 C CNN
F 1 "GND" H 5650 1380 30  0001 C CNN
F 2 "" H 5650 1450 60  0000 C CNN
F 3 "" H 5650 1450 60  0000 C CNN
	1    5650 1450
	1    0    0    -1  
$EndComp
$Comp
L GND #PWR05
U 1 1 55217E57
P 5450 1450
F 0 "#PWR05" H 5450 1450 30  0001 C CNN
F 1 "GND" H 5450 1380 30  0001 C CNN
F 2 "" H 5450 1450 60  0000 C CNN
F 3 "" H 5450 1450 60  0000 C CNN
	1    5450 1450
	1    0    0    -1  
$EndComp
$Comp
L GND #PWR06
U 1 1 55217E6A
P 5250 1450
F 0 "#PWR06" H 5250 1450 30  0001 C CNN
F 1 "GND" H 5250 1380 30  0001 C CNN
F 2 "" H 5250 1450 60  0000 C CNN
F 3 "" H 5250 1450 60  0000 C CNN
	1    5250 1450
	1    0    0    -1  
$EndComp
$Comp
L GND #PWR07
U 1 1 55217E7D
P 5050 1450
F 0 "#PWR07" H 5050 1450 30  0001 C CNN
F 1 "GND" H 5050 1380 30  0001 C CNN
F 2 "" H 5050 1450 60  0000 C CNN
F 3 "" H 5050 1450 60  0000 C CNN
	1    5050 1450
	1    0    0    -1  
$EndComp
Wire Wire Line
	6100 1600 6100 1250
Wire Wire Line
	6100 1250 6800 1250
Wire Wire Line
	5950 950  5950 1600
Wire Wire Line
	5950 1050 5850 1050
Wire Wire Line
	5650 1050 5750 1050
Wire Wire Line
	5750 950  5750 1550
Wire Wire Line
	5750 1550 5800 1550
Wire Wire Line
	5800 1550 5800 1600
Wire Wire Line
	5650 1550 5650 1600
Wire Wire Line
	5550 1550 5650 1550
Wire Wire Line
	5550 850  5550 1550
Wire Wire Line
	5550 1050 5450 1050
Wire Wire Line
	5250 1050 5350 1050
Wire Wire Line
	5350 950  5350 1500
Wire Wire Line
	5350 1500 5400 1500
Wire Wire Line
	5400 1500 5400 1600
Wire Wire Line
	5400 1600 5500 1600
Wire Wire Line
	5150 1600 5350 1600
Wire Wire Line
	5150 950  5150 1600
Wire Wire Line
	5150 1050 5050 1050
Wire Wire Line
	5150 950  5950 950 
Connection ~ 5950 1050
Connection ~ 5150 1050
Connection ~ 5350 950 
Connection ~ 5350 1050
Connection ~ 5550 950 
Connection ~ 5550 1050
Connection ~ 5750 950 
Connection ~ 5750 1050
$Comp
L +3.3V #PWR08
U 1 1 55218169
P 5550 850
F 0 "#PWR08" H 5550 810 30  0001 C CNN
F 1 "+3.3V" H 5550 960 30  0000 C CNN
F 2 "" H 5550 850 60  0000 C CNN
F 3 "" H 5550 850 60  0000 C CNN
	1    5550 850 
	1    0    0    -1  
$EndComp
$Comp
L INDUCTOR_SMALL L1
U 1 1 55218447
P 3250 1150
F 0 "L1" H 3250 1250 50  0000 C CNN
F 1 "2.2uH" H 3250 1100 50  0000 C CNN
F 2 "Inductors_NEOSID:Neosid_Inductor_SM-NE29_SMD1008" H 3250 1150 60  0001 C CNN
F 3 "" H 3250 1150 60  0000 C CNN
	1    3250 1150
	1    0    0    -1  
$EndComp
$Comp
L C C2
U 1 1 55218533
P 2750 1350
F 0 "C2" H 2750 1450 40  0000 L CNN
F 1 "10uF" H 2756 1265 40  0000 L CNN
F 2 "Capacitors_SMD:C_0603" H 2788 1200 30  0001 C CNN
F 3 "" H 2750 1350 60  0000 C CNN
	1    2750 1350
	1    0    0    -1  
$EndComp
$Comp
L C C4
U 1 1 552186BB
P 3000 1900
F 0 "C4" H 3000 2000 40  0000 L CNN
F 1 "0.1uF" H 3006 1815 40  0000 L CNN
F 2 "Capacitors_SMD:C_0402" H 3038 1750 30  0001 C CNN
F 3 "" H 3000 1900 60  0000 C CNN
	1    3000 1900
	1    0    0    -1  
$EndComp
$Comp
L C C8
U 1 1 552186F5
P 3500 1950
F 0 "C8" H 3500 2050 40  0000 L CNN
F 1 "0.1uF" H 3506 1865 40  0000 L CNN
F 2 "Capacitors_SMD:C_0402" H 3538 1800 30  0001 C CNN
F 3 "" H 3500 1950 60  0000 C CNN
	1    3500 1950
	1    0    0    -1  
$EndComp
$Comp
L C C7
U 1 1 5521873E
P 3500 1450
F 0 "C7" H 3500 1550 40  0000 L CNN
F 1 "0.1uF" H 3506 1365 40  0000 L CNN
F 2 "Capacitors_SMD:C_0402" H 3538 1300 30  0001 C CNN
F 3 "" H 3500 1450 60  0000 C CNN
	1    3500 1450
	1    0    0    -1  
$EndComp
Wire Wire Line
	3500 1150 4250 1150
Wire Wire Line
	4250 1150 4250 2050
Wire Wire Line
	4250 2050 4450 2050
Wire Wire Line
	3000 1250 3800 1250
Wire Wire Line
	3800 1250 3800 1600
Wire Wire Line
	3800 1600 4150 1600
Wire Wire Line
	2750 1150 3000 1150
Wire Wire Line
	4100 1800 3600 1800
Wire Wire Line
	3000 1150 3000 1700
Connection ~ 3500 1250
Connection ~ 3000 1250
$Comp
L GND #PWR09
U 1 1 55218958
P 3500 1650
F 0 "#PWR09" H 3500 1650 30  0001 C CNN
F 1 "GND" H 3500 1580 30  0001 C CNN
F 2 "" H 3500 1650 60  0000 C CNN
F 3 "" H 3500 1650 60  0000 C CNN
	1    3500 1650
	1    0    0    -1  
$EndComp
$Comp
L GND #PWR010
U 1 1 552189AB
P 2750 1550
F 0 "#PWR010" H 2750 1550 30  0001 C CNN
F 1 "GND" H 2750 1480 30  0001 C CNN
F 2 "" H 2750 1550 60  0000 C CNN
F 3 "" H 2750 1550 60  0000 C CNN
	1    2750 1550
	1    0    0    -1  
$EndComp
$Comp
L GND #PWR011
U 1 1 552189C3
P 3000 2100
F 0 "#PWR011" H 3000 2100 30  0001 C CNN
F 1 "GND" H 3000 2030 30  0001 C CNN
F 2 "" H 3000 2100 60  0000 C CNN
F 3 "" H 3000 2100 60  0000 C CNN
	1    3000 2100
	1    0    0    -1  
$EndComp
$Comp
L GND #PWR012
U 1 1 552189DB
P 3500 2150
F 0 "#PWR012" H 3500 2150 30  0001 C CNN
F 1 "GND" H 3500 2080 30  0001 C CNN
F 2 "" H 3500 2150 60  0000 C CNN
F 3 "" H 3500 2150 60  0000 C CNN
	1    3500 2150
	1    0    0    -1  
$EndComp
Wire Wire Line
	3000 1700 3200 1700
Wire Wire Line
	3200 1700 3200 1750
Wire Wire Line
	3200 1750 3600 1750
Wire Wire Line
	3600 1750 3600 1800
Connection ~ 3500 1750
Wire Wire Line
	4450 2350 4450 2450
Wire Wire Line
	4100 1800 4100 2350
Wire Wire Line
	4100 2350 4450 2350
Wire Wire Line
	4150 1600 4150 2150
Wire Wire Line
	4150 2150 4450 2150
$Comp
L INDUCTOR_SMALL L4
U 1 1 55218EBF
P 4100 2550
F 0 "L4" H 4100 2650 50  0000 C CNN
F 1 "1uH" H 4100 2500 50  0000 C CNN
F 2 "Inductors_NEOSID:Neosid_Inductor_SM-NE29_SMD1008" H 4100 2550 60  0001 C CNN
F 3 "" H 4100 2550 60  0000 C CNN
	1    4100 2550
	1    0    0    -1  
$EndComp
Wire Wire Line
	4350 2550 4350 2650
Wire Wire Line
	4350 2650 4450 2650
Wire Wire Line
	3850 2550 3850 2650
Wire Wire Line
	3850 2650 4300 2650
Wire Wire Line
	4300 2650 4300 2750
Wire Wire Line
	4300 2750 4450 2750
$Comp
L C C5
U 1 1 55219142
P 3050 2700
F 0 "C5" H 3050 2800 40  0000 L CNN
F 1 "0.1uF" H 3056 2615 40  0000 L CNN
F 2 "Capacitors_SMD:C_0402" H 3088 2550 30  0001 C CNN
F 3 "" H 3050 2700 60  0000 C CNN
	1    3050 2700
	1    0    0    -1  
$EndComp
$Comp
L C C3
U 1 1 552191C3
P 2850 2700
F 0 "C3" H 2850 2800 40  0000 L CNN
F 1 "22uF" H 2856 2615 40  0000 L CNN
F 2 "Capacitors_SMD:C_0603" H 2888 2550 30  0001 C CNN
F 3 "" H 2850 2700 60  0000 C CNN
	1    2850 2700
	1    0    0    -1  
$EndComp
$Comp
L C C1
U 1 1 552191EB
P 2650 2700
F 0 "C1" H 2650 2800 40  0000 L CNN
F 1 "22uF" H 2656 2615 40  0000 L CNN
F 2 "Capacitors_SMD:C_0603" H 2688 2550 30  0001 C CNN
F 3 "" H 2650 2700 60  0000 C CNN
	1    2650 2700
	1    0    0    -1  
$EndComp
$Comp
L GND #PWR013
U 1 1 55219342
P 2650 2900
F 0 "#PWR013" H 2650 2900 30  0001 C CNN
F 1 "GND" H 2650 2830 30  0001 C CNN
F 2 "" H 2650 2900 60  0000 C CNN
F 3 "" H 2650 2900 60  0000 C CNN
	1    2650 2900
	1    0    0    -1  
$EndComp
$Comp
L GND #PWR014
U 1 1 55219365
P 2850 2900
F 0 "#PWR014" H 2850 2900 30  0001 C CNN
F 1 "GND" H 2850 2830 30  0001 C CNN
F 2 "" H 2850 2900 60  0000 C CNN
F 3 "" H 2850 2900 60  0000 C CNN
	1    2850 2900
	1    0    0    -1  
$EndComp
$Comp
L GND #PWR015
U 1 1 55219392
P 3050 2900
F 0 "#PWR015" H 3050 2900 30  0001 C CNN
F 1 "GND" H 3050 2830 30  0001 C CNN
F 2 "" H 3050 2900 60  0000 C CNN
F 3 "" H 3050 2900 60  0000 C CNN
	1    3050 2900
	1    0    0    -1  
$EndComp
Wire Wire Line
	2650 2500 3800 2500
Connection ~ 2850 2500
Connection ~ 3050 2500
Wire Wire Line
	4450 2850 4450 3050
$Comp
L C C13
U 1 1 552195BF
P 3950 3400
F 0 "C13" H 3950 3500 40  0000 L CNN
F 1 "0.1uF" H 3956 3315 40  0000 L CNN
F 2 "Capacitors_SMD:C_0402" H 3988 3250 30  0001 C CNN
F 3 "" H 3950 3400 60  0000 C CNN
	1    3950 3400
	1    0    0    -1  
$EndComp
Wire Wire Line
	4450 2850 3800 2850
Wire Wire Line
	3800 2850 3800 2500
$Comp
L INDUCTOR_SMALL L3
U 1 1 5521981D
P 4050 3050
F 0 "L3" H 4050 3150 50  0000 C CNN
F 1 "2.2uH" H 4050 3000 50  0000 C CNN
F 2 "Inductors_NEOSID:Neosid_Inductor_SM-NE29_SMD1008" H 4050 3050 60  0001 C CNN
F 3 "" H 4050 3050 60  0000 C CNN
	1    4050 3050
	1    0    0    -1  
$EndComp
$Comp
L C C11
U 1 1 5521988F
P 3750 3350
F 0 "C11" H 3750 3450 40  0000 L CNN
F 1 "0.1uF" H 3756 3265 40  0000 L CNN
F 2 "Capacitors_SMD:C_0402" H 3788 3200 30  0001 C CNN
F 3 "" H 3750 3350 60  0000 C CNN
	1    3750 3350
	1    0    0    -1  
$EndComp
$Comp
L C C9
U 1 1 552198C1
P 3550 3300
F 0 "C9" H 3550 3400 40  0000 L CNN
F 1 "10uF" H 3556 3215 40  0000 L CNN
F 2 "Capacitors_SMD:C_0603" H 3588 3150 30  0001 C CNN
F 3 "" H 3550 3300 60  0000 C CNN
	1    3550 3300
	1    0    0    -1  
$EndComp
Wire Wire Line
	4300 3050 4350 3050
Wire Wire Line
	4350 3050 4350 3200
Wire Wire Line
	4350 3200 4450 3200
Wire Wire Line
	3550 3100 3550 3050
Wire Wire Line
	3550 3050 3800 3050
Wire Wire Line
	3750 3150 3750 3050
Connection ~ 3750 3050
Wire Wire Line
	3750 3150 3850 3150
Wire Wire Line
	3850 3150 3850 3200
Wire Wire Line
	3850 3200 4300 3200
Wire Wire Line
	4300 3200 4300 3300
Wire Wire Line
	4300 3300 4450 3300
Connection ~ 3950 3200
Wire Wire Line
	4450 3300 4450 3400
$Comp
L GND #PWR016
U 1 1 55219C8C
P 3550 3500
F 0 "#PWR016" H 3550 3500 30  0001 C CNN
F 1 "GND" H 3550 3430 30  0001 C CNN
F 2 "" H 3550 3500 60  0000 C CNN
F 3 "" H 3550 3500 60  0000 C CNN
	1    3550 3500
	1    0    0    -1  
$EndComp
$Comp
L GND #PWR017
U 1 1 55219CB3
P 3750 3550
F 0 "#PWR017" H 3750 3550 30  0001 C CNN
F 1 "GND" H 3750 3480 30  0001 C CNN
F 2 "" H 3750 3550 60  0000 C CNN
F 3 "" H 3750 3550 60  0000 C CNN
	1    3750 3550
	1    0    0    -1  
$EndComp
$Comp
L GND #PWR018
U 1 1 55219CD3
P 3950 3600
F 0 "#PWR018" H 3950 3600 30  0001 C CNN
F 1 "GND" H 3950 3530 30  0001 C CNN
F 2 "" H 3950 3600 60  0000 C CNN
F 3 "" H 3950 3600 60  0000 C CNN
	1    3950 3600
	1    0    0    -1  
$EndComp
$Comp
L C C6
U 1 1 5521A21A
P 3150 3850
F 0 "C6" H 3150 3950 40  0000 L CNN
F 1 "10uF" H 3156 3765 40  0000 L CNN
F 2 "Capacitors_SMD:C_0603" H 3188 3700 30  0001 C CNN
F 3 "" H 3150 3850 60  0000 C CNN
	1    3150 3850
	1    0    0    -1  
$EndComp
Wire Wire Line
	4450 3750 4400 3750
Wire Wire Line
	4400 3750 4400 3800
Wire Wire Line
	4400 3800 4050 3800
Wire Wire Line
	4050 3800 4050 3850
Wire Wire Line
	4050 3850 3700 3850
Wire Wire Line
	3700 3850 3700 3800
Wire Wire Line
	3700 3800 3450 3800
Wire Wire Line
	3450 3800 3450 3650
Wire Wire Line
	3450 3650 3150 3650
$Comp
L GND #PWR019
U 1 1 5521A2C9
P 3150 4050
F 0 "#PWR019" H 3150 4050 30  0001 C CNN
F 1 "GND" H 3150 3980 30  0001 C CNN
F 2 "" H 3150 4050 60  0000 C CNN
F 3 "" H 3150 4050 60  0000 C CNN
	1    3150 4050
	1    0    0    -1  
$EndComp
Wire Wire Line
	3150 3650 3150 3600
$Comp
L C C12
U 1 1 5521A68F
P 3800 4100
F 0 "C12" H 3800 4200 40  0000 L CNN
F 1 "0.1uF" H 3806 4015 40  0000 L CNN
F 2 "Capacitors_SMD:C_0402" H 3838 3950 30  0001 C CNN
F 3 "" H 3800 4100 60  0000 C CNN
	1    3800 4100
	1    0    0    -1  
$EndComp
$Comp
L C C14
U 1 1 5521A70B
P 4050 4200
F 0 "C14" H 4050 4300 40  0000 L CNN
F 1 "0.1uF" H 4056 4115 40  0000 L CNN
F 2 "Capacitors_SMD:C_0402" H 4088 4050 30  0001 C CNN
F 3 "" H 4050 4200 60  0000 C CNN
	1    4050 4200
	1    0    0    -1  
$EndComp
$Comp
L GND #PWR020
U 1 1 5521A7D3
P 3800 4300
F 0 "#PWR020" H 3800 4300 30  0001 C CNN
F 1 "GND" H 3800 4230 30  0001 C CNN
F 2 "" H 3800 4300 60  0000 C CNN
F 3 "" H 3800 4300 60  0000 C CNN
	1    3800 4300
	1    0    0    -1  
$EndComp
$Comp
L GND #PWR021
U 1 1 5521A7F7
P 4050 4400
F 0 "#PWR021" H 4050 4400 30  0001 C CNN
F 1 "GND" H 4050 4330 30  0001 C CNN
F 2 "" H 4050 4400 60  0000 C CNN
F 3 "" H 4050 4400 60  0000 C CNN
	1    4050 4400
	1    0    0    -1  
$EndComp
Wire Wire Line
	3800 3900 4450 3900
Wire Wire Line
	4450 4000 4050 4000
$Comp
L VAA #PWR022
U 1 1 5521DDE9
P 3150 3600
F 0 "#PWR022" H 3150 3660 30  0001 C CNN
F 1 "VAA" H 3150 3710 30  0000 C CNN
F 2 "" H 3150 3600 60  0000 C CNN
F 3 "" H 3150 3600 60  0000 C CNN
	1    3150 3600
	1    0    0    -1  
$EndComp
$Comp
L CRYSTAL X1
U 1 1 5521E025
P 4000 4700
F 0 "X1" H 4000 4850 60  0000 C CNN
F 1 "32.768KHz" H 4000 4550 60  0000 C CNN
F 2 "cc3200_quad_footprints:ABS07" H 4000 4700 60  0001 C CNN
F 3 "" H 4000 4700 60  0000 C CNN
	1    4000 4700
	-1   0    0    1   
$EndComp
$Comp
L C C15
U 1 1 5521E0CC
P 4300 4950
F 0 "C15" H 4300 5050 40  0000 L CNN
F 1 "10pF" H 4306 4865 40  0000 L CNN
F 2 "Capacitors_SMD:C_0402" H 4338 4800 30  0001 C CNN
F 3 "" H 4300 4950 60  0000 C CNN
	1    4300 4950
	1    0    0    -1  
$EndComp
$Comp
L C C10
U 1 1 5521E1B0
P 3700 4950
F 0 "C10" H 3700 5050 40  0000 L CNN
F 1 "10pF" H 3706 4865 40  0000 L CNN
F 2 "Capacitors_SMD:C_0402" H 3738 4800 30  0001 C CNN
F 3 "" H 3700 4950 60  0000 C CNN
	1    3700 4950
	1    0    0    -1  
$EndComp
$Comp
L GND #PWR023
U 1 1 5521E212
P 3700 5200
F 0 "#PWR023" H 3700 5200 30  0001 C CNN
F 1 "GND" H 3700 5130 30  0001 C CNN
F 2 "" H 3700 5200 60  0000 C CNN
F 3 "" H 3700 5200 60  0000 C CNN
	1    3700 5200
	1    0    0    -1  
$EndComp
$Comp
L GND #PWR024
U 1 1 5521E240
P 4300 5200
F 0 "#PWR024" H 4300 5200 30  0001 C CNN
F 1 "GND" H 4300 5130 30  0001 C CNN
F 2 "" H 4300 5200 60  0000 C CNN
F 3 "" H 4300 5200 60  0000 C CNN
	1    4300 5200
	1    0    0    -1  
$EndComp
Wire Wire Line
	3700 5200 3700 5150
Wire Wire Line
	4300 5200 4300 5150
Wire Wire Line
	3700 4600 3700 4750
Wire Wire Line
	4300 4700 4300 4750
Wire Wire Line
	4300 4700 4450 4700
Wire Wire Line
	4450 4600 3700 4600
Connection ~ 3700 4700
$Comp
L GND #PWR025
U 1 1 5521EBC7
P 6000 5450
F 0 "#PWR025" H 6000 5450 30  0001 C CNN
F 1 "GND" H 6000 5380 30  0001 C CNN
F 2 "" H 6000 5450 60  0000 C CNN
F 3 "" H 6000 5450 60  0000 C CNN
	1    6000 5450
	1    0    0    -1  
$EndComp
$Comp
L M25PX80-VMN6TP U7
U 1 1 5521F331
P 7550 2400
F 0 "U7" H 7500 2700 60  0000 C CNN
F 1 "M25PX80-VMN6TP" H 7500 2150 60  0000 C CNN
F 2 "Housings_SOIC:SOIC-8_3.9x4.9mm_Pitch1.27mm" H 7550 2400 60  0001 C CNN
F 3 "" H 7550 2400 60  0000 C CNN
	1    7550 2400
	1    0    0    -1  
$EndComp
Wire Wire Line
	6900 2200 7050 2200
Wire Wire Line
	6900 2300 7050 2300
Wire Wire Line
	6900 2400 7050 2400
Wire Wire Line
	6900 2500 7050 2500
$Comp
L +3.3V #PWR026
U 1 1 5521F7E9
P 8050 2100
F 0 "#PWR026" H 8050 2060 30  0001 C CNN
F 1 "+3.3V" H 8050 2210 30  0000 C CNN
F 2 "" H 8050 2100 60  0000 C CNN
F 3 "" H 8050 2100 60  0000 C CNN
	1    8050 2100
	1    0    0    -1  
$EndComp
$Comp
L C C23
U 1 1 5521FBD5
P 8250 2400
F 0 "C23" H 8250 2500 40  0000 L CNN
F 1 "0.1uF" H 8256 2315 40  0000 L CNN
F 2 "Capacitors_SMD:C_0402" H 8288 2250 30  0001 C CNN
F 3 "" H 8250 2400 60  0000 C CNN
	1    8250 2400
	1    0    0    -1  
$EndComp
Wire Wire Line
	8000 2200 8000 2400
Connection ~ 8000 2300
Wire Wire Line
	8000 2200 8250 2200
$Comp
L GND #PWR027
U 1 1 552200A3
P 8050 2550
F 0 "#PWR027" H 8050 2550 30  0001 C CNN
F 1 "GND" H 8050 2480 30  0001 C CNN
F 2 "" H 8050 2550 60  0000 C CNN
F 3 "" H 8050 2550 60  0000 C CNN
	1    8050 2550
	1    0    0    -1  
$EndComp
$Comp
L GND #PWR028
U 1 1 552200D3
P 8250 2600
F 0 "#PWR028" H 8250 2600 30  0001 C CNN
F 1 "GND" H 8250 2530 30  0001 C CNN
F 2 "" H 8250 2600 60  0000 C CNN
F 3 "" H 8250 2600 60  0000 C CNN
	1    8250 2600
	1    0    0    -1  
$EndComp
Wire Wire Line
	8000 2500 8050 2500
Wire Wire Line
	8050 2500 8050 2550
$Comp
L R R17
U 1 1 55220415
P 7300 2000
F 0 "R17" V 7380 2000 40  0000 C CNN
F 1 "100k" V 7307 2001 40  0000 C CNN
F 2 "Resistors_SMD:R_0402" V 7230 2000 30  0001 C CNN
F 3 "" H 7300 2000 30  0000 C CNN
	1    7300 2000
	0    1    1    0   
$EndComp
$Comp
L +3.3V #PWR029
U 1 1 5522046F
P 7550 2000
F 0 "#PWR029" H 7550 1960 30  0001 C CNN
F 1 "+3.3V" H 7550 2110 30  0000 C CNN
F 2 "" H 7550 2000 60  0000 C CNN
F 3 "" H 7550 2000 60  0000 C CNN
	1    7550 2000
	1    0    0    -1  
$EndComp
Wire Wire Line
	7050 2200 7050 2000
$Comp
L R R18
U 1 1 552205D2
P 7850 1650
F 0 "R18" V 7930 1650 40  0000 C CNN
F 1 "100k" V 7857 1651 40  0000 C CNN
F 2 "Resistors_SMD:R_0402" V 7780 1650 30  0001 C CNN
F 3 "" H 7850 1650 30  0000 C CNN
	1    7850 1650
	0    1    1    0   
$EndComp
$Comp
L R R19
U 1 1 55220662
P 7850 1800
F 0 "R19" V 7930 1800 40  0000 C CNN
F 1 "100k" V 7857 1801 40  0000 C CNN
F 2 "Resistors_SMD:R_0402" V 7780 1800 30  0001 C CNN
F 3 "" H 7850 1800 30  0000 C CNN
	1    7850 1800
	0    1    1    0   
$EndComp
$Comp
L GND #PWR030
U 1 1 5522080B
P 8100 1850
F 0 "#PWR030" H 8100 1850 30  0001 C CNN
F 1 "GND" H 8100 1780 30  0001 C CNN
F 2 "" H 8100 1850 60  0000 C CNN
F 3 "" H 8100 1850 60  0000 C CNN
	1    8100 1850
	1    0    0    -1  
$EndComp
$Comp
L GND #PWR031
U 1 1 5522083E
P 8100 1700
F 0 "#PWR031" H 8100 1700 30  0001 C CNN
F 1 "GND" H 8100 1630 30  0001 C CNN
F 2 "" H 8100 1700 60  0000 C CNN
F 3 "" H 8100 1700 60  0000 C CNN
	1    8100 1700
	1    0    0    -1  
$EndComp
Wire Wire Line
	8100 1650 8100 1700
Wire Wire Line
	8100 1800 8100 1850
Wire Wire Line
	7000 2400 7000 1800
Wire Wire Line
	7000 1800 7600 1800
Connection ~ 7000 2400
Wire Wire Line
	6950 2500 6950 1650
Wire Wire Line
	6950 1650 7600 1650
Connection ~ 6950 2500
$Sheet
S 8500 2950 1150 1150
U 552217C8
F0 "cc3200_quad_camera" 60
F1 "cc3200_quad_camera.sch" 60
F2 "GPIO_11_IN" I L 8500 3100 60 
F3 "GPIO_02_IN" I L 8500 3200 60 
F4 "SDA_IN" I R 9650 3000 60 
F5 "SCL_IN" I R 9650 3100 60 
F6 "PCLK_IN" I R 9650 3200 60 
F7 "VSYNC_IN" I R 9650 3300 60 
F8 "HSYNC_IN" I R 9650 3400 60 
F9 "D0_IN" I L 8500 3300 60 
F10 "D1_IN" I L 8500 3400 60 
F11 "D2_IN" I L 8500 3500 60 
F12 "D3_IN" I L 8500 3600 60 
F13 "D4_IN" I L 8500 3700 60 
F14 "D5_IN" I L 8500 3800 60 
F15 "D6_IN" I L 8500 3900 60 
F16 "D7_IN" I L 8500 4000 60 
F17 "RESET_IN" I R 9650 3500 60 
$EndSheet
Wire Wire Line
	6900 3800 8100 3800
Wire Wire Line
	8100 3800 8100 3100
Wire Wire Line
	8100 3100 8500 3100
Wire Wire Line
	6900 2850 8600 2850
Wire Wire Line
	8250 2850 8250 3200
Wire Wire Line
	8250 3200 8500 3200
Wire Wire Line
	6900 3250 8350 3250
Wire Wire Line
	8350 3250 8350 3300
Wire Wire Line
	8350 3300 8500 3300
Wire Wire Line
	6900 3150 8000 3150
Wire Wire Line
	8000 3150 8000 3400
Wire Wire Line
	8000 3400 8500 3400
Wire Wire Line
	6900 3050 7950 3050
Wire Wire Line
	7950 3050 7950 3500
Wire Wire Line
	7950 3500 8500 3500
Wire Wire Line
	6900 2950 7900 2950
Wire Wire Line
	7900 2950 7900 3600
Wire Wire Line
	7900 3600 8500 3600
Wire Wire Line
	6900 4100 7900 4100
Wire Wire Line
	7900 4100 7900 3700
Wire Wire Line
	7900 3700 8500 3700
Wire Wire Line
	6900 4200 7950 4200
Wire Wire Line
	7950 4200 7950 3850
Wire Wire Line
	7950 3850 8250 3850
Wire Wire Line
	8250 3850 8250 3800
Wire Wire Line
	8250 3800 8500 3800
Wire Wire Line
	6900 4300 8000 4300
Wire Wire Line
	8000 4300 8000 3900
Wire Wire Line
	8000 3900 8500 3900
Wire Wire Line
	6900 4400 8050 4400
Wire Wire Line
	8050 4400 8050 4000
Wire Wire Line
	8050 4000 8500 4000
Text Label 9750 3000 0    60   ~ 0
sda
Text Label 9750 3100 0    60   ~ 0
scl
Wire Wire Line
	9650 3000 9750 3000
Wire Wire Line
	9650 3100 9750 3100
Text Label 5800 5650 1    60   ~ 0
sda
Text Label 5700 5650 1    60   ~ 0
scl
Wire Wire Line
	5800 5450 5800 5700
Text Notes 9800 2900 0    60   ~ 0
pull-up resistor within sheet
Wire Wire Line
	6900 2750 9950 2750
Wire Wire Line
	9950 2750 9950 3200
Wire Wire Line
	9950 3200 9650 3200
Wire Wire Line
	6900 3900 7850 3900
Wire Wire Line
	7850 3900 7850 4450
Wire Wire Line
	7850 4450 9750 4450
Wire Wire Line
	9750 4450 9750 3300
Wire Wire Line
	9750 3300 9650 3300
Wire Wire Line
	6900 4000 7800 4000
Wire Wire Line
	7800 4000 7800 4500
Wire Wire Line
	7800 4500 9800 4500
Wire Wire Line
	9800 4500 9800 3400
Wire Wire Line
	9800 3400 9650 3400
$Sheet
S 6950 1300 550  200 
U 5522D29A
F0 "cc3200_camera_RF" 60
F1 "cc3200_camera_RF.sch" 60
F2 "RF" I L 6950 1400 60 
$EndSheet
$Comp
L Crystal_4pin U8
U 1 1 5522E3D4
P 8150 4950
F 0 "U8" H 8150 4750 60  0000 C CNN
F 1 "Q24FA20H00396_40MHz" H 8150 5200 60  0000 C CNN
F 2 "cc3200_quad_footprints:Q24FA20H" H 8150 4950 60  0001 C CNN
F 3 "" H 8150 4950 60  0000 C CNN
	1    8150 4950
	1    0    0    -1  
$EndComp
$Comp
L C C24
U 1 1 5522E48B
P 8700 5150
F 0 "C24" H 8700 5250 40  0000 L CNN
F 1 "6.2pF" H 8706 5065 40  0000 L CNN
F 2 "Capacitors_SMD:C_0402" H 8738 5000 30  0001 C CNN
F 3 "" H 8700 5150 60  0000 C CNN
	1    8700 5150
	1    0    0    -1  
$EndComp
$Comp
L C C22
U 1 1 5522E696
P 7600 5150
F 0 "C22" H 7600 5250 40  0000 L CNN
F 1 "6.2pF" H 7606 5065 40  0000 L CNN
F 2 "Capacitors_SMD:C_0402" H 7638 5000 30  0001 C CNN
F 3 "" H 7600 5150 60  0000 C CNN
	1    7600 5150
	1    0    0    -1  
$EndComp
$Comp
L GND #PWR032
U 1 1 5522E6C8
P 8700 5350
F 0 "#PWR032" H 8700 5350 30  0001 C CNN
F 1 "GND" H 8700 5280 30  0001 C CNN
F 2 "" H 8700 5350 60  0000 C CNN
F 3 "" H 8700 5350 60  0000 C CNN
	1    8700 5350
	1    0    0    -1  
$EndComp
$Comp
L GND #PWR033
U 1 1 5522E6FE
P 8300 5450
F 0 "#PWR033" H 8300 5450 30  0001 C CNN
F 1 "GND" H 8300 5380 30  0001 C CNN
F 2 "" H 8300 5450 60  0000 C CNN
F 3 "" H 8300 5450 60  0000 C CNN
	1    8300 5450
	1    0    0    -1  
$EndComp
$Comp
L GND #PWR034
U 1 1 5522E751
P 8000 5450
F 0 "#PWR034" H 8000 5450 30  0001 C CNN
F 1 "GND" H 8000 5380 30  0001 C CNN
F 2 "" H 8000 5450 60  0000 C CNN
F 3 "" H 8000 5450 60  0000 C CNN
	1    8000 5450
	1    0    0    -1  
$EndComp
$Comp
L GND #PWR035
U 1 1 5522E780
P 7600 5350
F 0 "#PWR035" H 7600 5350 30  0001 C CNN
F 1 "GND" H 7600 5280 30  0001 C CNN
F 2 "" H 7600 5350 60  0000 C CNN
F 3 "" H 7600 5350 60  0000 C CNN
	1    7600 5350
	1    0    0    -1  
$EndComp
Wire Wire Line
	8700 4950 8600 4950
Wire Wire Line
	6900 4950 7700 4950
Connection ~ 7600 4950
Wire Wire Line
	6900 4850 7800 4850
Wire Wire Line
	7800 4850 7800 4650
Wire Wire Line
	7800 4650 8600 4650
Wire Wire Line
	8600 4650 8600 4950
Text Label 6900 3700 0    60   ~ 0
Motor_PWM01
Text Label 9600 5400 2    60   ~ 0
Motor_PWM01
Text Label 5500 6450 0    60   ~ 0
Motor_PWM02
Text Label 10650 5400 2    60   ~ 0
Motor_PWM02
Text Label 5900 6150 0    60   ~ 0
Motor_PWM03
Text Label 9600 6100 2    60   ~ 0
Motor_PWM03
Text Label 6900 3600 0    60   ~ 0
Motor_PWM04
Text Label 10650 6100 2    60   ~ 0
Motor_PWM04
Wire Wire Line
	6900 2000 6900 1400
Wire Wire Line
	6900 1400 6950 1400
Wire Wire Line
	5800 5700 6600 5700
NoConn ~ 6900 2650
NoConn ~ 6900 3350
NoConn ~ 6900 3500
NoConn ~ 6900 5050
NoConn ~ 6900 5150
$Comp
L R R14
U 1 1 55224741
P 5050 5900
F 0 "R14" V 5130 5900 40  0000 C CNN
F 1 "100k" V 5057 5901 40  0000 C CNN
F 2 "Resistors_SMD:R_0402" V 4980 5900 30  0001 C CNN
F 3 "" H 5050 5900 30  0000 C CNN
	1    5050 5900
	1    0    0    -1  
$EndComp
$Comp
L GND #PWR036
U 1 1 5522476E
P 5050 6150
F 0 "#PWR036" H 5050 6150 30  0001 C CNN
F 1 "GND" H 5050 6080 30  0001 C CNN
F 2 "" H 5050 6150 60  0000 C CNN
F 3 "" H 5050 6150 60  0000 C CNN
	1    5050 6150
	1    0    0    -1  
$EndComp
Wire Wire Line
	5050 5650 5050 5550
Wire Wire Line
	5150 5550 5150 5450
$Comp
L R R13
U 1 1 55224C15
P 4900 5900
F 0 "R13" V 4980 5900 40  0000 C CNN
F 1 "100k" V 4907 5901 40  0000 C CNN
F 2 "Resistors_SMD:R_0402" V 4830 5900 30  0001 C CNN
F 3 "" H 4900 5900 30  0000 C CNN
	1    4900 5900
	1    0    0    -1  
$EndComp
$Comp
L GND #PWR037
U 1 1 55224D2A
P 4900 6150
F 0 "#PWR037" H 4900 6150 30  0001 C CNN
F 1 "GND" H 4900 6080 30  0001 C CNN
F 2 "" H 4900 6150 60  0000 C CNN
F 3 "" H 4900 6150 60  0000 C CNN
	1    4900 6150
	1    0    0    -1  
$EndComp
$Comp
L R R15
U 1 1 55224D5E
P 5250 6400
F 0 "R15" V 5330 6400 40  0000 C CNN
F 1 "2.7k" V 5257 6401 40  0000 C CNN
F 2 "Resistors_SMD:R_0402" V 5180 6400 30  0001 C CNN
F 3 "" H 5250 6400 30  0000 C CNN
	1    5250 6400
	1    0    0    -1  
$EndComp
$Comp
L GND #PWR038
U 1 1 55224DB4
P 5250 6650
F 0 "#PWR038" H 5250 6650 30  0001 C CNN
F 1 "GND" H 5250 6580 30  0001 C CNN
F 2 "" H 5250 6650 60  0000 C CNN
F 3 "" H 5250 6650 60  0000 C CNN
	1    5250 6650
	1    0    0    -1  
$EndComp
$Comp
L R R12
U 1 1 55225509
P 3300 5550
F 0 "R12" V 3380 5550 40  0000 C CNN
F 1 "270" V 3307 5551 40  0000 C CNN
F 2 "Resistors_SMD:R_0402" V 3230 5550 30  0001 C CNN
F 3 "" H 3300 5550 30  0000 C CNN
	1    3300 5550
	1    0    0    -1  
$EndComp
$Comp
L +3.3V #PWR039
U 1 1 55230AFD
P 3300 5300
F 0 "#PWR039" H 3300 5260 30  0001 C CNN
F 1 "+3.3V" H 3300 5410 30  0000 C CNN
F 2 "" H 3300 5300 60  0000 C CNN
F 3 "" H 3300 5300 60  0000 C CNN
	1    3300 5300
	1    0    0    -1  
$EndComp
Wire Wire Line
	5050 5500 5050 5450
Wire Wire Line
	4600 5500 5050 5500
Wire Wire Line
	5250 5450 5250 6150
Wire Wire Line
	5150 6100 5400 6100
Connection ~ 5250 6100
$Comp
L R R20
U 1 1 5522B2A9
P 8850 1750
F 0 "R20" V 8930 1750 40  0000 C CNN
F 1 "100" V 8857 1751 40  0000 C CNN
F 2 "Resistors_SMD:R_0402" V 8780 1750 30  0001 C CNN
F 3 "" H 8850 1750 30  0000 C CNN
	1    8850 1750
	1    0    0    -1  
$EndComp
$Comp
L GND #PWR040
U 1 1 5522C051
P 8850 2000
F 0 "#PWR040" H 8850 2000 30  0001 C CNN
F 1 "GND" H 8850 1930 30  0001 C CNN
F 2 "" H 8850 2000 60  0000 C CNN
F 3 "" H 8850 2000 60  0000 C CNN
	1    8850 2000
	1    0    0    -1  
$EndComp
$Comp
L R R21
U 1 1 5522C9F9
P 9500 900
F 0 "R21" V 9580 900 40  0000 C CNN
F 1 "100k" V 9507 901 40  0000 C CNN
F 2 "Resistors_SMD:R_0402" V 9430 900 30  0001 C CNN
F 3 "" H 9500 900 30  0000 C CNN
	1    9500 900 
	0    1    1    0   
$EndComp
$Comp
L +3.3V #PWR041
U 1 1 5522CE9B
P 9750 800
F 0 "#PWR041" H 9750 760 30  0001 C CNN
F 1 "+3.3V" H 9750 910 30  0000 C CNN
F 2 "" H 9750 800 60  0000 C CNN
F 3 "" H 9750 800 60  0000 C CNN
	1    9750 800 
	1    0    0    -1  
$EndComp
Wire Wire Line
	9750 800  9750 900 
Wire Wire Line
	6800 1250 6800 900 
Wire Wire Line
	6800 900  8850 900 
Connection ~ 6600 1250
Text Notes 6150 5600 0    60   ~ 0
JTAG pin-out, to emulation circuit
Wire Wire Line
	8900 2400 8500 2400
Wire Wire Line
	8500 2400 8500 2750
Connection ~ 8500 2750
Wire Wire Line
	8600 2850 8600 2550
Wire Wire Line
	8600 2550 8900 2550
Connection ~ 8250 2850
Text Notes 9500 2450 0    60   ~ 0
connect to LP emulation circuit\nused for flashing
Wire Wire Line
	5500 6000 6600 6000
Wire Wire Line
	5900 6150 5800 6150
Wire Wire Line
	5800 6150 5800 6000
Connection ~ 5800 6000
Wire Wire Line
	5500 6450 5400 6450
Wire Wire Line
	5400 6450 5400 6100
Text Label 2400 5550 0    60   ~ 0
sda
Text Label 2400 5400 0    60   ~ 0
scl
Wire Wire Line
	2300 5400 2400 5400
Wire Wire Line
	2400 5550 2300 5550
$Sheet
S 1750 5300 550  350 
U 55235472
F0 "cc3200_quad_inemo" 60
F1 "cc3200_quad_inemo.sch" 60
F2 "SCL_IN" I R 2300 5400 60 
F3 "SDA_IN" I R 2300 5550 60 
$EndSheet
Text Notes 700  1750 0    60   ~ 0
- power pins have global scope\n- Vdd is 2.8V\n- 3.3V is powering iNEMO and Camera\nSlave Addresses:\n- MT9D111 - 0x48\n- iNEMO accel/gyro - 0x65\n- iNEMO mag - 0x1c\n- pressure sensor - 0x76\nTODO:\n- add signal LEDs
Wire Wire Line
	4900 5500 4900 5650
Connection ~ 4900 5500
Wire Wire Line
	5150 6100 5150 6300
Wire Wire Line
	5150 6300 4600 6300
Text Notes 7350 7500 0    60   ~ 0
CC3200 Mini Quadcopter
Text Notes 10550 7650 0    60   ~ 0
0.1
Text Notes 8150 7650 0    60   ~ 0
04/05/2015
Text Notes 7400 7250 0    60   ~ 0
main
$Sheet
S 1750 6000 550  350 
U 55282035
F0 "cc3200_quad_pressure" 60
F1 "cc3200_quad_pressure.sch" 60
F2 "SDA_IN" I R 2300 6250 60 
F3 "SCL_IN" I R 2300 6100 60 
$EndSheet
Text Label 2450 6100 0    60   ~ 0
scl
Text Label 2450 6250 0    60   ~ 0
sda
Wire Wire Line
	2450 6100 2300 6100
Wire Wire Line
	2450 6250 2300 6250
$Sheet
S 1750 4600 550  350 
U 5525781A
F0 "cc3200_quad_power" 60
F1 "cc3200_quad_power.sch" 60
$EndSheet
$Comp
L GND #PWR042
U 1 1 5525B24F
P 6550 6450
F 0 "#PWR042" H 6550 6450 30  0001 C CNN
F 1 "GND" H 6550 6380 30  0001 C CNN
F 2 "" H 6550 6450 60  0000 C CNN
F 3 "" H 6550 6450 60  0000 C CNN
	1    6550 6450
	1    0    0    -1  
$EndComp
Wire Wire Line
	6550 6450 6550 6300
Wire Wire Line
	6550 6300 6600 6300
$Comp
L HEADER_3 U11
U 1 1 55261343
P 9850 5400
F 0 "U11" H 9850 5200 60  0000 C CNN
F 1 "HEADER_3" H 9850 5650 60  0000 C CNN
F 2 "Pin_Headers:Pin_Header_Straight_1x03" H 9850 5400 60  0001 C CNN
F 3 "" H 9850 5400 60  0000 C CNN
	1    9850 5400
	1    0    0    -1  
$EndComp
$Comp
L +BATT #PWR043
U 1 1 5526233A
P 9600 5250
F 0 "#PWR043" H 9600 5200 20  0001 C CNN
F 1 "+BATT" H 9600 5350 30  0000 C CNN
F 2 "" H 9600 5250 60  0000 C CNN
F 3 "" H 9600 5250 60  0000 C CNN
	1    9600 5250
	1    0    0    -1  
$EndComp
$Comp
L GND #PWR044
U 1 1 5526246B
P 9600 5550
F 0 "#PWR044" H 9600 5550 30  0001 C CNN
F 1 "GND" H 9600 5480 30  0001 C CNN
F 2 "" H 9600 5550 60  0000 C CNN
F 3 "" H 9600 5550 60  0000 C CNN
	1    9600 5550
	1    0    0    -1  
$EndComp
Wire Wire Line
	9600 5500 9600 5550
$Comp
L HEADER_3 U12
U 1 1 55262E23
P 10900 5400
F 0 "U12" H 10900 5200 60  0000 C CNN
F 1 "HEADER_3" H 10900 5650 60  0000 C CNN
F 2 "Pin_Headers:Pin_Header_Straight_1x03" H 10900 5400 60  0001 C CNN
F 3 "" H 10900 5400 60  0000 C CNN
	1    10900 5400
	1    0    0    -1  
$EndComp
$Comp
L +BATT #PWR045
U 1 1 55262E29
P 10650 5300
F 0 "#PWR045" H 10650 5250 20  0001 C CNN
F 1 "+BATT" H 10650 5400 30  0000 C CNN
F 2 "" H 10650 5300 60  0000 C CNN
F 3 "" H 10650 5300 60  0000 C CNN
	1    10650 5300
	1    0    0    -1  
$EndComp
$Comp
L GND #PWR046
U 1 1 55262E2F
P 10650 5550
F 0 "#PWR046" H 10650 5550 30  0001 C CNN
F 1 "GND" H 10650 5480 30  0001 C CNN
F 2 "" H 10650 5550 60  0000 C CNN
F 3 "" H 10650 5550 60  0000 C CNN
	1    10650 5550
	1    0    0    -1  
$EndComp
Wire Wire Line
	10650 5500 10650 5550
$Comp
L HEADER_3 U13
U 1 1 55262FDB
P 9850 6100
F 0 "U13" H 9850 5900 60  0000 C CNN
F 1 "HEADER_3" H 9850 6350 60  0000 C CNN
F 2 "Pin_Headers:Pin_Header_Straight_1x03" H 9850 6100 60  0001 C CNN
F 3 "" H 9850 6100 60  0000 C CNN
	1    9850 6100
	1    0    0    -1  
$EndComp
$Comp
L +BATT #PWR047
U 1 1 55262FE1
P 9600 6000
F 0 "#PWR047" H 9600 5950 20  0001 C CNN
F 1 "+BATT" H 9600 6100 30  0000 C CNN
F 2 "" H 9600 6000 60  0000 C CNN
F 3 "" H 9600 6000 60  0000 C CNN
	1    9600 6000
	1    0    0    -1  
$EndComp
$Comp
L GND #PWR048
U 1 1 55262FE7
P 9600 6250
F 0 "#PWR048" H 9600 6250 30  0001 C CNN
F 1 "GND" H 9600 6180 30  0001 C CNN
F 2 "" H 9600 6250 60  0000 C CNN
F 3 "" H 9600 6250 60  0000 C CNN
	1    9600 6250
	1    0    0    -1  
$EndComp
Wire Wire Line
	9600 6200 9600 6250
$Comp
L HEADER_3 U14
U 1 1 552630FF
P 10900 6100
F 0 "U14" H 10900 5900 60  0000 C CNN
F 1 "HEADER_3" H 10900 6350 60  0000 C CNN
F 2 "Pin_Headers:Pin_Header_Straight_1x03" H 10900 6100 60  0001 C CNN
F 3 "" H 10900 6100 60  0000 C CNN
	1    10900 6100
	1    0    0    -1  
$EndComp
$Comp
L +BATT #PWR049
U 1 1 55263105
P 10650 6000
F 0 "#PWR049" H 10650 5950 20  0001 C CNN
F 1 "+BATT" H 10650 6100 30  0000 C CNN
F 2 "" H 10650 6000 60  0000 C CNN
F 3 "" H 10650 6000 60  0000 C CNN
	1    10650 6000
	1    0    0    -1  
$EndComp
$Comp
L GND #PWR050
U 1 1 5526310B
P 10650 6250
F 0 "#PWR050" H 10650 6250 30  0001 C CNN
F 1 "GND" H 10650 6180 30  0001 C CNN
F 2 "" H 10650 6250 60  0000 C CNN
F 3 "" H 10650 6250 60  0000 C CNN
	1    10650 6250
	1    0    0    -1  
$EndComp
Wire Wire Line
	10650 6200 10650 6250
$Comp
L DIODE D1
U 1 1 55264A71
P 9050 900
F 0 "D1" H 9050 1000 40  0000 C CNN
F 1 "CD0603-B00340" H 9050 800 40  0000 C CNN
F 2 "Capacitors_SMD:C_0603" H 9050 900 60  0001 C CNN
F 3 "" H 9050 900 60  0000 C CNN
	1    9050 900 
	-1   0    0    1   
$EndComp
Wire Wire Line
	9250 900  9250 1150
Wire Wire Line
	9250 1150 9400 1150
Text Label 9400 1150 0    60   ~ 0
Reset
Wire Wire Line
	9650 3500 9950 3500
Text Label 9950 3500 0    60   ~ 0
Reset
$Comp
L BSS138 Q1
U 1 1 55271540
P 1400 3250
F 0 "Q1" H 1400 3101 40  0000 R CNN
F 1 "BSS138" H 1400 3400 40  0000 R CNN
F 2 "Housings_SOT-23_SOT-143_TSOT-6:SOT-23" H 1270 3352 29  0001 C CNN
F 3 "" H 1400 3250 60  0000 C CNN
	1    1400 3250
	1    0    0    -1  
$EndComp
$Comp
L R R7
U 1 1 552717DE
P 1500 2750
F 0 "R7" V 1580 2750 40  0000 C CNN
F 1 "270" V 1507 2751 40  0000 C CNN
F 2 "Resistors_SMD:R_0402" V 1430 2750 30  0001 C CNN
F 3 "" H 1500 2750 30  0000 C CNN
	1    1500 2750
	1    0    0    -1  
$EndComp
$Comp
L R R3
U 1 1 552718C5
P 900 3300
F 0 "R3" V 980 3300 40  0000 C CNN
F 1 "10k" V 907 3301 40  0000 C CNN
F 2 "Resistors_SMD:R_0402" V 830 3300 30  0001 C CNN
F 3 "" H 900 3300 30  0000 C CNN
	1    900  3300
	0    1    1    0   
$EndComp
$Comp
L R R1
U 1 1 55271AC1
P 600 3550
F 0 "R1" V 680 3550 40  0000 C CNN
F 1 "100k" V 607 3551 40  0000 C CNN
F 2 "Resistors_SMD:R_0402" V 530 3550 30  0001 C CNN
F 3 "" H 600 3550 30  0000 C CNN
	1    600  3550
	-1   0    0    1   
$EndComp
$Comp
L GND #PWR051
U 1 1 55271B71
P 600 3850
F 0 "#PWR051" H 600 3850 30  0001 C CNN
F 1 "GND" H 600 3780 30  0001 C CNN
F 2 "" H 600 3850 60  0000 C CNN
F 3 "" H 600 3850 60  0000 C CNN
	1    600  3850
	1    0    0    -1  
$EndComp
$Comp
L GND #PWR052
U 1 1 55271C05
P 1500 3500
F 0 "#PWR052" H 1500 3500 30  0001 C CNN
F 1 "GND" H 1500 3430 30  0001 C CNN
F 2 "" H 1500 3500 60  0000 C CNN
F 3 "" H 1500 3500 60  0000 C CNN
	1    1500 3500
	1    0    0    -1  
$EndComp
$Comp
L +3.3V #PWR053
U 1 1 55271D99
P 1500 2100
F 0 "#PWR053" H 1500 2060 30  0001 C CNN
F 1 "+3.3V" H 1500 2210 30  0000 C CNN
F 2 "" H 1500 2100 60  0000 C CNN
F 3 "" H 1500 2100 60  0000 C CNN
	1    1500 2100
	1    0    0    -1  
$EndComp
Wire Wire Line
	600  3800 600  3850
Wire Wire Line
	600  3300 650  3300
Wire Wire Line
	1150 3300 1200 3300
Wire Wire Line
	1500 3450 1500 3500
Wire Wire Line
	1500 3000 1500 3050
Text Label 6900 4500 0    60   ~ 0
LED_1
Text Label 600  3200 0    60   ~ 0
LED_1
Wire Wire Line
	600  3300 600  3200
$Comp
L BSS138 Q2
U 1 1 55274D1A
P 1650 3650
F 0 "Q2" H 1650 3501 40  0000 R CNN
F 1 "BSS138" H 1650 3800 40  0000 R CNN
F 2 "Housings_SOT-23_SOT-143_TSOT-6:SOT-23" H 1520 3752 29  0001 C CNN
F 3 "" H 1650 3650 60  0000 C CNN
	1    1650 3650
	1    0    0    -1  
$EndComp
$Comp
L R R8
U 1 1 55274D20
P 1750 3150
F 0 "R8" V 1830 3150 40  0000 C CNN
F 1 "270" V 1757 3151 40  0000 C CNN
F 2 "Resistors_SMD:R_0402" V 1680 3150 30  0001 C CNN
F 3 "" H 1750 3150 30  0000 C CNN
	1    1750 3150
	1    0    0    -1  
$EndComp
$Comp
L R R5
U 1 1 55274D26
P 1150 3700
F 0 "R5" V 1230 3700 40  0000 C CNN
F 1 "10k" V 1157 3701 40  0000 C CNN
F 2 "Resistors_SMD:R_0402" V 1080 3700 30  0001 C CNN
F 3 "" H 1150 3700 30  0000 C CNN
	1    1150 3700
	0    1    1    0   
$EndComp
$Comp
L R R2
U 1 1 55274D2C
P 850 3950
F 0 "R2" V 930 3950 40  0000 C CNN
F 1 "100k" V 857 3951 40  0000 C CNN
F 2 "Resistors_SMD:R_0402" V 780 3950 30  0001 C CNN
F 3 "" H 850 3950 30  0000 C CNN
	1    850  3950
	-1   0    0    1   
$EndComp
$Comp
L GND #PWR054
U 1 1 55274D32
P 850 4250
F 0 "#PWR054" H 850 4250 30  0001 C CNN
F 1 "GND" H 850 4180 30  0001 C CNN
F 2 "" H 850 4250 60  0000 C CNN
F 3 "" H 850 4250 60  0000 C CNN
	1    850  4250
	1    0    0    -1  
$EndComp
$Comp
L GND #PWR055
U 1 1 55274D38
P 1750 3900
F 0 "#PWR055" H 1750 3900 30  0001 C CNN
F 1 "GND" H 1750 3830 30  0001 C CNN
F 2 "" H 1750 3900 60  0000 C CNN
F 3 "" H 1750 3900 60  0000 C CNN
	1    1750 3900
	1    0    0    -1  
$EndComp
$Comp
L +3.3V #PWR056
U 1 1 55274D3E
P 1750 2500
F 0 "#PWR056" H 1750 2460 30  0001 C CNN
F 1 "+3.3V" H 1750 2610 30  0000 C CNN
F 2 "" H 1750 2500 60  0000 C CNN
F 3 "" H 1750 2500 60  0000 C CNN
	1    1750 2500
	1    0    0    -1  
$EndComp
Wire Wire Line
	850  4200 850  4250
Wire Wire Line
	850  3700 900  3700
Wire Wire Line
	1400 3700 1450 3700
Wire Wire Line
	1750 3850 1750 3900
Wire Wire Line
	1750 3400 1750 3450
Text Label 850  3600 0    60   ~ 0
LED_2
Wire Wire Line
	850  3700 850  3600
Text Label 6900 4600 0    60   ~ 0
LED_2
Text Label 6900 4700 0    60   ~ 0
LED_3
$Comp
L BSS138 Q3
U 1 1 55277FE4
P 1900 4000
F 0 "Q3" H 1900 3851 40  0000 R CNN
F 1 "BSS138" H 1900 4150 40  0000 R CNN
F 2 "Housings_SOT-23_SOT-143_TSOT-6:SOT-23" H 1770 4102 29  0001 C CNN
F 3 "" H 1900 4000 60  0000 C CNN
	1    1900 4000
	1    0    0    -1  
$EndComp
$Comp
L R R6
U 1 1 55277FEA
P 1400 4050
F 0 "R6" V 1480 4050 40  0000 C CNN
F 1 "10k" V 1407 4051 40  0000 C CNN
F 2 "Resistors_SMD:R_0402" V 1330 4050 30  0001 C CNN
F 3 "" H 1400 4050 30  0000 C CNN
	1    1400 4050
	0    1    1    0   
$EndComp
$Comp
L R R4
U 1 1 55277FF0
P 1100 4300
F 0 "R4" V 1180 4300 40  0000 C CNN
F 1 "100k" V 1107 4301 40  0000 C CNN
F 2 "Resistors_SMD:R_0402" V 1030 4300 30  0001 C CNN
F 3 "" H 1100 4300 30  0000 C CNN
	1    1100 4300
	-1   0    0    1   
$EndComp
$Comp
L GND #PWR057
U 1 1 55277FF6
P 1100 4600
F 0 "#PWR057" H 1100 4600 30  0001 C CNN
F 1 "GND" H 1100 4530 30  0001 C CNN
F 2 "" H 1100 4600 60  0000 C CNN
F 3 "" H 1100 4600 60  0000 C CNN
	1    1100 4600
	1    0    0    -1  
$EndComp
$Comp
L GND #PWR058
U 1 1 55277FFC
P 2000 4250
F 0 "#PWR058" H 2000 4250 30  0001 C CNN
F 1 "GND" H 2000 4180 30  0001 C CNN
F 2 "" H 2000 4250 60  0000 C CNN
F 3 "" H 2000 4250 60  0000 C CNN
	1    2000 4250
	1    0    0    -1  
$EndComp
Wire Wire Line
	1100 4550 1100 4600
Wire Wire Line
	1100 4050 1150 4050
Wire Wire Line
	1650 4050 1700 4050
Wire Wire Line
	2000 4200 2000 4250
Wire Wire Line
	1100 4050 1100 3950
$Comp
L R R9
U 1 1 55278136
P 2000 3550
F 0 "R9" V 2080 3550 40  0000 C CNN
F 1 "270" V 2007 3551 40  0000 C CNN
F 2 "Resistors_SMD:R_0402" V 1930 3550 30  0001 C CNN
F 3 "" H 2000 3550 30  0000 C CNN
	1    2000 3550
	1    0    0    -1  
$EndComp
$Comp
L +3.3V #PWR059
U 1 1 5527813C
P 2000 2900
F 0 "#PWR059" H 2000 2860 30  0001 C CNN
F 1 "+3.3V" H 2000 3010 30  0000 C CNN
F 2 "" H 2000 2900 60  0000 C CNN
F 3 "" H 2000 2900 60  0000 C CNN
	1    2000 2900
	1    0    0    -1  
$EndComp
Text Label 1100 3950 0    60   ~ 0
LED_3
Wire Wire Line
	6600 1700 6600 1650
Wire Wire Line
	8050 2100 8050 2200
Connection ~ 8050 2200
Wire Wire Line
	9600 5300 9600 5250
NoConn ~ 4450 3550
NoConn ~ 4450 3650
$Comp
L SW_PUSH SW2
U 1 1 5522B459
P 8850 1200
F 0 "SW2" H 9000 1310 50  0000 C CNN
F 1 "EVQ11" H 8850 1120 50  0000 C CNN
F 2 "cc3200_quad_footprints:EVQ11_Push_Switch" H 8850 1200 60  0001 C CNN
F 3 "" H 8850 1200 60  0000 C CNN
	1    8850 1200
	0    -1   -1   0   
$EndComp
$Comp
L CONN_01X07 P1
U 1 1 5529BA6B
P 6800 6000
F 0 "P1" H 6800 6400 50  0000 C CNN
F 1 "CONN_01X07" V 6900 6000 50  0000 C CNN
F 2 "Pin_Headers:Pin_Header_Straight_1x07" H 6800 6000 60  0001 C CNN
F 3 "" H 6800 6000 60  0000 C CNN
	1    6800 6000
	1    0    0    -1  
$EndComp
Wire Wire Line
	5700 5650 5700 5450
Wire Wire Line
	6600 5800 5700 5800
Wire Wire Line
	5700 5800 5700 5600
Connection ~ 5700 5600
Wire Wire Line
	5600 5450 5600 5900
Wire Wire Line
	5600 5900 6600 5900
Wire Wire Line
	5500 5450 5500 6000
Text Label 8900 2400 0    60   ~ 0
rx
Text Label 8900 2550 0    60   ~ 0
tx
Text Label 6600 6100 2    60   ~ 0
rx
Text Label 6600 6200 2    60   ~ 0
tx
Wire Wire Line
	5050 5550 5150 5550
$Comp
L LED D2
U 1 1 552ADD27
P 1500 2300
F 0 "D2" H 1500 2400 50  0000 C CNN
F 1 "LED" H 1500 2200 50  0000 C CNN
F 2 "Capacitors_SMD:C_0603_HandSoldering" H 1500 2300 60  0001 C CNN
F 3 "" H 1500 2300 60  0000 C CNN
	1    1500 2300
	0    1    1    0   
$EndComp
$Comp
L LED D3
U 1 1 552ADEF7
P 1750 2700
F 0 "D3" H 1750 2800 50  0000 C CNN
F 1 "LED" H 1750 2600 50  0000 C CNN
F 2 "Capacitors_SMD:C_0603_HandSoldering" H 1750 2700 60  0001 C CNN
F 3 "" H 1750 2700 60  0000 C CNN
	1    1750 2700
	0    1    1    0   
$EndComp
$Comp
L LED D4
U 1 1 552ADF56
P 2000 3100
F 0 "D4" H 2000 3200 50  0000 C CNN
F 1 "LED" H 2000 3000 50  0000 C CNN
F 2 "Capacitors_SMD:C_0603_HandSoldering" H 2000 3100 60  0001 C CNN
F 3 "" H 2000 3100 60  0000 C CNN
	1    2000 3100
	0    1    1    0   
$EndComp
$Comp
L SWITCH_INV SW1
U 1 1 552C8BEE
P 4100 5950
F 0 "SW1" H 3900 6100 50  0000 C CNN
F 1 "SWITCH_INV" H 3950 5800 50  0000 C CNN
F 2 "cc3200_quad_footprints:JS102011SAQN" H 4100 5950 60  0001 C CNN
F 3 "" H 4100 5950 60  0000 C CNN
	1    4100 5950
	1    0    0    -1  
$EndComp
Wire Wire Line
	4600 5500 4600 5850
Wire Wire Line
	4600 6300 4600 6050
Wire Wire Line
	3300 5800 3300 5950
Wire Wire Line
	3300 5950 3600 5950
$EndSCHEMATC
