EESchema Schematic File Version 2
LIBS:power
LIBS:device
LIBS:transistors
LIBS:conn
LIBS:linear
LIBS:regul
LIBS:74xx
LIBS:cmos4000
LIBS:adc-dac
LIBS:memory
LIBS:xilinx
LIBS:special
LIBS:microcontrollers
LIBS:dsp
LIBS:microchip
LIBS:analog_switches
LIBS:motorola
LIBS:texas
LIBS:intel
LIBS:audio
LIBS:interface
LIBS:digital-audio
LIBS:philips
LIBS:display
LIBS:cypress
LIBS:siliconi
LIBS:opto
LIBS:atmel
LIBS:contrib
LIBS:valves
LIBS:cc3200_quad
LIBS:cc3200_quad-cache
EELAYER 25 0
EELAYER END
$Descr A4 11693 8268
encoding utf-8
Sheet 4 7
Title ""
Date ""
Rev ""
Comp ""
Comment1 ""
Comment2 ""
Comment3 ""
Comment4 ""
$EndDescr
$Comp
L MOSFET_N Q?
U 1 1 55231E88
P 4100 2900
F 0 "Q?" H 4110 3070 60  0000 R CNN
F 1 "ST95N2LH5" H 4110 2750 60  0000 R CNN
F 2 "" H 4100 2900 60  0000 C CNN
F 3 "" H 4100 2900 60  0000 C CNN
	1    4100 2900
	1    0    0    -1  
$EndComp
$Comp
L NPN Q?
U 1 1 55231ED0
P 3150 2250
F 0 "Q?" H 3150 2100 50  0000 R CNN
F 1 "BC546" H 3150 2400 50  0000 R CNN
F 2 "" H 3150 2250 60  0000 C CNN
F 3 "" H 3150 2250 60  0000 C CNN
	1    3150 2250
	1    0    0    -1  
$EndComp
$Comp
L R R?
U 1 1 55231F01
P 2600 2250
F 0 "R?" V 2680 2250 40  0000 C CNN
F 1 "100" V 2607 2251 40  0000 C CNN
F 2 "" V 2530 2250 30  0000 C CNN
F 3 "" H 2600 2250 30  0000 C CNN
	1    2600 2250
	0    1    1    0   
$EndComp
$Comp
L R R?
U 1 1 55231F38
P 3250 1700
F 0 "R?" V 3330 1700 40  0000 C CNN
F 1 "10k" V 3257 1701 40  0000 C CNN
F 2 "" V 3180 1700 30  0000 C CNN
F 3 "" H 3250 1700 30  0000 C CNN
	1    3250 1700
	1    0    0    -1  
$EndComp
$Comp
L DC_Motor U?
U 1 1 55232207
P 4200 2150
F 0 "U?" H 4200 2000 60  0000 C CNN
F 1 "DC_Motor" H 4200 2450 60  0000 C CNN
F 2 "" H 4200 2150 60  0000 C CNN
F 3 "" H 4200 2150 60  0000 C CNN
	1    4200 2150
	0    1    1    0   
$EndComp
$Comp
L GND #PWR?
U 1 1 55232246
P 4200 3100
F 0 "#PWR?" H 4200 3100 30  0001 C CNN
F 1 "GND" H 4200 3030 30  0001 C CNN
F 2 "" H 4200 3100 60  0000 C CNN
F 3 "" H 4200 3100 60  0000 C CNN
	1    4200 3100
	1    0    0    -1  
$EndComp
$Comp
L GND #PWR?
U 1 1 5523225D
P 3250 2550
F 0 "#PWR?" H 3250 2550 30  0001 C CNN
F 1 "GND" H 3250 2480 30  0001 C CNN
F 2 "" H 3250 2550 60  0000 C CNN
F 3 "" H 3250 2550 60  0000 C CNN
	1    3250 2550
	1    0    0    -1  
$EndComp
$Comp
L DIODE D?
U 1 1 55232279
P 3750 2150
F 0 "D?" H 3750 2250 40  0000 C CNN
F 1 "1N4148" H 3750 2050 40  0000 C CNN
F 2 "" H 3750 2150 60  0000 C CNN
F 3 "" H 3750 2150 60  0000 C CNN
	1    3750 2150
	0    -1   -1   0   
$EndComp
Text HLabel 2250 2250 0    60   Input ~ 0
PWM_IN01
Text HLabel 2850 5100 0    60   Input ~ 0
PWM_IN03
Text HLabel 6750 2300 0    60   Input ~ 0
PWM_IN02
Text HLabel 6800 5050 0    60   Input ~ 0
PWM_IN04
Wire Wire Line
	4200 800  4200 1700
Wire Wire Line
	3750 1950 3750 1700
Wire Wire Line
	3750 1700 4200 1700
Wire Wire Line
	3250 1950 3250 2050
Wire Wire Line
	3250 2550 3250 2450
Wire Wire Line
	2850 2250 2950 2250
Wire Wire Line
	3750 2350 3750 2600
Wire Wire Line
	3750 2600 4200 2600
Wire Wire Line
	4200 2600 4200 2700
Wire Wire Line
	2250 2250 2350 2250
Wire Wire Line
	3250 1450 3250 800 
Wire Wire Line
	3900 2900 3600 2900
Wire Wire Line
	3600 2900 3600 2050
Wire Wire Line
	3600 2050 3250 2050
Text Notes 700  650  0    60   ~ 0
2 x 1s LiPo in Series -> 7.6V
$Comp
L MOSFET_N Q?
U 1 1 55240B7D
P 8600 2950
F 0 "Q?" H 8610 3120 60  0000 R CNN
F 1 "ST95N2LH5" H 8610 2800 60  0000 R CNN
F 2 "" H 8600 2950 60  0000 C CNN
F 3 "" H 8600 2950 60  0000 C CNN
	1    8600 2950
	1    0    0    -1  
$EndComp
$Comp
L NPN Q?
U 1 1 55240B83
P 7650 2300
F 0 "Q?" H 7650 2150 50  0000 R CNN
F 1 "BC546" H 7650 2450 50  0000 R CNN
F 2 "" H 7650 2300 60  0000 C CNN
F 3 "" H 7650 2300 60  0000 C CNN
	1    7650 2300
	1    0    0    -1  
$EndComp
$Comp
L R R?
U 1 1 55240B89
P 7100 2300
F 0 "R?" V 7180 2300 40  0000 C CNN
F 1 "100" V 7107 2301 40  0000 C CNN
F 2 "" V 7030 2300 30  0000 C CNN
F 3 "" H 7100 2300 30  0000 C CNN
	1    7100 2300
	0    1    1    0   
$EndComp
$Comp
L R R?
U 1 1 55240B8F
P 7750 1750
F 0 "R?" V 7830 1750 40  0000 C CNN
F 1 "10k" V 7757 1751 40  0000 C CNN
F 2 "" V 7680 1750 30  0000 C CNN
F 3 "" H 7750 1750 30  0000 C CNN
	1    7750 1750
	1    0    0    -1  
$EndComp
$Comp
L DC_Motor U?
U 1 1 55240B95
P 8700 2200
F 0 "U?" H 8700 2050 60  0000 C CNN
F 1 "DC_Motor" H 8700 2500 60  0000 C CNN
F 2 "" H 8700 2200 60  0000 C CNN
F 3 "" H 8700 2200 60  0000 C CNN
	1    8700 2200
	0    1    1    0   
$EndComp
$Comp
L GND #PWR?
U 1 1 55240B9B
P 8700 3150
F 0 "#PWR?" H 8700 3150 30  0001 C CNN
F 1 "GND" H 8700 3080 30  0001 C CNN
F 2 "" H 8700 3150 60  0000 C CNN
F 3 "" H 8700 3150 60  0000 C CNN
	1    8700 3150
	1    0    0    -1  
$EndComp
$Comp
L GND #PWR?
U 1 1 55240BA1
P 7750 2600
F 0 "#PWR?" H 7750 2600 30  0001 C CNN
F 1 "GND" H 7750 2530 30  0001 C CNN
F 2 "" H 7750 2600 60  0000 C CNN
F 3 "" H 7750 2600 60  0000 C CNN
	1    7750 2600
	1    0    0    -1  
$EndComp
$Comp
L DIODE D?
U 1 1 55240BA7
P 8250 2200
F 0 "D?" H 8250 2300 40  0000 C CNN
F 1 "1N4148" H 8250 2100 40  0000 C CNN
F 2 "" H 8250 2200 60  0000 C CNN
F 3 "" H 8250 2200 60  0000 C CNN
	1    8250 2200
	0    -1   -1   0   
$EndComp
Wire Wire Line
	8700 850  8700 1750
Wire Wire Line
	8250 2000 8250 1750
Wire Wire Line
	8250 1750 8700 1750
Wire Wire Line
	7750 2000 7750 2100
Wire Wire Line
	7750 2600 7750 2500
Wire Wire Line
	7350 2300 7450 2300
Wire Wire Line
	8250 2400 8250 2650
Wire Wire Line
	8250 2650 8700 2650
Wire Wire Line
	8700 2650 8700 2750
Wire Wire Line
	6750 2300 6850 2300
Wire Wire Line
	7750 1500 7750 850 
Wire Wire Line
	8400 2950 8100 2950
Wire Wire Line
	8100 2950 8100 2100
Wire Wire Line
	8100 2100 7750 2100
$Comp
L MOSFET_N Q?
U 1 1 55241006
P 4700 5750
F 0 "Q?" H 4710 5920 60  0000 R CNN
F 1 "ST95N2LH5" H 4710 5600 60  0000 R CNN
F 2 "" H 4700 5750 60  0000 C CNN
F 3 "" H 4700 5750 60  0000 C CNN
	1    4700 5750
	1    0    0    -1  
$EndComp
$Comp
L NPN Q?
U 1 1 5524100C
P 3750 5100
F 0 "Q?" H 3750 4950 50  0000 R CNN
F 1 "BC546" H 3750 5250 50  0000 R CNN
F 2 "" H 3750 5100 60  0000 C CNN
F 3 "" H 3750 5100 60  0000 C CNN
	1    3750 5100
	1    0    0    -1  
$EndComp
$Comp
L R R?
U 1 1 55241012
P 3200 5100
F 0 "R?" V 3280 5100 40  0000 C CNN
F 1 "100" V 3207 5101 40  0000 C CNN
F 2 "" V 3130 5100 30  0000 C CNN
F 3 "" H 3200 5100 30  0000 C CNN
	1    3200 5100
	0    1    1    0   
$EndComp
$Comp
L R R?
U 1 1 55241018
P 3850 4550
F 0 "R?" V 3930 4550 40  0000 C CNN
F 1 "10k" V 3857 4551 40  0000 C CNN
F 2 "" V 3780 4550 30  0000 C CNN
F 3 "" H 3850 4550 30  0000 C CNN
	1    3850 4550
	1    0    0    -1  
$EndComp
$Comp
L DC_Motor U?
U 1 1 5524101E
P 4800 5000
F 0 "U?" H 4800 4850 60  0000 C CNN
F 1 "DC_Motor" H 4800 5300 60  0000 C CNN
F 2 "" H 4800 5000 60  0000 C CNN
F 3 "" H 4800 5000 60  0000 C CNN
	1    4800 5000
	0    1    1    0   
$EndComp
$Comp
L GND #PWR?
U 1 1 55241024
P 4800 5950
F 0 "#PWR?" H 4800 5950 30  0001 C CNN
F 1 "GND" H 4800 5880 30  0001 C CNN
F 2 "" H 4800 5950 60  0000 C CNN
F 3 "" H 4800 5950 60  0000 C CNN
	1    4800 5950
	1    0    0    -1  
$EndComp
$Comp
L GND #PWR?
U 1 1 5524102A
P 3850 5400
F 0 "#PWR?" H 3850 5400 30  0001 C CNN
F 1 "GND" H 3850 5330 30  0001 C CNN
F 2 "" H 3850 5400 60  0000 C CNN
F 3 "" H 3850 5400 60  0000 C CNN
	1    3850 5400
	1    0    0    -1  
$EndComp
$Comp
L DIODE D?
U 1 1 55241030
P 4350 5000
F 0 "D?" H 4350 5100 40  0000 C CNN
F 1 "1N4148" H 4350 4900 40  0000 C CNN
F 2 "" H 4350 5000 60  0000 C CNN
F 3 "" H 4350 5000 60  0000 C CNN
	1    4350 5000
	0    -1   -1   0   
$EndComp
Wire Wire Line
	4800 3650 4800 4550
Wire Wire Line
	4350 4800 4350 4550
Wire Wire Line
	4350 4550 4800 4550
Wire Wire Line
	3850 4800 3850 4900
Wire Wire Line
	3850 5400 3850 5300
Wire Wire Line
	3450 5100 3550 5100
Wire Wire Line
	4350 5200 4350 5450
Wire Wire Line
	4350 5450 4800 5450
Wire Wire Line
	4800 5450 4800 5550
Wire Wire Line
	2850 5100 2950 5100
Wire Wire Line
	3850 4300 3850 3650
Wire Wire Line
	4500 5750 4200 5750
Wire Wire Line
	4200 5750 4200 4900
Wire Wire Line
	4200 4900 3850 4900
$Comp
L MOSFET_N Q?
U 1 1 552414CE
P 8650 5700
F 0 "Q?" H 8660 5870 60  0000 R CNN
F 1 "ST95N2LH5" H 8660 5550 60  0000 R CNN
F 2 "" H 8650 5700 60  0000 C CNN
F 3 "" H 8650 5700 60  0000 C CNN
	1    8650 5700
	1    0    0    -1  
$EndComp
$Comp
L NPN Q?
U 1 1 552414D4
P 7700 5050
F 0 "Q?" H 7700 4900 50  0000 R CNN
F 1 "BC546" H 7700 5200 50  0000 R CNN
F 2 "" H 7700 5050 60  0000 C CNN
F 3 "" H 7700 5050 60  0000 C CNN
	1    7700 5050
	1    0    0    -1  
$EndComp
$Comp
L R R?
U 1 1 552414DA
P 7150 5050
F 0 "R?" V 7230 5050 40  0000 C CNN
F 1 "100" V 7157 5051 40  0000 C CNN
F 2 "" V 7080 5050 30  0000 C CNN
F 3 "" H 7150 5050 30  0000 C CNN
	1    7150 5050
	0    1    1    0   
$EndComp
$Comp
L R R?
U 1 1 552414E0
P 7800 4500
F 0 "R?" V 7880 4500 40  0000 C CNN
F 1 "10k" V 7807 4501 40  0000 C CNN
F 2 "" V 7730 4500 30  0000 C CNN
F 3 "" H 7800 4500 30  0000 C CNN
	1    7800 4500
	1    0    0    -1  
$EndComp
$Comp
L DC_Motor U?
U 1 1 552414E6
P 8750 4950
F 0 "U?" H 8750 4800 60  0000 C CNN
F 1 "DC_Motor" H 8750 5250 60  0000 C CNN
F 2 "" H 8750 4950 60  0000 C CNN
F 3 "" H 8750 4950 60  0000 C CNN
	1    8750 4950
	0    1    1    0   
$EndComp
$Comp
L GND #PWR?
U 1 1 552414EC
P 8750 5900
F 0 "#PWR?" H 8750 5900 30  0001 C CNN
F 1 "GND" H 8750 5830 30  0001 C CNN
F 2 "" H 8750 5900 60  0000 C CNN
F 3 "" H 8750 5900 60  0000 C CNN
	1    8750 5900
	1    0    0    -1  
$EndComp
$Comp
L GND #PWR?
U 1 1 552414F2
P 7800 5350
F 0 "#PWR?" H 7800 5350 30  0001 C CNN
F 1 "GND" H 7800 5280 30  0001 C CNN
F 2 "" H 7800 5350 60  0000 C CNN
F 3 "" H 7800 5350 60  0000 C CNN
	1    7800 5350
	1    0    0    -1  
$EndComp
$Comp
L DIODE D?
U 1 1 552414F8
P 8300 4950
F 0 "D?" H 8300 5050 40  0000 C CNN
F 1 "1N4148" H 8300 4850 40  0000 C CNN
F 2 "" H 8300 4950 60  0000 C CNN
F 3 "" H 8300 4950 60  0000 C CNN
	1    8300 4950
	0    -1   -1   0   
$EndComp
Wire Wire Line
	8750 3600 8750 4500
Wire Wire Line
	8300 4750 8300 4500
Wire Wire Line
	8300 4500 8750 4500
Wire Wire Line
	7800 4750 7800 4850
Wire Wire Line
	7800 5350 7800 5250
Wire Wire Line
	7400 5050 7500 5050
Wire Wire Line
	8300 5150 8300 5400
Wire Wire Line
	8300 5400 8750 5400
Wire Wire Line
	8750 5400 8750 5500
Wire Wire Line
	6800 5050 6900 5050
Wire Wire Line
	7800 4250 7800 3600
Wire Wire Line
	8450 5700 8150 5700
Wire Wire Line
	8150 5700 8150 4850
Wire Wire Line
	8150 4850 7800 4850
$Comp
L +BATT #PWR?
U 1 1 5525977E
P 3700 700
F 0 "#PWR?" H 3700 650 20  0001 C CNN
F 1 "+BATT" H 3700 800 30  0000 C CNN
F 2 "" H 3700 700 60  0000 C CNN
F 3 "" H 3700 700 60  0000 C CNN
	1    3700 700 
	1    0    0    -1  
$EndComp
$Comp
L +BATT #PWR?
U 1 1 55259E90
P 4300 3600
F 0 "#PWR?" H 4300 3550 20  0001 C CNN
F 1 "+BATT" H 4300 3700 30  0000 C CNN
F 2 "" H 4300 3600 60  0000 C CNN
F 3 "" H 4300 3600 60  0000 C CNN
	1    4300 3600
	1    0    0    -1  
$EndComp
$Comp
L +BATT #PWR?
U 1 1 55259FFB
P 8250 3550
F 0 "#PWR?" H 8250 3500 20  0001 C CNN
F 1 "+BATT" H 8250 3650 30  0000 C CNN
F 2 "" H 8250 3550 60  0000 C CNN
F 3 "" H 8250 3550 60  0000 C CNN
	1    8250 3550
	1    0    0    -1  
$EndComp
$Comp
L +BATT #PWR?
U 1 1 5525A166
P 8200 700
F 0 "#PWR?" H 8200 650 20  0001 C CNN
F 1 "+BATT" H 8200 800 30  0000 C CNN
F 2 "" H 8200 700 60  0000 C CNN
F 3 "" H 8200 700 60  0000 C CNN
	1    8200 700 
	1    0    0    -1  
$EndComp
Wire Wire Line
	3250 800  4200 800 
Wire Wire Line
	3700 700  3700 800 
Connection ~ 3700 800 
Wire Wire Line
	7750 850  8700 850 
Wire Wire Line
	8200 700  8200 850 
Connection ~ 8200 850 
Wire Wire Line
	3850 3650 4800 3650
Wire Wire Line
	4300 3600 4300 3650
Connection ~ 4300 3650
Wire Wire Line
	7800 3600 8750 3600
Wire Wire Line
	8250 3600 8250 3550
Connection ~ 8250 3600
$EndSCHEMATC
