EESchema Schematic File Version 2
LIBS:power
LIBS:device
LIBS:transistors
LIBS:conn
LIBS:linear
LIBS:regul
LIBS:74xx
LIBS:cmos4000
LIBS:adc-dac
LIBS:memory
LIBS:xilinx
LIBS:special
LIBS:microcontrollers
LIBS:dsp
LIBS:microchip
LIBS:analog_switches
LIBS:motorola
LIBS:texas
LIBS:intel
LIBS:audio
LIBS:interface
LIBS:digital-audio
LIBS:philips
LIBS:display
LIBS:cypress
LIBS:siliconi
LIBS:opto
LIBS:atmel
LIBS:contrib
LIBS:valves
LIBS:cc3200_quad
LIBS:dips-s
LIBS:cc3200_quad-cache
EELAYER 25 0
EELAYER END
$Descr A4 11693 8268
encoding utf-8
Sheet 4 4
Title ""
Date ""
Rev ""
Comp ""
Comment1 ""
Comment2 ""
Comment3 ""
Comment4 ""
$EndDescr
$Comp
L MPU6050 U8
U 1 1 55C7B588
P 5650 3600
F 0 "U8" H 5650 3650 60  0000 C CNN
F 1 "MPU6050" H 5650 3550 60  0000 C CNN
F 2 "cc3200_quad_footprints:MPU-6050" H 5650 3600 60  0001 C CNN
F 3 "" H 5650 3600 60  0000 C CNN
	1    5650 3600
	1    0    0    -1  
$EndComp
$Comp
L +3.3V #PWR076
U 1 1 55C7C6F7
P 6500 3800
F 0 "#PWR076" H 6500 3760 30  0001 C CNN
F 1 "+3.3V" H 6500 3910 30  0000 C CNN
F 2 "" H 6500 3800 60  0000 C CNN
F 3 "" H 6500 3800 60  0000 C CNN
	1    6500 3800
	1    0    0    -1  
$EndComp
$Comp
L GND #PWR077
U 1 1 55C7C712
P 6500 3350
F 0 "#PWR077" H 6500 3350 30  0001 C CNN
F 1 "GND" H 6500 3280 30  0001 C CNN
F 2 "" H 6500 3350 60  0000 C CNN
F 3 "" H 6500 3350 60  0000 C CNN
	1    6500 3350
	0    -1   -1   0   
$EndComp
$Comp
L C C29
U 1 1 55C7C727
P 5800 2600
F 0 "C29" H 5800 2700 40  0000 L CNN
F 1 "2.2nF" H 5806 2515 40  0000 L CNN
F 2 "Capacitors_SMD:C_0603" H 5838 2450 30  0001 C CNN
F 3 "" H 5800 2600 60  0000 C CNN
	1    5800 2600
	1    0    0    -1  
$EndComp
$Comp
L C C30
U 1 1 55C7C7D4
P 6450 4100
F 0 "C30" H 6450 4200 40  0000 L CNN
F 1 "0.1uF" H 6456 4015 40  0000 L CNN
F 2 "Capacitors_SMD:C_0402" H 6488 3950 30  0001 C CNN
F 3 "" H 6450 4100 60  0000 C CNN
	1    6450 4100
	1    0    0    -1  
$EndComp
$Comp
L C C28
U 1 1 55C7C842
P 5700 4650
F 0 "C28" H 5700 4750 40  0000 L CNN
F 1 "0.1uF" H 5706 4565 40  0000 L CNN
F 2 "Capacitors_SMD:C_0402" H 5738 4500 30  0001 C CNN
F 3 "" H 5700 4650 60  0000 C CNN
	1    5700 4650
	1    0    0    -1  
$EndComp
$Comp
L C C27
U 1 1 55C7C870
P 5500 4650
F 0 "C27" H 5500 4750 40  0000 L CNN
F 1 "10nF" H 5506 4565 40  0000 L CNN
F 2 "Capacitors_SMD:C_0402" H 5538 4500 30  0001 C CNN
F 3 "" H 5500 4650 60  0000 C CNN
	1    5500 4650
	1    0    0    -1  
$EndComp
$Comp
L GND #PWR078
U 1 1 55C7C8A8
P 5800 2300
F 0 "#PWR078" H 5800 2300 30  0001 C CNN
F 1 "GND" H 5800 2230 30  0001 C CNN
F 2 "" H 5800 2300 60  0000 C CNN
F 3 "" H 5800 2300 60  0000 C CNN
	1    5800 2300
	-1   0    0    1   
$EndComp
$Comp
L GND #PWR079
U 1 1 55C7C8B8
P 6450 4400
F 0 "#PWR079" H 6450 4400 30  0001 C CNN
F 1 "GND" H 6450 4330 30  0001 C CNN
F 2 "" H 6450 4400 60  0000 C CNN
F 3 "" H 6450 4400 60  0000 C CNN
	1    6450 4400
	1    0    0    -1  
$EndComp
$Comp
L GND #PWR080
U 1 1 55C7C8D7
P 5700 4950
F 0 "#PWR080" H 5700 4950 30  0001 C CNN
F 1 "GND" H 5700 4880 30  0001 C CNN
F 2 "" H 5700 4950 60  0000 C CNN
F 3 "" H 5700 4950 60  0000 C CNN
	1    5700 4950
	1    0    0    -1  
$EndComp
$Comp
L GND #PWR081
U 1 1 55C7C8E7
P 5500 4950
F 0 "#PWR081" H 5500 4950 30  0001 C CNN
F 1 "GND" H 5500 4880 30  0001 C CNN
F 2 "" H 5500 4950 60  0000 C CNN
F 3 "" H 5500 4950 60  0000 C CNN
	1    5500 4950
	1    0    0    -1  
$EndComp
$Comp
L +3.3V #PWR082
U 1 1 55C7C947
P 5250 4400
F 0 "#PWR082" H 5250 4360 30  0001 C CNN
F 1 "+3.3V" H 5250 4510 30  0000 C CNN
F 2 "" H 5250 4400 60  0000 C CNN
F 3 "" H 5250 4400 60  0000 C CNN
	1    5250 4400
	1    0    0    -1  
$EndComp
Wire Wire Line
	5800 2400 5800 2300
Wire Wire Line
	5800 2900 5800 2800
Wire Wire Line
	6400 3350 6500 3350
Wire Wire Line
	6400 3850 6500 3850
Wire Wire Line
	6450 3850 6450 3900
Wire Wire Line
	6500 3850 6500 3800
Connection ~ 6450 3850
Wire Wire Line
	6450 4400 6450 4300
Wire Wire Line
	5700 4450 5700 4300
Wire Wire Line
	5700 4950 5700 4850
Wire Wire Line
	5500 4950 5500 4850
Wire Wire Line
	5500 4450 5500 4300
Wire Wire Line
	5250 4400 5250 4450
Wire Wire Line
	5250 4450 5500 4450
$Comp
L GND #PWR083
U 1 1 55C7D44D
P 4800 3350
F 0 "#PWR083" H 4800 3350 30  0001 C CNN
F 1 "GND" H 4800 3280 30  0001 C CNN
F 2 "" H 4800 3350 60  0000 C CNN
F 3 "" H 4800 3350 60  0000 C CNN
	1    4800 3350
	0    1    1    0   
$EndComp
Wire Wire Line
	4800 3350 4900 3350
NoConn ~ 4900 3850
NoConn ~ 5400 4300
$Comp
L GND #PWR084
U 1 1 55C7D686
P 5600 4400
F 0 "#PWR084" H 5600 4400 30  0001 C CNN
F 1 "GND" H 5600 4330 30  0001 C CNN
F 2 "" H 5600 4400 60  0000 C CNN
F 3 "" H 5600 4400 60  0000 C CNN
	1    5600 4400
	1    0    0    -1  
$EndComp
Wire Wire Line
	5600 4400 5600 4300
$Comp
L GND #PWR085
U 1 1 55C7D8A8
P 5800 4400
F 0 "#PWR085" H 5800 4400 30  0001 C CNN
F 1 "GND" H 5800 4330 30  0001 C CNN
F 2 "" H 5800 4400 60  0000 C CNN
F 3 "" H 5800 4400 60  0000 C CNN
	1    5800 4400
	1    0    0    -1  
$EndComp
Wire Wire Line
	5800 4400 5800 4300
NoConn ~ 5900 4300
NoConn ~ 5900 2900
NoConn ~ 5700 2900
NoConn ~ 5600 2900
Text HLabel 5500 2800 1    60   Input ~ 0
SCL
Text HLabel 5400 2800 1    60   Input ~ 0
SDA
Wire Wire Line
	5500 2900 5500 2800
Wire Wire Line
	5400 2900 5400 2800
$EndSCHEMATC
