EESchema Schematic File Version 2
LIBS:power
LIBS:device
LIBS:transistors
LIBS:conn
LIBS:linear
LIBS:regul
LIBS:74xx
LIBS:cmos4000
LIBS:adc-dac
LIBS:memory
LIBS:xilinx
LIBS:special
LIBS:microcontrollers
LIBS:dsp
LIBS:microchip
LIBS:analog_switches
LIBS:motorola
LIBS:texas
LIBS:intel
LIBS:audio
LIBS:interface
LIBS:digital-audio
LIBS:philips
LIBS:display
LIBS:cypress
LIBS:siliconi
LIBS:opto
LIBS:atmel
LIBS:contrib
LIBS:valves
LIBS:cc3200_quad
LIBS:dips-s
LIBS:cc3200_quad-cache
EELAYER 25 0
EELAYER END
$Descr A4 11693 8268
encoding utf-8
Sheet 1 4
Title ""
Date ""
Rev ""
Comp ""
Comment1 ""
Comment2 ""
Comment3 ""
Comment4 ""
$EndDescr
$Comp
L C C20
U 1 1 552179E1
P 6600 1450
F 0 "C20" H 6600 1550 40  0000 L CNN
F 1 "0.1uF" H 6606 1365 40  0000 L CNN
F 2 "Capacitors_SMD:C_0402" H 6638 1300 30  0001 C CNN
F 3 "" H 6600 1450 60  0000 C CNN
	1    6600 1450
	1    0    0    -1  
$EndComp
$Comp
L GND #PWR01
U 1 1 55217A3F
P 6600 1700
F 0 "#PWR01" H 6600 1700 30  0001 C CNN
F 1 "GND" H 6600 1630 30  0001 C CNN
F 2 "" H 6600 1700 60  0000 C CNN
F 3 "" H 6600 1700 60  0000 C CNN
	1    6600 1700
	1    0    0    -1  
$EndComp
$Comp
L R R15
U 1 1 55217A93
P 6600 1000
F 0 "R15" V 6680 1000 40  0000 C CNN
F 1 "100k" V 6607 1001 40  0000 C CNN
F 2 "Resistors_SMD:R_0402" V 6530 1000 30  0001 C CNN
F 3 "" H 6600 1000 30  0000 C CNN
	1    6600 1000
	1    0    0    -1  
$EndComp
$Comp
L +3.3V #PWR02
U 1 1 55217ADA
P 6600 750
F 0 "#PWR02" H 6600 710 30  0001 C CNN
F 1 "+3.3V" H 6600 860 30  0000 C CNN
F 2 "" H 6600 750 60  0000 C CNN
F 3 "" H 6600 750 60  0000 C CNN
	1    6600 750 
	1    0    0    -1  
$EndComp
$Comp
L C C19
U 1 1 55217C26
P 5850 1250
F 0 "C19" H 5850 1350 40  0000 L CNN
F 1 "0.1uF" H 5856 1165 40  0000 L CNN
F 2 "Capacitors_SMD:C_0402" H 5888 1100 30  0001 C CNN
F 3 "" H 5850 1250 60  0000 C CNN
	1    5850 1250
	1    0    0    -1  
$EndComp
$Comp
L C C18
U 1 1 55217C6E
P 5650 1250
F 0 "C18" H 5650 1350 40  0000 L CNN
F 1 "0.1uF" H 5656 1165 40  0000 L CNN
F 2 "Capacitors_SMD:C_0402" H 5688 1100 30  0001 C CNN
F 3 "" H 5650 1250 60  0000 C CNN
	1    5650 1250
	1    0    0    -1  
$EndComp
$Comp
L C C17
U 1 1 55217CC0
P 5450 1250
F 0 "C17" H 5450 1350 40  0000 L CNN
F 1 "4.7uF" H 5456 1165 40  0000 L CNN
F 2 "Capacitors_SMD:C_0402" H 5488 1100 30  0001 C CNN
F 3 "" H 5450 1250 60  0000 C CNN
	1    5450 1250
	1    0    0    -1  
$EndComp
$Comp
L C C16
U 1 1 55217CDE
P 5250 1250
F 0 "C16" H 5250 1350 40  0000 L CNN
F 1 "4.7uF" H 5256 1165 40  0000 L CNN
F 2 "Capacitors_SMD:C_0402" H 5288 1100 30  0001 C CNN
F 3 "" H 5250 1250 60  0000 C CNN
	1    5250 1250
	1    0    0    -1  
$EndComp
$Comp
L C C15
U 1 1 55217D24
P 5050 1250
F 0 "C15" H 5050 1350 40  0000 L CNN
F 1 "4.7uF" H 5056 1165 40  0000 L CNN
F 2 "Capacitors_SMD:C_0402" H 5088 1100 30  0001 C CNN
F 3 "" H 5050 1250 60  0000 C CNN
	1    5050 1250
	1    0    0    -1  
$EndComp
$Comp
L GND #PWR03
U 1 1 55217E02
P 5850 1450
F 0 "#PWR03" H 5850 1450 30  0001 C CNN
F 1 "GND" H 5850 1380 30  0001 C CNN
F 2 "" H 5850 1450 60  0000 C CNN
F 3 "" H 5850 1450 60  0000 C CNN
	1    5850 1450
	1    0    0    -1  
$EndComp
$Comp
L GND #PWR04
U 1 1 55217E3C
P 5650 1450
F 0 "#PWR04" H 5650 1450 30  0001 C CNN
F 1 "GND" H 5650 1380 30  0001 C CNN
F 2 "" H 5650 1450 60  0000 C CNN
F 3 "" H 5650 1450 60  0000 C CNN
	1    5650 1450
	1    0    0    -1  
$EndComp
$Comp
L GND #PWR05
U 1 1 55217E57
P 5450 1450
F 0 "#PWR05" H 5450 1450 30  0001 C CNN
F 1 "GND" H 5450 1380 30  0001 C CNN
F 2 "" H 5450 1450 60  0000 C CNN
F 3 "" H 5450 1450 60  0000 C CNN
	1    5450 1450
	1    0    0    -1  
$EndComp
$Comp
L GND #PWR06
U 1 1 55217E6A
P 5250 1450
F 0 "#PWR06" H 5250 1450 30  0001 C CNN
F 1 "GND" H 5250 1380 30  0001 C CNN
F 2 "" H 5250 1450 60  0000 C CNN
F 3 "" H 5250 1450 60  0000 C CNN
	1    5250 1450
	1    0    0    -1  
$EndComp
$Comp
L GND #PWR07
U 1 1 55217E7D
P 5050 1450
F 0 "#PWR07" H 5050 1450 30  0001 C CNN
F 1 "GND" H 5050 1380 30  0001 C CNN
F 2 "" H 5050 1450 60  0000 C CNN
F 3 "" H 5050 1450 60  0000 C CNN
	1    5050 1450
	1    0    0    -1  
$EndComp
$Comp
L +3.3V #PWR08
U 1 1 55218169
P 5550 850
F 0 "#PWR08" H 5550 810 30  0001 C CNN
F 1 "+3.3V" H 5550 960 30  0000 C CNN
F 2 "" H 5550 850 60  0000 C CNN
F 3 "" H 5550 850 60  0000 C CNN
	1    5550 850 
	1    0    0    -1  
$EndComp
$Comp
L INDUCTOR_SMALL L1
U 1 1 55218447
P 3250 1150
F 0 "L1" H 3250 1250 50  0000 C CNN
F 1 "2.2uH" H 3250 1100 50  0000 C CNN
F 2 "Inductors_NEOSID:Neosid_Inductor_SM-NE29_SMD1008" H 3250 1150 60  0001 C CNN
F 3 "" H 3250 1150 60  0000 C CNN
	1    3250 1150
	1    0    0    -1  
$EndComp
$Comp
L C C2
U 1 1 55218533
P 2750 1350
F 0 "C2" H 2750 1450 40  0000 L CNN
F 1 "10uF" H 2756 1265 40  0000 L CNN
F 2 "Capacitors_SMD:C_0603" H 2788 1200 30  0001 C CNN
F 3 "" H 2750 1350 60  0000 C CNN
	1    2750 1350
	1    0    0    -1  
$EndComp
$Comp
L C C4
U 1 1 552186BB
P 3000 1900
F 0 "C4" H 3000 2000 40  0000 L CNN
F 1 "0.1uF" H 3006 1815 40  0000 L CNN
F 2 "Capacitors_SMD:C_0402" H 3038 1750 30  0001 C CNN
F 3 "" H 3000 1900 60  0000 C CNN
	1    3000 1900
	1    0    0    -1  
$EndComp
$Comp
L C C7
U 1 1 552186F5
P 3500 1950
F 0 "C7" H 3500 2050 40  0000 L CNN
F 1 "0.1uF" H 3506 1865 40  0000 L CNN
F 2 "Capacitors_SMD:C_0402" H 3538 1800 30  0001 C CNN
F 3 "" H 3500 1950 60  0000 C CNN
	1    3500 1950
	1    0    0    -1  
$EndComp
$Comp
L C C6
U 1 1 5521873E
P 3500 1450
F 0 "C6" H 3500 1550 40  0000 L CNN
F 1 "0.1uF" H 3506 1365 40  0000 L CNN
F 2 "Capacitors_SMD:C_0402" H 3538 1300 30  0001 C CNN
F 3 "" H 3500 1450 60  0000 C CNN
	1    3500 1450
	1    0    0    -1  
$EndComp
$Comp
L GND #PWR09
U 1 1 55218958
P 3500 1650
F 0 "#PWR09" H 3500 1650 30  0001 C CNN
F 1 "GND" H 3500 1580 30  0001 C CNN
F 2 "" H 3500 1650 60  0000 C CNN
F 3 "" H 3500 1650 60  0000 C CNN
	1    3500 1650
	1    0    0    -1  
$EndComp
$Comp
L GND #PWR010
U 1 1 552189AB
P 2750 1550
F 0 "#PWR010" H 2750 1550 30  0001 C CNN
F 1 "GND" H 2750 1480 30  0001 C CNN
F 2 "" H 2750 1550 60  0000 C CNN
F 3 "" H 2750 1550 60  0000 C CNN
	1    2750 1550
	1    0    0    -1  
$EndComp
$Comp
L GND #PWR011
U 1 1 552189C3
P 3000 2100
F 0 "#PWR011" H 3000 2100 30  0001 C CNN
F 1 "GND" H 3000 2030 30  0001 C CNN
F 2 "" H 3000 2100 60  0000 C CNN
F 3 "" H 3000 2100 60  0000 C CNN
	1    3000 2100
	1    0    0    -1  
$EndComp
$Comp
L GND #PWR012
U 1 1 552189DB
P 3500 2150
F 0 "#PWR012" H 3500 2150 30  0001 C CNN
F 1 "GND" H 3500 2080 30  0001 C CNN
F 2 "" H 3500 2150 60  0000 C CNN
F 3 "" H 3500 2150 60  0000 C CNN
	1    3500 2150
	1    0    0    -1  
$EndComp
$Comp
L INDUCTOR_SMALL L3
U 1 1 55218EBF
P 4100 2550
F 0 "L3" H 4100 2650 50  0000 C CNN
F 1 "1uH" H 4100 2500 50  0000 C CNN
F 2 "Inductors_NEOSID:Neosid_Inductor_SM-NE29_SMD1008" H 4100 2550 60  0001 C CNN
F 3 "" H 4100 2550 60  0000 C CNN
	1    4100 2550
	1    0    0    -1  
$EndComp
$Comp
L C C5
U 1 1 55219142
P 3050 2700
F 0 "C5" H 3050 2800 40  0000 L CNN
F 1 "0.1uF" H 3056 2615 40  0000 L CNN
F 2 "Capacitors_SMD:C_0402" H 3088 2550 30  0001 C CNN
F 3 "" H 3050 2700 60  0000 C CNN
	1    3050 2700
	1    0    0    -1  
$EndComp
$Comp
L C C3
U 1 1 552191C3
P 2850 2700
F 0 "C3" H 2850 2800 40  0000 L CNN
F 1 "22uF" H 2856 2615 40  0000 L CNN
F 2 "Capacitors_SMD:C_0603" H 2888 2550 30  0001 C CNN
F 3 "" H 2850 2700 60  0000 C CNN
	1    2850 2700
	1    0    0    -1  
$EndComp
$Comp
L C C1
U 1 1 552191EB
P 2650 2700
F 0 "C1" H 2650 2800 40  0000 L CNN
F 1 "22uF" H 2656 2615 40  0000 L CNN
F 2 "Capacitors_SMD:C_0603" H 2688 2550 30  0001 C CNN
F 3 "" H 2650 2700 60  0000 C CNN
	1    2650 2700
	1    0    0    -1  
$EndComp
$Comp
L GND #PWR013
U 1 1 55219342
P 2650 2900
F 0 "#PWR013" H 2650 2900 30  0001 C CNN
F 1 "GND" H 2650 2830 30  0001 C CNN
F 2 "" H 2650 2900 60  0000 C CNN
F 3 "" H 2650 2900 60  0000 C CNN
	1    2650 2900
	1    0    0    -1  
$EndComp
$Comp
L GND #PWR014
U 1 1 55219365
P 2850 2900
F 0 "#PWR014" H 2850 2900 30  0001 C CNN
F 1 "GND" H 2850 2830 30  0001 C CNN
F 2 "" H 2850 2900 60  0000 C CNN
F 3 "" H 2850 2900 60  0000 C CNN
	1    2850 2900
	1    0    0    -1  
$EndComp
$Comp
L GND #PWR015
U 1 1 55219392
P 3050 2900
F 0 "#PWR015" H 3050 2900 30  0001 C CNN
F 1 "GND" H 3050 2830 30  0001 C CNN
F 2 "" H 3050 2900 60  0000 C CNN
F 3 "" H 3050 2900 60  0000 C CNN
	1    3050 2900
	1    0    0    -1  
$EndComp
$Comp
L C C12
U 1 1 552195BF
P 3950 3400
F 0 "C12" H 3950 3500 40  0000 L CNN
F 1 "0.1uF" H 3956 3315 40  0000 L CNN
F 2 "Capacitors_SMD:C_0402" H 3988 3250 30  0001 C CNN
F 3 "" H 3950 3400 60  0000 C CNN
	1    3950 3400
	1    0    0    -1  
$EndComp
$Comp
L INDUCTOR_SMALL L2
U 1 1 5521981D
P 4050 3050
F 0 "L2" H 4050 3150 50  0000 C CNN
F 1 "2.2uH" H 4050 3000 50  0000 C CNN
F 2 "Inductors_NEOSID:Neosid_Inductor_SM-NE29_SMD1008" H 4050 3050 60  0001 C CNN
F 3 "" H 4050 3050 60  0000 C CNN
	1    4050 3050
	1    0    0    -1  
$EndComp
$Comp
L C C10
U 1 1 5521988F
P 3750 3350
F 0 "C10" H 3750 3450 40  0000 L CNN
F 1 "0.1uF" H 3756 3265 40  0000 L CNN
F 2 "Capacitors_SMD:C_0402" H 3788 3200 30  0001 C CNN
F 3 "" H 3750 3350 60  0000 C CNN
	1    3750 3350
	1    0    0    -1  
$EndComp
$Comp
L C C8
U 1 1 552198C1
P 3550 3300
F 0 "C8" H 3550 3400 40  0000 L CNN
F 1 "10uF" H 3556 3215 40  0000 L CNN
F 2 "Capacitors_SMD:C_0603" H 3588 3150 30  0001 C CNN
F 3 "" H 3550 3300 60  0000 C CNN
	1    3550 3300
	1    0    0    -1  
$EndComp
$Comp
L GND #PWR016
U 1 1 55219C8C
P 3550 3500
F 0 "#PWR016" H 3550 3500 30  0001 C CNN
F 1 "GND" H 3550 3430 30  0001 C CNN
F 2 "" H 3550 3500 60  0000 C CNN
F 3 "" H 3550 3500 60  0000 C CNN
	1    3550 3500
	1    0    0    -1  
$EndComp
$Comp
L GND #PWR017
U 1 1 55219CB3
P 3750 3550
F 0 "#PWR017" H 3750 3550 30  0001 C CNN
F 1 "GND" H 3750 3480 30  0001 C CNN
F 2 "" H 3750 3550 60  0000 C CNN
F 3 "" H 3750 3550 60  0000 C CNN
	1    3750 3550
	1    0    0    -1  
$EndComp
$Comp
L GND #PWR018
U 1 1 55219CD3
P 3950 3600
F 0 "#PWR018" H 3950 3600 30  0001 C CNN
F 1 "GND" H 3950 3530 30  0001 C CNN
F 2 "" H 3950 3600 60  0000 C CNN
F 3 "" H 3950 3600 60  0000 C CNN
	1    3950 3600
	1    0    0    -1  
$EndComp
$Comp
L C C11
U 1 1 5521A68F
P 3800 4100
F 0 "C11" H 3800 4200 40  0000 L CNN
F 1 "0.1uF" H 3806 4015 40  0000 L CNN
F 2 "Capacitors_SMD:C_0402" H 3838 3950 30  0001 C CNN
F 3 "" H 3800 4100 60  0000 C CNN
	1    3800 4100
	1    0    0    -1  
$EndComp
$Comp
L C C13
U 1 1 5521A70B
P 4050 4200
F 0 "C13" H 4050 4300 40  0000 L CNN
F 1 "0.1uF" H 4056 4115 40  0000 L CNN
F 2 "Capacitors_SMD:C_0402" H 4088 4050 30  0001 C CNN
F 3 "" H 4050 4200 60  0000 C CNN
	1    4050 4200
	1    0    0    -1  
$EndComp
$Comp
L GND #PWR019
U 1 1 5521A7D3
P 3800 4300
F 0 "#PWR019" H 3800 4300 30  0001 C CNN
F 1 "GND" H 3800 4230 30  0001 C CNN
F 2 "" H 3800 4300 60  0000 C CNN
F 3 "" H 3800 4300 60  0000 C CNN
	1    3800 4300
	1    0    0    -1  
$EndComp
$Comp
L GND #PWR020
U 1 1 5521A7F7
P 4050 4400
F 0 "#PWR020" H 4050 4400 30  0001 C CNN
F 1 "GND" H 4050 4330 30  0001 C CNN
F 2 "" H 4050 4400 60  0000 C CNN
F 3 "" H 4050 4400 60  0000 C CNN
	1    4050 4400
	1    0    0    -1  
$EndComp
$Comp
L CRYSTAL X1
U 1 1 5521E025
P 4000 4700
F 0 "X1" H 4000 4850 60  0000 C CNN
F 1 "32.768KHz" H 4000 4550 60  0000 C CNN
F 2 "cc3200_quad_footprints:ABS07" H 4000 4700 60  0001 C CNN
F 3 "" H 4000 4700 60  0000 C CNN
	1    4000 4700
	-1   0    0    1   
$EndComp
$Comp
L C C14
U 1 1 5521E0CC
P 4300 4950
F 0 "C14" H 4300 5050 40  0000 L CNN
F 1 "10pF" H 4306 4865 40  0000 L CNN
F 2 "Capacitors_SMD:C_0402" H 4338 4800 30  0001 C CNN
F 3 "" H 4300 4950 60  0000 C CNN
	1    4300 4950
	1    0    0    -1  
$EndComp
$Comp
L C C9
U 1 1 5521E1B0
P 3700 4950
F 0 "C9" H 3700 5050 40  0000 L CNN
F 1 "10pF" H 3706 4865 40  0000 L CNN
F 2 "Capacitors_SMD:C_0402" H 3738 4800 30  0001 C CNN
F 3 "" H 3700 4950 60  0000 C CNN
	1    3700 4950
	1    0    0    -1  
$EndComp
$Comp
L GND #PWR021
U 1 1 5521E212
P 3700 5200
F 0 "#PWR021" H 3700 5200 30  0001 C CNN
F 1 "GND" H 3700 5130 30  0001 C CNN
F 2 "" H 3700 5200 60  0000 C CNN
F 3 "" H 3700 5200 60  0000 C CNN
	1    3700 5200
	1    0    0    -1  
$EndComp
$Comp
L GND #PWR022
U 1 1 5521E240
P 4300 5200
F 0 "#PWR022" H 4300 5200 30  0001 C CNN
F 1 "GND" H 4300 5130 30  0001 C CNN
F 2 "" H 4300 5200 60  0000 C CNN
F 3 "" H 4300 5200 60  0000 C CNN
	1    4300 5200
	1    0    0    -1  
$EndComp
$Comp
L GND #PWR023
U 1 1 5521EBC7
P 6000 5450
F 0 "#PWR023" H 6000 5450 30  0001 C CNN
F 1 "GND" H 6000 5380 30  0001 C CNN
F 2 "" H 6000 5450 60  0000 C CNN
F 3 "" H 6000 5450 60  0000 C CNN
	1    6000 5450
	1    0    0    -1  
$EndComp
$Comp
L M25PX80-VMN6TP U2
U 1 1 5521F331
P 7550 2400
F 0 "U2" H 7500 2700 60  0000 C CNN
F 1 "MX25V8006E" H 7500 2150 60  0000 C CNN
F 2 "Housings_SOIC:SOIC-8_3.9x4.9mm_Pitch1.27mm" H 7550 2400 60  0001 C CNN
F 3 "" H 7550 2400 60  0000 C CNN
	1    7550 2400
	1    0    0    -1  
$EndComp
$Comp
L +3.3V #PWR024
U 1 1 5521F7E9
P 8050 2100
F 0 "#PWR024" H 8050 2060 30  0001 C CNN
F 1 "+3.3V" H 8050 2210 30  0000 C CNN
F 2 "" H 8050 2100 60  0000 C CNN
F 3 "" H 8050 2100 60  0000 C CNN
	1    8050 2100
	1    0    0    -1  
$EndComp
$Comp
L C C22
U 1 1 5521FBD5
P 8250 2400
F 0 "C22" H 8250 2500 40  0000 L CNN
F 1 "0.1uF" H 8256 2315 40  0000 L CNN
F 2 "Capacitors_SMD:C_0402" H 8288 2250 30  0001 C CNN
F 3 "" H 8250 2400 60  0000 C CNN
	1    8250 2400
	1    0    0    -1  
$EndComp
$Comp
L GND #PWR025
U 1 1 552200A3
P 8050 2550
F 0 "#PWR025" H 8050 2550 30  0001 C CNN
F 1 "GND" H 8050 2480 30  0001 C CNN
F 2 "" H 8050 2550 60  0000 C CNN
F 3 "" H 8050 2550 60  0000 C CNN
	1    8050 2550
	1    0    0    -1  
$EndComp
$Comp
L GND #PWR026
U 1 1 552200D3
P 8250 2600
F 0 "#PWR026" H 8250 2600 30  0001 C CNN
F 1 "GND" H 8250 2530 30  0001 C CNN
F 2 "" H 8250 2600 60  0000 C CNN
F 3 "" H 8250 2600 60  0000 C CNN
	1    8250 2600
	1    0    0    -1  
$EndComp
$Comp
L R R16
U 1 1 55220415
P 7300 2000
F 0 "R16" V 7380 2000 40  0000 C CNN
F 1 "100k" V 7307 2001 40  0000 C CNN
F 2 "Resistors_SMD:R_0402" V 7230 2000 30  0001 C CNN
F 3 "" H 7300 2000 30  0000 C CNN
	1    7300 2000
	0    1    1    0   
$EndComp
$Comp
L +3.3V #PWR027
U 1 1 5522046F
P 7550 2000
F 0 "#PWR027" H 7550 1960 30  0001 C CNN
F 1 "+3.3V" H 7550 2110 30  0000 C CNN
F 2 "" H 7550 2000 60  0000 C CNN
F 3 "" H 7550 2000 60  0000 C CNN
	1    7550 2000
	1    0    0    -1  
$EndComp
$Comp
L R R20
U 1 1 552205D2
P 7850 1650
F 0 "R20" V 7930 1650 40  0000 C CNN
F 1 "100k" V 7857 1651 40  0000 C CNN
F 2 "Resistors_SMD:R_0402" V 7780 1650 30  0001 C CNN
F 3 "" H 7850 1650 30  0000 C CNN
	1    7850 1650
	0    1    1    0   
$EndComp
$Comp
L R R21
U 1 1 55220662
P 7850 1800
F 0 "R21" V 7930 1800 40  0000 C CNN
F 1 "100k" V 7857 1801 40  0000 C CNN
F 2 "Resistors_SMD:R_0402" V 7780 1800 30  0001 C CNN
F 3 "" H 7850 1800 30  0000 C CNN
	1    7850 1800
	0    1    1    0   
$EndComp
$Comp
L GND #PWR028
U 1 1 5522080B
P 8100 1850
F 0 "#PWR028" H 8100 1850 30  0001 C CNN
F 1 "GND" H 8100 1780 30  0001 C CNN
F 2 "" H 8100 1850 60  0000 C CNN
F 3 "" H 8100 1850 60  0000 C CNN
	1    8100 1850
	1    0    0    -1  
$EndComp
$Comp
L GND #PWR029
U 1 1 5522083E
P 8100 1700
F 0 "#PWR029" H 8100 1700 30  0001 C CNN
F 1 "GND" H 8100 1630 30  0001 C CNN
F 2 "" H 8100 1700 60  0000 C CNN
F 3 "" H 8100 1700 60  0000 C CNN
	1    8100 1700
	1    0    0    -1  
$EndComp
$Sheet
S 6950 1300 550  200 
U 5522D29A
F0 "cc3200_camera_RF" 60
F1 "cc3200_camera_RF.sch" 60
F2 "RF" I L 6950 1400 60 
$EndSheet
$Comp
L Crystal_4pin U3
U 1 1 5522E3D4
P 8150 4950
F 0 "U3" H 8150 4750 60  0000 C CNN
F 1 "Q24FA20H00396_40MHz" H 8150 5200 60  0000 C CNN
F 2 "cc3200_quad_footprints:Q24FA20H" H 8150 4950 60  0001 C CNN
F 3 "" H 8150 4950 60  0000 C CNN
	1    8150 4950
	1    0    0    -1  
$EndComp
$Comp
L C C23
U 1 1 5522E48B
P 8700 5150
F 0 "C23" H 8700 5250 40  0000 L CNN
F 1 "6.2pF" H 8706 5065 40  0000 L CNN
F 2 "Capacitors_SMD:C_0402" H 8738 5000 30  0001 C CNN
F 3 "" H 8700 5150 60  0000 C CNN
	1    8700 5150
	1    0    0    -1  
$EndComp
$Comp
L C C21
U 1 1 5522E696
P 7600 5150
F 0 "C21" H 7600 5250 40  0000 L CNN
F 1 "6.2pF" H 7606 5065 40  0000 L CNN
F 2 "Capacitors_SMD:C_0402" H 7638 5000 30  0001 C CNN
F 3 "" H 7600 5150 60  0000 C CNN
	1    7600 5150
	1    0    0    -1  
$EndComp
$Comp
L GND #PWR030
U 1 1 5522E6C8
P 8700 5350
F 0 "#PWR030" H 8700 5350 30  0001 C CNN
F 1 "GND" H 8700 5280 30  0001 C CNN
F 2 "" H 8700 5350 60  0000 C CNN
F 3 "" H 8700 5350 60  0000 C CNN
	1    8700 5350
	1    0    0    -1  
$EndComp
$Comp
L GND #PWR031
U 1 1 5522E6FE
P 8300 5450
F 0 "#PWR031" H 8300 5450 30  0001 C CNN
F 1 "GND" H 8300 5380 30  0001 C CNN
F 2 "" H 8300 5450 60  0000 C CNN
F 3 "" H 8300 5450 60  0000 C CNN
	1    8300 5450
	1    0    0    -1  
$EndComp
$Comp
L GND #PWR032
U 1 1 5522E751
P 8000 5450
F 0 "#PWR032" H 8000 5450 30  0001 C CNN
F 1 "GND" H 8000 5380 30  0001 C CNN
F 2 "" H 8000 5450 60  0000 C CNN
F 3 "" H 8000 5450 60  0000 C CNN
	1    8000 5450
	1    0    0    -1  
$EndComp
$Comp
L GND #PWR033
U 1 1 5522E780
P 7600 5350
F 0 "#PWR033" H 7600 5350 30  0001 C CNN
F 1 "GND" H 7600 5280 30  0001 C CNN
F 2 "" H 7600 5350 60  0000 C CNN
F 3 "" H 7600 5350 60  0000 C CNN
	1    7600 5350
	1    0    0    -1  
$EndComp
Text Label 6900 3700 0    60   ~ 0
Motor_PWM01
Text Label 6900 3800 0    60   ~ 0
Motor_PWM02
Text Label 6900 3600 0    60   ~ 0
Motor_PWM04
NoConn ~ 6900 2650
NoConn ~ 6900 5050
NoConn ~ 6900 5150
$Comp
L R R12
U 1 1 55224741
P 5050 5900
F 0 "R12" V 5130 5900 40  0000 C CNN
F 1 "100k" V 5057 5901 40  0000 C CNN
F 2 "Resistors_SMD:R_0402" V 4980 5900 30  0001 C CNN
F 3 "" H 5050 5900 30  0000 C CNN
	1    5050 5900
	1    0    0    -1  
$EndComp
$Comp
L GND #PWR034
U 1 1 5522476E
P 5050 6150
F 0 "#PWR034" H 5050 6150 30  0001 C CNN
F 1 "GND" H 5050 6080 30  0001 C CNN
F 2 "" H 5050 6150 60  0000 C CNN
F 3 "" H 5050 6150 60  0000 C CNN
	1    5050 6150
	1    0    0    -1  
$EndComp
$Comp
L R R11
U 1 1 55224C15
P 4900 5900
F 0 "R11" V 4980 5900 40  0000 C CNN
F 1 "100k" V 4907 5901 40  0000 C CNN
F 2 "Resistors_SMD:R_0402" V 4830 5900 30  0001 C CNN
F 3 "" H 4900 5900 30  0000 C CNN
	1    4900 5900
	1    0    0    -1  
$EndComp
$Comp
L GND #PWR035
U 1 1 55224D2A
P 4900 6150
F 0 "#PWR035" H 4900 6150 30  0001 C CNN
F 1 "GND" H 4900 6080 30  0001 C CNN
F 2 "" H 4900 6150 60  0000 C CNN
F 3 "" H 4900 6150 60  0000 C CNN
	1    4900 6150
	1    0    0    -1  
$EndComp
$Comp
L R R13
U 1 1 55224D5E
P 5250 6400
F 0 "R13" V 5330 6400 40  0000 C CNN
F 1 "2.7k" V 5257 6401 40  0000 C CNN
F 2 "Resistors_SMD:R_0402" V 5180 6400 30  0001 C CNN
F 3 "" H 5250 6400 30  0000 C CNN
	1    5250 6400
	1    0    0    -1  
$EndComp
$Comp
L GND #PWR036
U 1 1 55224DB4
P 5250 6650
F 0 "#PWR036" H 5250 6650 30  0001 C CNN
F 1 "GND" H 5250 6580 30  0001 C CNN
F 2 "" H 5250 6650 60  0000 C CNN
F 3 "" H 5250 6650 60  0000 C CNN
	1    5250 6650
	1    0    0    -1  
$EndComp
$Comp
L R R10
U 1 1 55225509
P 3300 5550
F 0 "R10" V 3380 5550 40  0000 C CNN
F 1 "270" V 3307 5551 40  0000 C CNN
F 2 "Resistors_SMD:R_0402" V 3230 5550 30  0001 C CNN
F 3 "" H 3300 5550 30  0000 C CNN
	1    3300 5550
	1    0    0    -1  
$EndComp
$Comp
L +3.3V #PWR037
U 1 1 55230AFD
P 3300 5300
F 0 "#PWR037" H 3300 5260 30  0001 C CNN
F 1 "+3.3V" H 3300 5410 30  0000 C CNN
F 2 "" H 3300 5300 60  0000 C CNN
F 3 "" H 3300 5300 60  0000 C CNN
	1    3300 5300
	1    0    0    -1  
$EndComp
$Comp
L R R23
U 1 1 5522B2A9
P 8850 1750
F 0 "R23" V 8930 1750 40  0000 C CNN
F 1 "100" V 8857 1751 40  0000 C CNN
F 2 "Resistors_SMD:R_0402" V 8780 1750 30  0001 C CNN
F 3 "" H 8850 1750 30  0000 C CNN
	1    8850 1750
	1    0    0    -1  
$EndComp
$Comp
L GND #PWR038
U 1 1 5522C051
P 8850 2000
F 0 "#PWR038" H 8850 2000 30  0001 C CNN
F 1 "GND" H 8850 1930 30  0001 C CNN
F 2 "" H 8850 2000 60  0000 C CNN
F 3 "" H 8850 2000 60  0000 C CNN
	1    8850 2000
	1    0    0    -1  
$EndComp
$Comp
L R R28
U 1 1 5522C9F9
P 9500 900
F 0 "R28" V 9580 900 40  0000 C CNN
F 1 "100k" V 9507 901 40  0000 C CNN
F 2 "Resistors_SMD:R_0402" V 9430 900 30  0001 C CNN
F 3 "" H 9500 900 30  0000 C CNN
	1    9500 900 
	0    1    1    0   
$EndComp
$Comp
L +3.3V #PWR039
U 1 1 5522CE9B
P 9750 800
F 0 "#PWR039" H 9750 760 30  0001 C CNN
F 1 "+3.3V" H 9750 910 30  0000 C CNN
F 2 "" H 9750 800 60  0000 C CNN
F 3 "" H 9750 800 60  0000 C CNN
	1    9750 800 
	1    0    0    -1  
$EndComp
Text Notes 6800 6350 0    60   ~ 0
JTAG pin-out, to emulation circuit
Text Notes 700  1750 0    60   ~ 0
- power pins have global scope\n- Vdd is 2.8V\n- 3.3V is powering iNEMO and Camera\nSlave Addresses:\n- pressure sensor - 0x76\n- FXAS gyro - 0x20\n- accelerometer - 0x4c\nTODO:\n- add signal LEDs
Text Notes 7350 7500 0    60   ~ 0
CC3200 Mini Quadcopter
Text Notes 10550 7650 0    60   ~ 0
2.0
Text Notes 8150 7650 0    60   ~ 0
05/06/2015
Text Notes 7400 7250 0    60   ~ 0
main
$Sheet
S 1150 6050 550  350 
U 5525781A
F0 "cc3200_quad_power" 60
F1 "cc3200_quad_power.sch" 60
$EndSheet
$Comp
L DIODE D4
U 1 1 55264A71
P 9050 900
F 0 "D4" H 9050 1000 40  0000 C CNN
F 1 "CD0603-B00340" H 9050 800 40  0000 C CNN
F 2 "Capacitors_SMD:C_0603" H 9050 900 60  0001 C CNN
F 3 "" H 9050 900 60  0000 C CNN
	1    9050 900 
	-1   0    0    1   
$EndComp
$Comp
L BSS138 Q1
U 1 1 55271540
P 2100 4200
F 0 "Q1" H 2100 4051 40  0000 R CNN
F 1 "BSS138" H 2100 4350 40  0000 R CNN
F 2 "Housings_SOT-23_SOT-143_TSOT-6:SOT-23" H 1970 4302 29  0001 C CNN
F 3 "" H 2100 4200 60  0000 C CNN
	1    2100 4200
	1    0    0    -1  
$EndComp
$Comp
L R R7
U 1 1 552717DE
P 2200 3700
F 0 "R7" V 2280 3700 40  0000 C CNN
F 1 "270" V 2207 3701 40  0000 C CNN
F 2 "Resistors_SMD:R_0402" V 2130 3700 30  0001 C CNN
F 3 "" H 2200 3700 30  0000 C CNN
	1    2200 3700
	1    0    0    -1  
$EndComp
$Comp
L R R3
U 1 1 552718C5
P 1600 4250
F 0 "R3" V 1680 4250 40  0000 C CNN
F 1 "10k" V 1607 4251 40  0000 C CNN
F 2 "Resistors_SMD:R_0402" V 1530 4250 30  0001 C CNN
F 3 "" H 1600 4250 30  0000 C CNN
	1    1600 4250
	0    1    1    0   
$EndComp
$Comp
L R R1
U 1 1 55271AC1
P 1300 4500
F 0 "R1" V 1380 4500 40  0000 C CNN
F 1 "100k" V 1307 4501 40  0000 C CNN
F 2 "Resistors_SMD:R_0402" V 1230 4500 30  0001 C CNN
F 3 "" H 1300 4500 30  0000 C CNN
	1    1300 4500
	-1   0    0    1   
$EndComp
$Comp
L GND #PWR040
U 1 1 55271B71
P 1300 4800
F 0 "#PWR040" H 1300 4800 30  0001 C CNN
F 1 "GND" H 1300 4730 30  0001 C CNN
F 2 "" H 1300 4800 60  0000 C CNN
F 3 "" H 1300 4800 60  0000 C CNN
	1    1300 4800
	1    0    0    -1  
$EndComp
$Comp
L GND #PWR041
U 1 1 55271C05
P 2200 4450
F 0 "#PWR041" H 2200 4450 30  0001 C CNN
F 1 "GND" H 2200 4380 30  0001 C CNN
F 2 "" H 2200 4450 60  0000 C CNN
F 3 "" H 2200 4450 60  0000 C CNN
	1    2200 4450
	1    0    0    -1  
$EndComp
$Comp
L +3.3V #PWR042
U 1 1 55271D99
P 2200 3050
F 0 "#PWR042" H 2200 3010 30  0001 C CNN
F 1 "+3.3V" H 2200 3160 30  0000 C CNN
F 2 "" H 2200 3050 60  0000 C CNN
F 3 "" H 2200 3050 60  0000 C CNN
	1    2200 3050
	1    0    0    -1  
$EndComp
Text Label 6900 3250 0    60   ~ 0
LED_1
Text Label 1300 4150 0    60   ~ 0
LED_1
$Comp
L BSS138 Q2
U 1 1 55274D1A
P 2350 4600
F 0 "Q2" H 2350 4451 40  0000 R CNN
F 1 "BSS138" H 2350 4750 40  0000 R CNN
F 2 "Housings_SOT-23_SOT-143_TSOT-6:SOT-23" H 2220 4702 29  0001 C CNN
F 3 "" H 2350 4600 60  0000 C CNN
	1    2350 4600
	1    0    0    -1  
$EndComp
$Comp
L R R8
U 1 1 55274D20
P 2450 4100
F 0 "R8" V 2530 4100 40  0000 C CNN
F 1 "270" V 2457 4101 40  0000 C CNN
F 2 "Resistors_SMD:R_0402" V 2380 4100 30  0001 C CNN
F 3 "" H 2450 4100 30  0000 C CNN
	1    2450 4100
	1    0    0    -1  
$EndComp
$Comp
L R R5
U 1 1 55274D26
P 1850 4650
F 0 "R5" V 1930 4650 40  0000 C CNN
F 1 "10k" V 1857 4651 40  0000 C CNN
F 2 "Resistors_SMD:R_0402" V 1780 4650 30  0001 C CNN
F 3 "" H 1850 4650 30  0000 C CNN
	1    1850 4650
	0    1    1    0   
$EndComp
$Comp
L R R2
U 1 1 55274D2C
P 1550 4900
F 0 "R2" V 1630 4900 40  0000 C CNN
F 1 "100k" V 1557 4901 40  0000 C CNN
F 2 "Resistors_SMD:R_0402" V 1480 4900 30  0001 C CNN
F 3 "" H 1550 4900 30  0000 C CNN
	1    1550 4900
	-1   0    0    1   
$EndComp
$Comp
L GND #PWR043
U 1 1 55274D32
P 1550 5200
F 0 "#PWR043" H 1550 5200 30  0001 C CNN
F 1 "GND" H 1550 5130 30  0001 C CNN
F 2 "" H 1550 5200 60  0000 C CNN
F 3 "" H 1550 5200 60  0000 C CNN
	1    1550 5200
	1    0    0    -1  
$EndComp
$Comp
L GND #PWR044
U 1 1 55274D38
P 2450 4850
F 0 "#PWR044" H 2450 4850 30  0001 C CNN
F 1 "GND" H 2450 4780 30  0001 C CNN
F 2 "" H 2450 4850 60  0000 C CNN
F 3 "" H 2450 4850 60  0000 C CNN
	1    2450 4850
	1    0    0    -1  
$EndComp
$Comp
L +3.3V #PWR045
U 1 1 55274D3E
P 2450 3450
F 0 "#PWR045" H 2450 3410 30  0001 C CNN
F 1 "+3.3V" H 2450 3560 30  0000 C CNN
F 2 "" H 2450 3450 60  0000 C CNN
F 3 "" H 2450 3450 60  0000 C CNN
	1    2450 3450
	1    0    0    -1  
$EndComp
Text Label 1550 4550 0    60   ~ 0
LED_2
Text Label 6900 3350 0    60   ~ 0
LED_2
NoConn ~ 4450 3650
$Comp
L SW_PUSH SW2
U 1 1 5522B459
P 8850 1200
F 0 "SW2" H 9000 1310 50  0000 C CNN
F 1 "EVQ11" H 8850 1120 50  0000 C CNN
F 2 "cc3200_quad_footprints:EVQ11_Push_Switch" H 8850 1200 60  0001 C CNN
F 3 "" H 8850 1200 60  0000 C CNN
	1    8850 1200
	0    -1   -1   0   
$EndComp
$Comp
L LED D1
U 1 1 552ADD27
P 2200 3250
F 0 "D1" H 2200 3350 50  0000 C CNN
F 1 "LED" H 2200 3150 50  0000 C CNN
F 2 "Capacitors_SMD:C_0603_HandSoldering" H 2200 3250 60  0001 C CNN
F 3 "" H 2200 3250 60  0000 C CNN
	1    2200 3250
	0    1    1    0   
$EndComp
$Comp
L LED D2
U 1 1 552ADEF7
P 2450 3650
F 0 "D2" H 2450 3750 50  0000 C CNN
F 1 "LED" H 2450 3550 50  0000 C CNN
F 2 "Capacitors_SMD:C_0603_HandSoldering" H 2450 3650 60  0001 C CNN
F 3 "" H 2450 3650 60  0000 C CNN
	1    2450 3650
	0    1    1    0   
$EndComp
$Comp
L SWITCH_INV SW1
U 1 1 552C8BEE
P 4100 5950
F 0 "SW1" H 3900 6100 50  0000 C CNN
F 1 "SWITCH_INV" H 3950 5800 50  0000 C CNN
F 2 "cc3200_quad_footprints:JS102011SAQN" H 4100 5950 60  0001 C CNN
F 3 "" H 4100 5950 60  0000 C CNN
	1    4100 5950
	1    0    0    -1  
$EndComp
NoConn ~ 4450 3550
NoConn ~ 6900 2950
NoConn ~ 6900 3050
NoConn ~ 6900 3150
NoConn ~ 6900 4400
$Comp
L BSS138 Q6
U 1 1 555207F4
P 9850 2600
F 0 "Q6" H 9850 2451 40  0000 R CNN
F 1 "BSS138" H 9850 2750 40  0000 R CNN
F 2 "Housings_SOT-23_SOT-143_TSOT-6:SOT-23" H 9720 2702 29  0001 C CNN
F 3 "" H 9850 2600 60  0000 C CNN
	1    9850 2600
	1    0    0    -1  
$EndComp
$Comp
L R R29
U 1 1 555207FA
P 9950 2100
F 0 "R29" V 10030 2100 40  0000 C CNN
F 1 "270" V 9957 2101 40  0000 C CNN
F 2 "Resistors_SMD:R_0402" V 9880 2100 30  0001 C CNN
F 3 "" H 9950 2100 30  0000 C CNN
	1    9950 2100
	1    0    0    -1  
$EndComp
$Comp
L GND #PWR046
U 1 1 55520812
P 9950 2850
F 0 "#PWR046" H 9950 2850 30  0001 C CNN
F 1 "GND" H 9950 2780 30  0001 C CNN
F 2 "" H 9950 2850 60  0000 C CNN
F 3 "" H 9950 2850 60  0000 C CNN
	1    9950 2850
	1    0    0    -1  
$EndComp
$Comp
L +3.3V #PWR047
U 1 1 55520818
P 9950 1450
F 0 "#PWR047" H 9950 1410 30  0001 C CNN
F 1 "+3.3V" H 9950 1560 30  0000 C CNN
F 2 "" H 9950 1450 60  0000 C CNN
F 3 "" H 9950 1450 60  0000 C CNN
	1    9950 1450
	1    0    0    -1  
$EndComp
$Comp
L BSS138 Q3
U 1 1 55520825
P 2600 5000
F 0 "Q3" H 2600 4851 40  0000 R CNN
F 1 "BSS138" H 2600 5150 40  0000 R CNN
F 2 "Housings_SOT-23_SOT-143_TSOT-6:SOT-23" H 2470 5102 29  0001 C CNN
F 3 "" H 2600 5000 60  0000 C CNN
	1    2600 5000
	1    0    0    -1  
$EndComp
$Comp
L R R9
U 1 1 5552082B
P 2700 4500
F 0 "R9" V 2780 4500 40  0000 C CNN
F 1 "270" V 2707 4501 40  0000 C CNN
F 2 "Resistors_SMD:R_0402" V 2630 4500 30  0001 C CNN
F 3 "" H 2700 4500 30  0000 C CNN
	1    2700 4500
	1    0    0    -1  
$EndComp
$Comp
L R R6
U 1 1 55520831
P 2100 5050
F 0 "R6" V 2180 5050 40  0000 C CNN
F 1 "10k" V 2107 5051 40  0000 C CNN
F 2 "Resistors_SMD:R_0402" V 2030 5050 30  0001 C CNN
F 3 "" H 2100 5050 30  0000 C CNN
	1    2100 5050
	0    1    1    0   
$EndComp
$Comp
L R R4
U 1 1 55520837
P 1800 5300
F 0 "R4" V 1880 5300 40  0000 C CNN
F 1 "100k" V 1807 5301 40  0000 C CNN
F 2 "Resistors_SMD:R_0402" V 1730 5300 30  0001 C CNN
F 3 "" H 1800 5300 30  0000 C CNN
	1    1800 5300
	-1   0    0    1   
$EndComp
$Comp
L GND #PWR048
U 1 1 5552083D
P 1800 5600
F 0 "#PWR048" H 1800 5600 30  0001 C CNN
F 1 "GND" H 1800 5530 30  0001 C CNN
F 2 "" H 1800 5600 60  0000 C CNN
F 3 "" H 1800 5600 60  0000 C CNN
	1    1800 5600
	1    0    0    -1  
$EndComp
$Comp
L GND #PWR049
U 1 1 55520843
P 2700 5250
F 0 "#PWR049" H 2700 5250 30  0001 C CNN
F 1 "GND" H 2700 5180 30  0001 C CNN
F 2 "" H 2700 5250 60  0000 C CNN
F 3 "" H 2700 5250 60  0000 C CNN
	1    2700 5250
	1    0    0    -1  
$EndComp
$Comp
L +3.3V #PWR050
U 1 1 55520849
P 2700 3850
F 0 "#PWR050" H 2700 3810 30  0001 C CNN
F 1 "+3.3V" H 2700 3960 30  0000 C CNN
F 2 "" H 2700 3850 60  0000 C CNN
F 3 "" H 2700 3850 60  0000 C CNN
	1    2700 3850
	1    0    0    -1  
$EndComp
Text Label 1800 4950 0    60   ~ 0
LED_3
$Comp
L LED D5
U 1 1 55520856
P 9950 1650
F 0 "D5" H 9950 1750 50  0000 C CNN
F 1 "LED" H 9950 1550 50  0000 C CNN
F 2 "Capacitors_SMD:C_0603_HandSoldering" H 9950 1650 60  0001 C CNN
F 3 "" H 9950 1650 60  0000 C CNN
	1    9950 1650
	0    1    1    0   
$EndComp
$Comp
L LED D3
U 1 1 5552085C
P 2700 4050
F 0 "D3" H 2700 4150 50  0000 C CNN
F 1 "LED" H 2700 3950 50  0000 C CNN
F 2 "Capacitors_SMD:C_0603_HandSoldering" H 2700 4050 60  0001 C CNN
F 3 "" H 2700 4050 60  0000 C CNN
	1    2700 4050
	0    1    1    0   
$EndComp
Text Label 6900 3500 0    60   ~ 0
LED_3
Text Label 7950 800  0    60   ~ 0
cc3200_PWR
Text Label 9650 2650 2    60   ~ 0
cc3200_PWR
$Comp
L CONN_01X02 P2
U 1 1 555301D0
P 7800 3050
F 0 "P2" H 7800 3200 50  0000 C CNN
F 1 "CONN_01X02" V 7900 3050 50  0000 C CNN
F 2 "Pin_Headers:Pin_Header_Straight_1x02" H 7800 3050 60  0001 C CNN
F 3 "" H 7800 3050 60  0000 C CNN
	1    7800 3050
	1    0    0    -1  
$EndComp
Text Label 6250 5550 0    60   ~ 0
Motor_PWM03
Text Label 6900 4100 0    60   ~ 0
scl
Text Label 6900 4200 0    60   ~ 0
sda
Text Label 7450 2750 0    60   ~ 0
tx
Text Label 7350 2850 0    60   ~ 0
rx
NoConn ~ 6900 4500
NoConn ~ 6900 4600
NoConn ~ 6900 4700
$Comp
L CONN_01X04 P1
U 1 1 5553A375
P 6800 5850
F 0 "P1" H 6800 6100 50  0000 C CNN
F 1 "CONN_01X04" V 6900 5850 50  0000 C CNN
F 2 "Pin_Headers:Pin_Header_Straight_1x04" H 6800 5850 60  0001 C CNN
F 3 "" H 6800 5850 60  0000 C CNN
	1    6800 5850
	1    0    0    -1  
$EndComp
$Comp
L CONN_01X02 P3
U 1 1 5553ABC6
P 10400 950
F 0 "P3" H 10400 1100 50  0000 C CNN
F 1 "CONN_01X02" V 10500 950 50  0000 C CNN
F 2 "Pin_Headers:Pin_Header_Straight_1x02" H 10400 950 60  0001 C CNN
F 3 "" H 10400 950 60  0000 C CNN
	1    10400 950 
	1    0    0    -1  
$EndComp
$Comp
L GND #PWR051
U 1 1 5553AC3D
P 10100 1100
F 0 "#PWR051" H 10100 1100 30  0001 C CNN
F 1 "GND" H 10100 1030 30  0001 C CNN
F 2 "" H 10100 1100 60  0000 C CNN
F 3 "" H 10100 1100 60  0000 C CNN
	1    10100 1100
	1    0    0    -1  
$EndComp
$Sheet
S 2650 6450 750  400 
U 55545427
F0 "cc3200_quad_accel" 60
F1 "cc3200_quad_accel.sch" 60
F2 "sda" I R 3400 6550 60 
F3 "scl" I R 3400 6700 60 
F4 "INT" I L 2650 6750 60 
$EndSheet
Text Label 3550 6550 0    60   ~ 0
scl
Text Label 3550 6700 0    60   ~ 0
sda
$Comp
L +3.3V #PWR052
U 1 1 55547AC1
P 7850 4050
F 0 "#PWR052" H 7850 4010 30  0001 C CNN
F 1 "+3.3V" H 7850 4160 30  0000 C CNN
F 2 "" H 7850 4050 60  0000 C CNN
F 3 "" H 7850 4050 60  0000 C CNN
	1    7850 4050
	1    0    0    -1  
$EndComp
$Comp
L +3.3V #PWR053
U 1 1 55547B18
P 8000 4050
F 0 "#PWR053" H 8000 4010 30  0001 C CNN
F 1 "+3.3V" H 8000 4160 30  0000 C CNN
F 2 "" H 8000 4050 60  0000 C CNN
F 3 "" H 8000 4050 60  0000 C CNN
	1    8000 4050
	1    0    0    -1  
$EndComp
$Comp
L R R17
U 1 1 55547B25
P 7600 4100
F 0 "R17" V 7680 4100 40  0000 C CNN
F 1 "1k" V 7607 4101 40  0000 C CNN
F 2 "Resistors_SMD:R_0402" V 7530 4100 30  0001 C CNN
F 3 "" H 7600 4100 30  0000 C CNN
	1    7600 4100
	0    1    1    0   
$EndComp
$Comp
L R R19
U 1 1 55547BB6
P 7750 4250
F 0 "R19" V 7830 4250 40  0000 C CNN
F 1 "1k" V 7757 4251 40  0000 C CNN
F 2 "Resistors_SMD:R_0402" V 7680 4250 30  0001 C CNN
F 3 "" H 7750 4250 30  0000 C CNN
	1    7750 4250
	0    1    1    0   
$EndComp
Text Notes 8250 3100 0    60   ~ 0
must keep clean - short traces here
$Comp
L DC_Motor M1
U 1 1 5554BE0F
P 9700 3650
F 0 "M1" H 9700 3500 60  0000 C CNN
F 1 "DC_Motor" H 9700 3800 60  0000 C CNN
F 2 "Pin_Headers:Pin_Header_Straight_1x03" H 9700 3650 60  0001 C CNN
F 3 "" H 9700 3650 60  0000 C CNN
	1    9700 3650
	0    1    1    0   
$EndComp
$Comp
L DIODE D6
U 1 1 5554BEBF
P 9950 3650
F 0 "D6" H 9950 3750 40  0000 C CNN
F 1 "DIODE" H 9950 3550 40  0000 C CNN
F 2 "Housings_SOT-23_SOT-143_TSOT-6:SOT-23" H 9950 3650 60  0001 C CNN
F 3 "" H 9950 3650 60  0000 C CNN
	1    9950 3650
	0    -1   -1   0   
$EndComp
$Comp
L R R24
U 1 1 5554C3E3
P 9050 4200
F 0 "R24" V 9130 4200 40  0000 C CNN
F 1 "150" V 9057 4201 40  0000 C CNN
F 2 "Resistors_SMD:R_0402" V 8980 4200 30  0001 C CNN
F 3 "" H 9050 4200 30  0000 C CNN
	1    9050 4200
	0    1    1    0   
$EndComp
$Comp
L R R26
U 1 1 5554C457
P 9350 4500
F 0 "R26" V 9430 4500 40  0000 C CNN
F 1 "1.5k" V 9357 4501 40  0000 C CNN
F 2 "Resistors_SMD:R_0402" V 9280 4500 30  0001 C CNN
F 3 "" H 9350 4500 30  0000 C CNN
	1    9350 4500
	-1   0    0    1   
$EndComp
$Comp
L GND #PWR054
U 1 1 5554C7E3
P 9350 4800
F 0 "#PWR054" H 9350 4800 30  0001 C CNN
F 1 "GND" H 9350 4730 30  0001 C CNN
F 2 "" H 9350 4800 60  0000 C CNN
F 3 "" H 9350 4800 60  0000 C CNN
	1    9350 4800
	1    0    0    -1  
$EndComp
$Comp
L +BATT #PWR055
U 1 1 5554C96B
P 9700 3250
F 0 "#PWR055" H 9700 3200 20  0001 C CNN
F 1 "+BATT" H 9700 3350 30  0000 C CNN
F 2 "" H 9700 3250 60  0000 C CNN
F 3 "" H 9700 3250 60  0000 C CNN
	1    9700 3250
	1    0    0    -1  
$EndComp
$Comp
L DC_Motor M3
U 1 1 5554DC30
P 10800 3650
F 0 "M3" H 10800 3500 60  0000 C CNN
F 1 "DC_Motor" H 10800 3800 60  0000 C CNN
F 2 "Pin_Headers:Pin_Header_Straight_1x03" H 10800 3650 60  0001 C CNN
F 3 "" H 10800 3650 60  0000 C CNN
	1    10800 3650
	0    1    1    0   
$EndComp
$Comp
L DIODE D8
U 1 1 5554DC36
P 11050 3650
F 0 "D8" H 11050 3750 40  0000 C CNN
F 1 "DIODE" H 11050 3550 40  0000 C CNN
F 2 "Housings_SOT-23_SOT-143_TSOT-6:SOT-23" H 11050 3650 60  0001 C CNN
F 3 "" H 11050 3650 60  0000 C CNN
	1    11050 3650
	0    -1   -1   0   
$EndComp
$Comp
L R R30
U 1 1 5554DC42
P 10150 4200
F 0 "R30" V 10230 4200 40  0000 C CNN
F 1 "150" V 10157 4201 40  0000 C CNN
F 2 "Resistors_SMD:R_0402" V 10080 4200 30  0001 C CNN
F 3 "" H 10150 4200 30  0000 C CNN
	1    10150 4200
	0    1    1    0   
$EndComp
$Comp
L R R32
U 1 1 5554DC48
P 10450 4500
F 0 "R32" V 10530 4500 40  0000 C CNN
F 1 "1.5k" V 10457 4501 40  0000 C CNN
F 2 "Resistors_SMD:R_0402" V 10380 4500 30  0001 C CNN
F 3 "" H 10450 4500 30  0000 C CNN
	1    10450 4500
	-1   0    0    1   
$EndComp
$Comp
L GND #PWR056
U 1 1 5554DC4E
P 10450 4800
F 0 "#PWR056" H 10450 4800 30  0001 C CNN
F 1 "GND" H 10450 4730 30  0001 C CNN
F 2 "" H 10450 4800 60  0000 C CNN
F 3 "" H 10450 4800 60  0000 C CNN
	1    10450 4800
	1    0    0    -1  
$EndComp
$Comp
L +BATT #PWR057
U 1 1 5554DC54
P 10800 3250
F 0 "#PWR057" H 10800 3200 20  0001 C CNN
F 1 "+BATT" H 10800 3350 30  0000 C CNN
F 2 "" H 10800 3250 60  0000 C CNN
F 3 "" H 10800 3250 60  0000 C CNN
	1    10800 3250
	1    0    0    -1  
$EndComp
$Comp
L DC_Motor M2
U 1 1 5554E0D3
P 9800 5100
F 0 "M2" H 9800 4950 60  0000 C CNN
F 1 "DC_Motor" H 9800 5250 60  0000 C CNN
F 2 "Pin_Headers:Pin_Header_Straight_1x03" H 9800 5100 60  0001 C CNN
F 3 "" H 9800 5100 60  0000 C CNN
	1    9800 5100
	0    1    1    0   
$EndComp
$Comp
L DIODE D7
U 1 1 5554E0D9
P 10050 5100
F 0 "D7" H 10050 5200 40  0000 C CNN
F 1 "DIODE" H 10050 5000 40  0000 C CNN
F 2 "Housings_SOT-23_SOT-143_TSOT-6:SOT-23" H 10050 5100 60  0001 C CNN
F 3 "" H 10050 5100 60  0000 C CNN
	1    10050 5100
	0    -1   -1   0   
$EndComp
$Comp
L R R25
U 1 1 5554E0E5
P 9150 5650
F 0 "R25" V 9230 5650 40  0000 C CNN
F 1 "150" V 9157 5651 40  0000 C CNN
F 2 "Resistors_SMD:R_0402" V 9080 5650 30  0001 C CNN
F 3 "" H 9150 5650 30  0000 C CNN
	1    9150 5650
	0    1    1    0   
$EndComp
$Comp
L R R27
U 1 1 5554E0EB
P 9450 5950
F 0 "R27" V 9530 5950 40  0000 C CNN
F 1 "1.5k" V 9457 5951 40  0000 C CNN
F 2 "Resistors_SMD:R_0402" V 9380 5950 30  0001 C CNN
F 3 "" H 9450 5950 30  0000 C CNN
	1    9450 5950
	-1   0    0    1   
$EndComp
$Comp
L GND #PWR058
U 1 1 5554E0F1
P 9450 6250
F 0 "#PWR058" H 9450 6250 30  0001 C CNN
F 1 "GND" H 9450 6180 30  0001 C CNN
F 2 "" H 9450 6250 60  0000 C CNN
F 3 "" H 9450 6250 60  0000 C CNN
	1    9450 6250
	1    0    0    -1  
$EndComp
$Comp
L +BATT #PWR059
U 1 1 5554E0F7
P 9800 4700
F 0 "#PWR059" H 9800 4650 20  0001 C CNN
F 1 "+BATT" H 9800 4800 30  0000 C CNN
F 2 "" H 9800 4700 60  0000 C CNN
F 3 "" H 9800 4700 60  0000 C CNN
	1    9800 4700
	1    0    0    -1  
$EndComp
$Comp
L DC_Motor M4
U 1 1 5554E108
P 10900 5100
F 0 "M4" H 10900 4950 60  0000 C CNN
F 1 "DC_Motor" H 10900 5250 60  0000 C CNN
F 2 "Pin_Headers:Pin_Header_Straight_1x03" H 10900 5100 60  0001 C CNN
F 3 "" H 10900 5100 60  0000 C CNN
	1    10900 5100
	0    1    1    0   
$EndComp
$Comp
L DIODE D9
U 1 1 5554E10E
P 11150 5100
F 0 "D9" H 11150 5200 40  0000 C CNN
F 1 "DIODE" H 11150 5000 40  0000 C CNN
F 2 "Housings_SOT-23_SOT-143_TSOT-6:SOT-23" H 11150 5100 60  0001 C CNN
F 3 "" H 11150 5100 60  0000 C CNN
	1    11150 5100
	0    -1   -1   0   
$EndComp
$Comp
L R R31
U 1 1 5554E11A
P 10250 5650
F 0 "R31" V 10330 5650 40  0000 C CNN
F 1 "150" V 10257 5651 40  0000 C CNN
F 2 "Resistors_SMD:R_0402" V 10180 5650 30  0001 C CNN
F 3 "" H 10250 5650 30  0000 C CNN
	1    10250 5650
	0    1    1    0   
$EndComp
$Comp
L R R33
U 1 1 5554E120
P 10550 5950
F 0 "R33" V 10630 5950 40  0000 C CNN
F 1 "1.5k" V 10557 5951 40  0000 C CNN
F 2 "Resistors_SMD:R_0402" V 10480 5950 30  0001 C CNN
F 3 "" H 10550 5950 30  0000 C CNN
	1    10550 5950
	-1   0    0    1   
$EndComp
$Comp
L GND #PWR060
U 1 1 5554E126
P 10550 6250
F 0 "#PWR060" H 10550 6250 30  0001 C CNN
F 1 "GND" H 10550 6180 30  0001 C CNN
F 2 "" H 10550 6250 60  0000 C CNN
F 3 "" H 10550 6250 60  0000 C CNN
	1    10550 6250
	1    0    0    -1  
$EndComp
$Comp
L +BATT #PWR061
U 1 1 5554E12C
P 10900 4700
F 0 "#PWR061" H 10900 4650 20  0001 C CNN
F 1 "+BATT" H 10900 4800 30  0000 C CNN
F 2 "" H 10900 4700 60  0000 C CNN
F 3 "" H 10900 4700 60  0000 C CNN
	1    10900 4700
	1    0    0    -1  
$EndComp
Text Label 8800 4200 2    60   ~ 0
Motor_PWM01
Text Label 8900 5650 2    60   ~ 0
Motor_PWM03
Text Label 10000 5650 2    60   ~ 0
Motor_PWM04
Wire Wire Line
	6100 1600 6100 1250
Wire Wire Line
	6100 1250 6800 1250
Wire Wire Line
	5950 950  5950 1600
Wire Wire Line
	5950 1050 5850 1050
Wire Wire Line
	5650 1050 5750 1050
Wire Wire Line
	5750 950  5750 1550
Wire Wire Line
	5750 1550 5800 1550
Wire Wire Line
	5800 1550 5800 1600
Wire Wire Line
	5650 1550 5650 1600
Wire Wire Line
	5550 1550 5650 1550
Wire Wire Line
	5550 850  5550 1550
Wire Wire Line
	5550 1050 5450 1050
Wire Wire Line
	5250 1050 5350 1050
Wire Wire Line
	5350 950  5350 1500
Wire Wire Line
	5350 1500 5400 1500
Wire Wire Line
	5400 1500 5400 1600
Wire Wire Line
	5400 1600 5500 1600
Wire Wire Line
	5150 1600 5350 1600
Wire Wire Line
	5150 950  5150 1600
Wire Wire Line
	5150 1050 5050 1050
Wire Wire Line
	5150 950  5950 950 
Connection ~ 5950 1050
Connection ~ 5150 1050
Connection ~ 5350 950 
Connection ~ 5350 1050
Connection ~ 5550 950 
Connection ~ 5550 1050
Connection ~ 5750 950 
Connection ~ 5750 1050
Wire Wire Line
	3500 1150 4250 1150
Wire Wire Line
	4250 1150 4250 2050
Wire Wire Line
	4250 2050 4450 2050
Wire Wire Line
	3000 1250 3800 1250
Wire Wire Line
	3800 1250 3800 1600
Wire Wire Line
	3800 1600 4150 1600
Wire Wire Line
	2750 1150 3000 1150
Wire Wire Line
	4100 1800 3600 1800
Wire Wire Line
	3000 1150 3000 1700
Connection ~ 3500 1250
Connection ~ 3000 1250
Wire Wire Line
	3000 1700 3200 1700
Wire Wire Line
	3200 1700 3200 1750
Wire Wire Line
	3200 1750 3600 1750
Wire Wire Line
	3600 1750 3600 1800
Connection ~ 3500 1750
Wire Wire Line
	4450 2350 4450 2450
Wire Wire Line
	4100 1800 4100 2350
Wire Wire Line
	4100 2350 4450 2350
Wire Wire Line
	4150 1600 4150 2150
Wire Wire Line
	4150 2150 4450 2150
Wire Wire Line
	4350 2550 4350 2650
Wire Wire Line
	4350 2650 4450 2650
Wire Wire Line
	3850 2550 3850 2650
Wire Wire Line
	3850 2650 4300 2650
Wire Wire Line
	4300 2650 4300 2750
Wire Wire Line
	4300 2750 4450 2750
Wire Wire Line
	2650 2500 3800 2500
Connection ~ 2850 2500
Connection ~ 3050 2500
Wire Wire Line
	4450 2850 4450 3050
Wire Wire Line
	4450 2850 3800 2850
Wire Wire Line
	3800 2850 3800 2500
Wire Wire Line
	4300 3050 4350 3050
Wire Wire Line
	4350 3050 4350 3200
Wire Wire Line
	4350 3200 4450 3200
Wire Wire Line
	3550 3100 3550 3050
Wire Wire Line
	3550 3050 3800 3050
Wire Wire Line
	3750 3150 3750 3050
Connection ~ 3750 3050
Wire Wire Line
	3750 3150 3850 3150
Wire Wire Line
	3850 3150 3850 3200
Wire Wire Line
	3850 3200 4300 3200
Wire Wire Line
	4300 3200 4300 3300
Wire Wire Line
	4300 3300 4450 3300
Connection ~ 3950 3200
Wire Wire Line
	4450 3300 4450 3400
Wire Wire Line
	3800 3900 4450 3900
Wire Wire Line
	4450 4000 4050 4000
Wire Wire Line
	3700 5200 3700 5150
Wire Wire Line
	4300 5200 4300 5150
Wire Wire Line
	3700 4600 3700 4750
Wire Wire Line
	4300 4700 4300 4750
Wire Wire Line
	4300 4700 4450 4700
Wire Wire Line
	4450 4600 3700 4600
Connection ~ 3700 4700
Wire Wire Line
	6900 2200 7050 2200
Wire Wire Line
	6900 2300 7050 2300
Wire Wire Line
	6900 2400 7050 2400
Wire Wire Line
	6900 2500 7050 2500
Wire Wire Line
	8000 2200 8000 2400
Connection ~ 8000 2300
Wire Wire Line
	8000 2200 8250 2200
Wire Wire Line
	8000 2500 8050 2500
Wire Wire Line
	8050 2500 8050 2550
Wire Wire Line
	7050 2200 7050 2000
Wire Wire Line
	8100 1650 8100 1700
Wire Wire Line
	8100 1800 8100 1850
Wire Wire Line
	7000 2400 7000 1800
Wire Wire Line
	7000 1800 7600 1800
Connection ~ 7000 2400
Wire Wire Line
	6950 2500 6950 1650
Wire Wire Line
	6950 1650 7600 1650
Connection ~ 6950 2500
Wire Wire Line
	5800 5450 5800 5700
Wire Wire Line
	8700 4950 8600 4950
Wire Wire Line
	6900 4850 7800 4850
Wire Wire Line
	7800 4850 7800 4650
Wire Wire Line
	7800 4650 8600 4650
Wire Wire Line
	8600 4650 8600 4950
Wire Wire Line
	6900 2000 6900 1400
Wire Wire Line
	6900 1400 6950 1400
Wire Wire Line
	5800 5700 6600 5700
Wire Wire Line
	5050 5650 5050 5550
Wire Wire Line
	5150 5550 5150 5450
Wire Wire Line
	5050 5500 5050 5450
Wire Wire Line
	4600 5500 5050 5500
Wire Wire Line
	5250 5450 5250 6150
Connection ~ 5250 6100
Wire Wire Line
	9750 800  9750 900 
Wire Wire Line
	6800 1250 6800 900 
Wire Wire Line
	6800 900  8850 900 
Connection ~ 6600 1250
Wire Wire Line
	5500 6000 6600 6000
Wire Wire Line
	4900 5500 4900 5650
Connection ~ 4900 5500
Wire Wire Line
	5150 6100 5150 6300
Wire Wire Line
	5150 6300 4600 6300
Wire Wire Line
	1300 4750 1300 4800
Wire Wire Line
	1300 4250 1350 4250
Wire Wire Line
	1850 4250 1900 4250
Wire Wire Line
	2200 4400 2200 4450
Wire Wire Line
	2200 3950 2200 4000
Wire Wire Line
	1300 4250 1300 4150
Wire Wire Line
	1550 5150 1550 5200
Wire Wire Line
	1550 4650 1600 4650
Wire Wire Line
	2100 4650 2150 4650
Wire Wire Line
	2450 4800 2450 4850
Wire Wire Line
	2450 4350 2450 4400
Wire Wire Line
	1550 4650 1550 4550
Wire Wire Line
	6600 1700 6600 1650
Wire Wire Line
	8050 2100 8050 2200
Connection ~ 8050 2200
Wire Wire Line
	6600 5800 5700 5800
Wire Wire Line
	5600 5450 5600 5900
Wire Wire Line
	5600 5900 6600 5900
Wire Wire Line
	5500 5450 5500 6200
Wire Wire Line
	5050 5550 5150 5550
Wire Wire Line
	4600 5500 4600 5850
Wire Wire Line
	4600 6300 4600 6050
Wire Wire Line
	3300 5800 3300 5950
Wire Wire Line
	3300 5950 3600 5950
Wire Wire Line
	5700 5800 5700 5450
Wire Wire Line
	9950 2800 9950 2850
Wire Wire Line
	9950 2350 9950 2400
Wire Wire Line
	1800 5550 1800 5600
Wire Wire Line
	1800 5050 1850 5050
Wire Wire Line
	2350 5050 2400 5050
Wire Wire Line
	2700 5200 2700 5250
Wire Wire Line
	2700 4750 2700 4800
Wire Wire Line
	1800 5050 1800 4950
Wire Wire Line
	7950 800  7950 900 
Connection ~ 7950 900 
Wire Wire Line
	6900 2750 7450 2750
Wire Wire Line
	7450 2750 7450 3000
Wire Wire Line
	7450 3000 7600 3000
Wire Wire Line
	6900 2850 7350 2850
Wire Wire Line
	7350 2850 7350 3300
Wire Wire Line
	7350 3100 7600 3100
Wire Wire Line
	5150 6100 5250 6100
Wire Wire Line
	6250 5550 6250 5700
Connection ~ 6250 5700
Wire Wire Line
	9750 900  10200 900 
Wire Wire Line
	10200 1000 10100 1000
Wire Wire Line
	10100 1000 10100 1100
Wire Wire Line
	3400 6550 3550 6550
Wire Wire Line
	3550 6700 3400 6700
Wire Wire Line
	7850 4100 7850 4050
Wire Wire Line
	8000 4250 8000 4050
Wire Wire Line
	6900 4100 7350 4100
Wire Wire Line
	6900 4200 7250 4200
Wire Wire Line
	7250 4200 7250 4250
Wire Wire Line
	7250 4250 7500 4250
Wire Wire Line
	9700 3300 9700 3250
Wire Wire Line
	9350 4750 9350 4800
Wire Wire Line
	9300 4200 9400 4200
Wire Wire Line
	9350 4250 9350 4200
Connection ~ 9350 4200
Wire Wire Line
	9700 4400 9700 4750
Wire Wire Line
	9700 4750 9350 4750
Wire Wire Line
	9700 4000 9950 4000
Wire Wire Line
	9950 4000 9950 3850
Wire Wire Line
	9700 3300 9950 3300
Wire Wire Line
	9950 3300 9950 3450
Wire Wire Line
	10800 3300 10800 3250
Wire Wire Line
	10450 4750 10450 4800
Wire Wire Line
	10400 4200 10500 4200
Wire Wire Line
	10450 4250 10450 4200
Connection ~ 10450 4200
Wire Wire Line
	10800 4400 10800 4750
Wire Wire Line
	10800 4750 10450 4750
Wire Wire Line
	10800 4000 11050 4000
Wire Wire Line
	11050 4000 11050 3850
Wire Wire Line
	10800 3300 11050 3300
Wire Wire Line
	11050 3300 11050 3450
Wire Wire Line
	9800 4750 9800 4700
Wire Wire Line
	9450 6200 9450 6250
Wire Wire Line
	9400 5650 9500 5650
Wire Wire Line
	9450 5700 9450 5650
Connection ~ 9450 5650
Wire Wire Line
	9800 5850 9800 6200
Wire Wire Line
	9800 6200 9450 6200
Wire Wire Line
	9800 5450 10050 5450
Wire Wire Line
	10050 5450 10050 5300
Wire Wire Line
	9800 4750 10050 4750
Wire Wire Line
	10050 4750 10050 4900
Wire Wire Line
	10900 4750 10900 4700
Wire Wire Line
	10550 6200 10550 6250
Wire Wire Line
	10500 5650 10600 5650
Wire Wire Line
	10550 5700 10550 5650
Connection ~ 10550 5650
Wire Wire Line
	10900 5850 10900 6200
Wire Wire Line
	10900 6200 10550 6200
Wire Wire Line
	10900 5450 11150 5450
Wire Wire Line
	11150 5450 11150 5300
Wire Wire Line
	10900 4750 11150 4750
Wire Wire Line
	11150 4750 11150 4900
Text Label 6900 3900 0    60   ~ 0
gyro_int1
Text Label 2550 6750 2    60   ~ 0
accel_int
Wire Wire Line
	2550 6750 2650 6750
Text Label 6900 4300 0    60   ~ 0
accel_int
Text Label 6900 4000 0    60   ~ 0
gyro_int2
Text Label 9900 4200 2    60   ~ 0
Motor_PWM02
$Comp
L My_MOS_N Q4
U 1 1 55561E52
P 9600 4200
F 0 "Q4" H 9610 4370 60  0000 R CNN
F 1 "My_MOS_N" H 9610 4050 60  0000 R CNN
F 2 "cc3200_quad_footprints:SOT-223" H 9600 4200 60  0001 C CNN
F 3 "" H 9600 4200 60  0000 C CNN
	1    9600 4200
	1    0    0    -1  
$EndComp
$Comp
L My_MOS_N Q7
U 1 1 55562B4F
P 10700 4200
F 0 "Q7" H 10710 4370 60  0000 R CNN
F 1 "My_MOS_N" H 10710 4050 60  0000 R CNN
F 2 "cc3200_quad_footprints:SOT-223" H 10700 4200 60  0001 C CNN
F 3 "" H 10700 4200 60  0000 C CNN
	1    10700 4200
	1    0    0    -1  
$EndComp
$Comp
L My_MOS_N Q5
U 1 1 55562CB7
P 9700 5650
F 0 "Q5" H 9710 5820 60  0000 R CNN
F 1 "My_MOS_N" H 9710 5500 60  0000 R CNN
F 2 "cc3200_quad_footprints:SOT-223" H 9700 5650 60  0001 C CNN
F 3 "" H 9700 5650 60  0000 C CNN
	1    9700 5650
	1    0    0    -1  
$EndComp
$Comp
L My_MOS_N Q8
U 1 1 5556301D
P 10800 5650
F 0 "Q8" H 10810 5820 60  0000 R CNN
F 1 "My_MOS_N" H 10810 5500 60  0000 R CNN
F 2 "cc3200_quad_footprints:SOT-223" H 10800 5650 60  0001 C CNN
F 3 "" H 10800 5650 60  0000 C CNN
	1    10800 5650
	1    0    0    -1  
$EndComp
$Comp
L CC3200 U1
U 1 1 552178F0
P 5600 3450
F 0 "U1" H 5600 3450 60  0000 C CNN
F 1 "CC3200" H 5600 3550 60  0000 C CNN
F 2 "cc3200_quad_footprints:cc3200" H 5600 3450 60  0001 C CNN
F 3 "" H 5600 3450 60  0000 C CNN
	1    5600 3450
	1    0    0    -1  
$EndComp
NoConn ~ 4450 3750
Text Notes 3000 3750 0    60   ~ 0
0.1uF to each pin, 10uF to inductor\n
Text Notes 2400 2450 0    60   ~ 0
22uF caps to pin 42, 0.1uF to pin 33
Text Notes 3000 1700 0    60   ~ 0
to each 36, 25
$Comp
L R R18
U 1 1 555938B7
P 7700 2750
F 0 "R18" V 7780 2750 40  0000 C CNN
F 1 "100k" V 7707 2751 40  0000 C CNN
F 2 "Resistors_SMD:R_0402" V 7630 2750 30  0001 C CNN
F 3 "" H 7700 2750 30  0000 C CNN
	1    7700 2750
	0    1    1    0   
$EndComp
$Comp
L +3.3V #PWR062
U 1 1 55593952
P 7950 2750
F 0 "#PWR062" H 7950 2710 30  0001 C CNN
F 1 "+3.3V" H 7950 2860 30  0000 C CNN
F 2 "" H 7950 2750 60  0000 C CNN
F 3 "" H 7950 2750 60  0000 C CNN
	1    7950 2750
	1    0    0    -1  
$EndComp
$Comp
L R R22
U 1 1 555939B4
P 7900 3300
F 0 "R22" V 7980 3300 40  0000 C CNN
F 1 "100k" V 7907 3301 40  0000 C CNN
F 2 "Resistors_SMD:R_0402" V 7830 3300 30  0001 C CNN
F 3 "" H 7900 3300 30  0000 C CNN
	1    7900 3300
	0    1    1    0   
$EndComp
$Comp
L +3.3V #PWR063
U 1 1 55593A4E
P 8150 3300
F 0 "#PWR063" H 8150 3260 30  0001 C CNN
F 1 "+3.3V" H 8150 3410 30  0000 C CNN
F 2 "" H 8150 3300 60  0000 C CNN
F 3 "" H 8150 3300 60  0000 C CNN
	1    8150 3300
	1    0    0    -1  
$EndComp
Wire Wire Line
	7350 3300 7650 3300
Connection ~ 7350 3100
$Comp
L R R14
U 1 1 5558F720
P 5950 6200
F 0 "R14" V 6030 6200 40  0000 C CNN
F 1 "100k" V 5957 6201 40  0000 C CNN
F 2 "Resistors_SMD:R_0402" V 5880 6200 30  0001 C CNN
F 3 "" H 5950 6200 30  0000 C CNN
	1    5950 6200
	0    1    1    0   
$EndComp
$Comp
L GND #PWR064
U 1 1 5558F94A
P 6250 6300
F 0 "#PWR064" H 6250 6300 30  0001 C CNN
F 1 "GND" H 6250 6230 30  0001 C CNN
F 2 "" H 6250 6300 60  0000 C CNN
F 3 "" H 6250 6300 60  0000 C CNN
	1    6250 6300
	1    0    0    -1  
$EndComp
Wire Wire Line
	5500 6200 5700 6200
Connection ~ 5500 6000
Wire Wire Line
	6200 6200 6250 6200
Wire Wire Line
	6250 6200 6250 6300
Wire Wire Line
	6900 4950 7700 4950
Connection ~ 7600 4950
$Comp
L CONN_01X02 P4
U 1 1 55C79228
P 4300 6650
F 0 "P4" H 4300 6800 50  0000 C CNN
F 1 "CONN_01X02" V 4400 6650 50  0000 C CNN
F 2 "Pin_Headers:Pin_Header_Straight_1x02" H 4300 6650 60  0001 C CNN
F 3 "" H 4300 6650 60  0000 C CNN
	1    4300 6650
	1    0    0    -1  
$EndComp
Wire Wire Line
	3550 6700 3550 6750
Wire Wire Line
	3550 6750 4100 6750
Wire Wire Line
	4100 6750 4100 6700
Wire Wire Line
	3550 6550 3550 6600
Wire Wire Line
	3550 6600 4100 6600
$EndSCHEMATC
