EESchema Schematic File Version 2
LIBS:power
LIBS:device
LIBS:transistors
LIBS:conn
LIBS:linear
LIBS:regul
LIBS:74xx
LIBS:cmos4000
LIBS:adc-dac
LIBS:memory
LIBS:xilinx
LIBS:special
LIBS:microcontrollers
LIBS:dsp
LIBS:microchip
LIBS:analog_switches
LIBS:motorola
LIBS:texas
LIBS:intel
LIBS:audio
LIBS:interface
LIBS:digital-audio
LIBS:philips
LIBS:display
LIBS:cypress
LIBS:siliconi
LIBS:opto
LIBS:atmel
LIBS:contrib
LIBS:valves
LIBS:cc3200_quad
LIBS:dips-s
LIBS:cc3200_quad-cache
EELAYER 25 0
EELAYER END
$Descr A4 11693 8268
encoding utf-8
Sheet 4 4
Title ""
Date ""
Rev ""
Comp ""
Comment1 ""
Comment2 ""
Comment3 ""
Comment4 ""
$EndDescr
Text HLabel 5700 3250 1    60   Input ~ 0
sda
Text HLabel 5800 3250 1    60   Input ~ 0
scl
Text HLabel 6250 4900 2    60   Input ~ 0
INT
$Comp
L MPU6050 U6
U 1 1 55C74F3B
P 5950 4100
F 0 "U6" H 5950 4150 60  0000 C CNN
F 1 "MPU6050" H 5950 4050 60  0000 C CNN
F 2 "" H 5950 4100 60  0001 C CNN
F 3 "" H 5950 4100 60  0000 C CNN
	1    5950 4100
	1    0    0    -1  
$EndComp
$Comp
L C C29
U 1 1 55C7513E
P 6100 3100
F 0 "C29" H 6100 3200 40  0000 L CNN
F 1 "2.2nF" H 6106 3015 40  0000 L CNN
F 2 "Capacitors_SMD:C_0402" H 6138 2950 30  0001 C CNN
F 3 "" H 6100 3100 60  0000 C CNN
	1    6100 3100
	1    0    0    -1  
$EndComp
$Comp
L GND #PWR075
U 1 1 55C7517A
P 6100 2800
F 0 "#PWR075" H 6100 2800 30  0001 C CNN
F 1 "GND" H 6100 2730 30  0001 C CNN
F 2 "" H 6100 2800 60  0000 C CNN
F 3 "" H 6100 2800 60  0000 C CNN
	1    6100 2800
	-1   0    0    1   
$EndComp
$Comp
L GND #PWR076
U 1 1 55C753BB
P 6900 3850
F 0 "#PWR076" H 6900 3850 30  0001 C CNN
F 1 "GND" H 6900 3780 30  0001 C CNN
F 2 "" H 6900 3850 60  0000 C CNN
F 3 "" H 6900 3850 60  0000 C CNN
	1    6900 3850
	0    -1   -1   0   
$EndComp
$Comp
L +3.3V #PWR077
U 1 1 55C753FA
P 6900 4300
F 0 "#PWR077" H 6900 4260 30  0001 C CNN
F 1 "+3.3V" H 6900 4410 30  0000 C CNN
F 2 "" H 6900 4300 60  0000 C CNN
F 3 "" H 6900 4300 60  0000 C CNN
	1    6900 4300
	1    0    0    -1  
$EndComp
$Comp
L C C30
U 1 1 55C7540E
P 6900 4550
F 0 "C30" H 6900 4650 40  0000 L CNN
F 1 "0.1uF" H 6906 4465 40  0000 L CNN
F 2 "Capacitors_SMD:C_0402" H 6938 4400 30  0001 C CNN
F 3 "" H 6900 4550 60  0000 C CNN
	1    6900 4550
	1    0    0    -1  
$EndComp
$Comp
L GND #PWR078
U 1 1 55C75454
P 6900 4850
F 0 "#PWR078" H 6900 4850 30  0001 C CNN
F 1 "GND" H 6900 4780 30  0001 C CNN
F 2 "" H 6900 4850 60  0000 C CNN
F 3 "" H 6900 4850 60  0000 C CNN
	1    6900 4850
	1    0    0    -1  
$EndComp
$Comp
L +3.3V #PWR079
U 1 1 55C75508
P 5700 5100
F 0 "#PWR079" H 5700 5060 30  0001 C CNN
F 1 "+3.3V" H 5700 5210 30  0000 C CNN
F 2 "" H 5700 5100 60  0000 C CNN
F 3 "" H 5700 5100 60  0000 C CNN
	1    5700 5100
	1    0    0    -1  
$EndComp
$Comp
L C C28
U 1 1 55C75516
P 6000 5100
F 0 "C28" H 6000 5200 40  0000 L CNN
F 1 "0.1uF" H 6006 5015 40  0000 L CNN
F 2 "Capacitors_SMD:C_0402" H 6038 4950 30  0001 C CNN
F 3 "" H 6000 5100 60  0000 C CNN
	1    6000 5100
	1    0    0    -1  
$EndComp
$Comp
L C C25
U 1 1 55C75552
P 5800 5350
F 0 "C25" H 5800 5450 40  0000 L CNN
F 1 "10nF" H 5806 5265 40  0000 L CNN
F 2 "Capacitors_SMD:C_0402" H 5838 5200 30  0001 C CNN
F 3 "" H 5800 5350 60  0000 C CNN
	1    5800 5350
	1    0    0    -1  
$EndComp
Wire Wire Line
	6200 4800 6200 4900
Wire Wire Line
	6200 4900 6250 4900
Wire Wire Line
	5800 3400 5800 3250
Wire Wire Line
	5700 3250 5700 3400
Wire Wire Line
	6100 2900 6100 2800
Wire Wire Line
	6100 3400 6100 3300
Wire Wire Line
	6700 3850 6900 3850
Wire Wire Line
	6700 4350 6900 4350
Wire Wire Line
	6900 4350 6900 4300
Wire Wire Line
	6900 4850 6900 4750
Wire Wire Line
	6000 4800 6000 4900
Wire Wire Line
	5700 5100 5800 5100
Wire Wire Line
	5800 4800 5800 5150
Connection ~ 5800 5100
$Comp
L GND #PWR080
U 1 1 55C75832
P 6000 5350
F 0 "#PWR080" H 6000 5350 30  0001 C CNN
F 1 "GND" H 6000 5280 30  0001 C CNN
F 2 "" H 6000 5350 60  0000 C CNN
F 3 "" H 6000 5350 60  0000 C CNN
	1    6000 5350
	1    0    0    -1  
$EndComp
$Comp
L GND #PWR081
U 1 1 55C75842
P 5800 5600
F 0 "#PWR081" H 5800 5600 30  0001 C CNN
F 1 "GND" H 5800 5530 30  0001 C CNN
F 2 "" H 5800 5600 60  0000 C CNN
F 3 "" H 5800 5600 60  0000 C CNN
	1    5800 5600
	1    0    0    -1  
$EndComp
Wire Wire Line
	6000 5300 6000 5350
Wire Wire Line
	5800 5550 5800 5600
$Comp
L GND #PWR082
U 1 1 55C75C47
P 5900 4900
F 0 "#PWR082" H 5900 4900 30  0001 C CNN
F 1 "GND" H 5900 4830 30  0001 C CNN
F 2 "" H 5900 4900 60  0000 C CNN
F 3 "" H 5900 4900 60  0000 C CNN
	1    5900 4900
	1    0    0    -1  
$EndComp
Wire Wire Line
	5900 4800 5900 4900
$Comp
L GND #PWR083
U 1 1 55C762F1
P 5050 3900
F 0 "#PWR083" H 5050 3900 30  0001 C CNN
F 1 "GND" H 5050 3830 30  0001 C CNN
F 2 "" H 5050 3900 60  0000 C CNN
F 3 "" H 5050 3900 60  0000 C CNN
	1    5050 3900
	1    0    0    -1  
$EndComp
Wire Wire Line
	5050 3900 5050 3850
Wire Wire Line
	5050 3850 5200 3850
NoConn ~ 5200 4350
NoConn ~ 5700 4800
$Comp
L GND #PWR084
U 1 1 55C766E1
P 6100 4900
F 0 "#PWR084" H 6100 4900 30  0001 C CNN
F 1 "GND" H 6100 4830 30  0001 C CNN
F 2 "" H 6100 4900 60  0000 C CNN
F 3 "" H 6100 4900 60  0000 C CNN
	1    6100 4900
	1    0    0    -1  
$EndComp
Wire Wire Line
	6100 4900 6100 4800
NoConn ~ 6200 3400
NoConn ~ 6000 3400
NoConn ~ 5900 3400
$EndSCHEMATC
