G04 #@! TF.FileFunction,Copper,L1,Top,Signal*
%FSLAX46Y46*%
G04 Gerber Fmt 4.6, Leading zero omitted, Abs format (unit mm)*
G04 Created by KiCad (PCBNEW (2014-12-04 BZR 5312)-product) date 7/13/2015 8:15:50 PM*
%MOMM*%
G01*
G04 APERTURE LIST*
%ADD10C,0.100000*%
%ADD11R,2.032000X2.032000*%
%ADD12O,2.032000X2.032000*%
%ADD13R,2.032000X1.727200*%
%ADD14O,2.032000X1.727200*%
%ADD15C,0.750000*%
G04 APERTURE END LIST*
D10*
D11*
X146300000Y-105900000D03*
D12*
X143760000Y-105900000D03*
D13*
X133000000Y-104000000D03*
D14*
X133000000Y-106540000D03*
X133000000Y-109080000D03*
D15*
X133000000Y-106540000D02*
X137960000Y-106540000D01*
X138600000Y-105900000D02*
X143760000Y-105900000D01*
X137960000Y-106540000D02*
X138600000Y-105900000D01*
M02*
